
               Powder Rag              Stefan Grossman,  1972 live album

                                             bar 5
 e|--|0-0-0-0-|0-2---------|0-0-0-0-|0-05-42-|--------|---2-0--|--------|
 B|23|2-2-2-2-|3-----2-3-4-|2-------|-4------|2-2-2-2-|212---2-|0-0-0-0-|
 G|--|2-2-3-3-|4-----2-4-5-|--------|--------|2-1-2-2-|-------2|---1---1|
 D|--|--------|------------|--2---2-|--2---2-|----4-2-|--2---2-|--0---0-|
 A|--|--------|--2---------|0-------|0-------|--------|0-------|--------|
 E|--|--------|----0-------|----0---|----0---|--------|----0---|0---0---|

                    bar 10                                       bar 15
 e|---0----|----0-2-|4340----|0-0-0-0-|0-05-42-|--------|---2-0--|--------|
 B|0-0--32-|--------|-----234|2-------|-4------|2-2-2-2-|212---32|0-0-0-0-|
 G|-3------|2-2-----|-----245|--------|--------|----2-2-|--------|---3---3|
 D|--0---2-|--2-----|--2-----|--2---2-|--2---2-|--------|--2---4-|--4---4-|
 A|--------|0---4-3-|2-------|0-------|0-------|0-------|0-------|2---2---|
 E|0---0---|--------|----0---|----0---|----0---|--4-2-0-|----2---|--------|

                                      bar 20
 e|---0----|--20----|--------|0-0-0-0-|0-05-42-|--------|---2-0--|--------|
 B|0-0--32-|-----320|--2-3-4-|2-------|-4------|2-2-2-2-|212---2-|0-0-0-0-|
 G|-3------|2-------|2-2-4-5-|--------|--------|2-1-2-2-|--------|---1---1|
 D|--4---2-|--42-0--|--------|--2---2-|--2---2-|----4-2-|--2---2-|--0---0-|
 A|2-------|0-----42|0-------|0-------|0-------|--------|0-------|--------|
 E|----0---|--------|--------|----0---|----0---|--------|----0---|0---0---|

           bar 25                                       bar 30
 e|---0-2--|----0-2-|4340----|0-0-0-0-|0-05-42-|--------|---2-0--|--------|
 B|0-0----2|--------|-----234|2-------|-4------|2-2-2-2-|212---32|0-0-0-0-|
 G|-3------|2-2-----|-----245|--------|--------|2-1-2-2-|--------|---3---3|
 D|--0---2-|--2-----|--2-----|--2---2-|--2---2-|----4-2-|--2---4-|--4---4-|
 A|--------|0---4-3-|2-------|0-------|0-------|--------|0-------|2---2---|
 E|0---0---|--------|----0---|----0---|----0---|--------|----2---|--------|

                              bar 35
 e|---0----|--------|--------||:--7-x-7-|--75-75-|0-2-0-2-|0-20-20-|--------|
 B|0-0--32-|--------|------5-||:--------|--------|--2---2-|--2---2-|4---4---|
 G|-3------|2-------|2---6---||:--7-x-7-|--7---7-|--------|--------|4---4---|
 D|--4---2-|--12x---|--7-----||:0---0---|0---0---|--2---2-|--------|--4-x-4-|
 A|2-------|0----34-|0--x----||:--------|--------|0-------|----1---|--2-x-2-|
 E|----0---|--------|--------||:--------|--------|----0---|2-4---2-|--------|

  bar 40                                       bar 45
 e|---0----|--------|--------|--7-x-7-|--75-75-|0-2-0-2-|0-20-20-|--------|
 B|02---20-|2--0----|2-21-2--|--------|--------|--2---2-|--2---2-|4---4---|
 G|--------|--2-----|--------|--7-x-7-|--7---7-|--------|--------|4---4---|
 D|--2---2-|--2---2-|--2-1-2-|0---0---|0---0---|--2---2-|--------|--4-x-4-|
 A|--------|0-------|0-------|--------|--------|0-------|----1---|--2-x-2-|
 E|0---0---|----0---|--------|--------|--------|----0---|2-4---2-|--------|

                    1st time    2nd time ...                       bar 55
 e|---0----|--------|------0-:||--------|0-0-0-0-|0-05-42-|--------|---2-0--|
 B|02---02-|--------|---02---:||--2-3-4-|2-------|-4------|2-2-2-2-|212---2-|
 G|--------|2--x----|2-2-----:||2-2-4-5-|--------|--------|2-1-2-2-|-------2|
 D|--2---2-|--12--x-|--------:||--------|--2---2-|--2---2-|----4-2-|--2---2-|
 A|--------|0--x-34-|0-------:||0-------|0-------|0-------|--------|0-------|
 E|0---0---|--------|--------:||--------|----0---|----2---|----0---|0---0---|

                                      bar 60
 e|--------|---0----|----0-2-|4340----|0-0-0-0-|0-05-42-|--------|---2-0--|
 B|0-0-0-0-|0-0--32-|--------|-----234|2-------|-4------|2-2-2-2-|212---32|
 G|---1---1|-3------|2-2-----|-----245|--------|--------|----2-2-|--------|
 D|--0---0-|--0---2-|--2-----|--2-----|--2---2-|--2---2-|--------|--2---4-|
 A|--------|--------|0---4-3-|2-------|0-------|0-------|0-------|0-------|
 E|0---0---|0---0---|--------|----0-x-|----0---|----0---|--4-2-0-|----2---|


 e|--------|---0----|--------|----5--x||
 B|0-0-0-0-|0-0--32-|--------|----5--x||
 G|---3---3|-3------|2-------|2-x-6--x||
 D|--4---4-|--4---2-|--12x---|----7--x||
 A|2---2---|2-------|0----34-|0-x-----||
 E|--------|----0---|x-------|--------||

=========================================================================

