%!PS-Adobe-3.0 EPSF-3.0
%%BoundingBox: 0 0 1280 720
%%%%%%%%%%%%%%%%%%%%%%%%%%%%%%%%%%%%%%%%%%%%%%%%%%%%%%%%%%%%%%%%%%%%%%%%%
%           This EPS is Copyright (c) 2013, Peter J Billam              %
%                                                                       %
% Permission is granted  to any individual or institution to use, copy, %
% modify or redistribute this software, so long as it is not resold for %
% profit,  and provided this notice is retained.   Neither Peter Billam %
% nor  PJB Computing  make any representations about the suitability of %
% this software for any purpose.    It is provided "as is", without any %
% express or implied warranty.                http://www.pjb.com.au     %
%%%%%%%%%%%%%%%%%%%%%%%%%%%%%%%%%%%%%%%%%%%%%%%%%%%%%%%%%%%%%%%%%%%%%%%%%
%%EndComments
%%BeginProlog
(/home/pjb/ps/lib/colours.ps) run
(/home/pjb/ps/lib/text.ps) run
/centreshow { % usage: x y font fontsize (string) centreshow
    /s exch def /fontsize exch def /font exch def 
    gsave moveto font findfont fontsize scalefont setfont
    gsave s false charpath flattenpath pathbbox grestore
    exch 4 -1 roll pop pop s stringwidth pop -0.5 mul  % dx/2
    3 1 roll sub 0.5 mul % dy/2
    rmoveto s show grestore
} bind def

/Times-Roman findfont dup length dict begin
    { 1 index /FID ne { def } { pop pop } ifelse } forall
    /Encoding ISOLatin1Encoding def currentdict
end /Times-Roman-ISO exch definefont pop

/Times-Bold findfont dup length dict begin
    { 1 index /FID ne { def } { pop pop } ifelse } forall 
    /Encoding ISOLatin1Encoding def currentdict
end /Times-Bold-ISO exch definefont pop
    
/Times-BoldItalic findfont dup length dict begin
    { 1 index /FID ne { def } { pop pop } ifelse } forall 
    /Encoding ISOLatin1Encoding def currentdict
end /Times-BoldItalic-ISO exch definefont pop
    
/Times-Italic findfont dup length dict begin
    { 1 index /FID ne { def } { pop pop } ifelse } forall 
    /Encoding ISOLatin1Encoding def currentdict
end /Times-Italic-ISO exch definefont pop
%%EndProlog
/xmax 1280 def /ymax 720 def
darkred setrgbcolor
640 580 /Times-BoldItalic-ISO 50
(Béla Bartók     Suite op. 14     1916) centreshow

black setrgbcolor
/Times-BoldItalic-ISO 30 selectfont
/longstring (The fingering is based on that noted by David Bollard in 1964 \
when he was in London studying this piece with Ilona Kabos \
and later with Louis Kentner. ) def
/width 970 def
xmax width sub 0.5 mul  ymax 0.60 mul  longstring width LeftJustifyText

/width 930 def
xmax width sub 0.5 mul  currentpoint exch pop 50 sub
(The score is typeset using muscript, \
performed using muscript feeding into fluadity,
and converted to video using muscript2video. \
See pjb.com.au ) width LeftJustifyText

240 currentpoint exch pop 50 sub (The score is freely available \
under a Creative Commons licence if you \
visit pjb.com.au then click on piano and look for Bartók.) 800 LeftJustifyText

640 150 /Times-BoldItalic 30 (typeset and realised by  Peter Billam) centreshow

darkred setrgbcolor 640 100 /Times-BoldItalic 40 (www.pjb.com.au) centreshow
%%EOF
