%!PS-Adobe-3.0 EPSF-3.0
%%BoundingBox: 0 0 1280 720
%%%%%%%%%%%%%%%%%%%%%%%%%%%%%%%%%%%%%%%%%%%%%%%%%%%%%%%%%%%%%%%%%%%%%%%%%
%           This EPS is Copyright (c) 2013, Peter J Billam              %
%                                                                       %
% Permission is granted  to any individual or institution to use, copy, %
% modify or redistribute this software, so long as it is not resold for %
% profit,  and provided this notice is retained.   Neither Peter Billam %
% nor  PJB Computing  make any representations about the suitability of %
% this software for any purpose.    It is provided "as is", without any %
% express or implied warranty.                http://www.pjb.com.au     %
%%%%%%%%%%%%%%%%%%%%%%%%%%%%%%%%%%%%%%%%%%%%%%%%%%%%%%%%%%%%%%%%%%%%%%%%%
%%EndComments
%%BeginProlog
(/home/pjb/ps/lib/colours.ps) run
/rightshow {  % usage: x y font fontsize (string) rightshow
  5 dict begin
  [ /s /fontsize /font /y /x ] { exch def } forall
  gsave font findfont  fontsize scalefont  setfont
  x s stringwidth 3 1 roll  %  ys x xs
    sub exch   % xfinal ys
    y exch sub
    moveto s show grestore
  end
} bind def

/leftshow {  % usage: x y font fontsize (string) leftshow
  5 dict begin
    [ /s /fontsize /font /y /x ] { exch def } forall
    gsave font findfont  fontsize scalefont  setfont
    x y moveto s show grestore
  end
} bind def

/centreshow { % usage: x y font fontsize (string) centreshow
    /s exch def /fontsize exch def /font exch def 
    gsave moveto font findfont fontsize scalefont setfont
    gsave s false charpath flattenpath pathbbox grestore
    exch 4 -1 roll pop pop s stringwidth pop -0.5 mul  % dx/2
    3 1 roll sub 0.5 mul % dy/2
    rmoveto s show grestore
} bind def

/Times-Roman findfont dup length dict begin
    { 1 index /FID ne { def } { pop pop } ifelse } forall
    /Encoding ISOLatin1Encoding def currentdict
end /Times-Roman-ISO exch definefont pop

/Times-Bold findfont dup length dict begin
    { 1 index /FID ne { def } { pop pop } ifelse } forall 
    /Encoding ISOLatin1Encoding def currentdict
end /Times-Bold-ISO exch definefont pop
    
/Times-BoldItalic findfont dup length dict begin
    { 1 index /FID ne { def } { pop pop } ifelse } forall 
    /Encoding ISOLatin1Encoding def currentdict
end /Times-BoldItalic-ISO exch definefont pop
    
/Times-Italic findfont dup length dict begin
    { 1 index /FID ne { def } { pop pop } ifelse } forall 
    /Encoding ISOLatin1Encoding def currentdict
end /Times-Italic-ISO exch definefont pop
%%EndProlog
darkred setrgbcolor
640 560 /Times-BoldItalic 160 (Suite op. 14) centreshow
black setrgbcolor
640 410 /Times-BoldItalic 56 (for piano) centreshow
640 330 /Times-BoldItalic 55 (1916) centreshow
% 640 300 /Times-BoldItalic 45 (completed by Zoltán Göncz) centreshow
darkred setrgbcolor
640 230 /Times-BoldItalic-ISO 85 (Béla Bartók) centreshow
black setrgbcolor
165  65 /Times-BoldItalic 30 (fingering by David Bollard) leftshow
1115 65 /Times-BoldItalic 30 (typeset by Peter Billam) rightshow
%%EOF
