6 systems 10 /19-35-19/19-45-19/19-45-19 3/19-42-19 2/19-40-19 3/19-37-19 8/
pagenum 4
title Contrapunctus 14
innerhead J. S. Bach, completed by Zoltán Göncz
leftfoot typesetting (c) 1998 Peter Billam
midi channel 0 patch 0 pan80
midi channel 1 patch 0 pan60
midi channel 2 patch 0 pan40
midi channel 3 patch 0 pan20
# Zoltán Göncz "Reconstruction of the Final Contrapunctus of the Art of Fugue",
# International Journal of Musicology, Vol.5, pp 25-93, Vol.6 pp.103-119, 1998
# http://en.wikipedia.org/wiki/Zolt%C3%A1n_G%C3%B6ncz
/
8 bars | 1b 2/2 4 | 4 | 3 | 3 | 3 | 4 | 4 | 4 |
| 2/2 2.0
=1  treble 1b leg95 cha1  cc11=90
=2' bass   1b leg95 cha2  cc11=95
=2, bass   1b leg95 cha3  cc11=100
# midi off
=1  treble 1b 1 rest
=2' bass   1b 1 rest'
=2, bass   1b cha3 2 rest d
|
=1 1 rest
=2 1 rest''
=2, cha3 2. a 4 g
|
=1 1 rest
=2 1 rest''
=2, cha3 1 f
|
=1 1 rest
=2 1 rest''
=2, cha3 1 g
|
il0.2      5
=1 1 rest
=2 1 rest''
=2, cha3 1 a
|
=1 1 rest
=2' cha2 2 rest' a
=2, cha3 2 d f(2
|
=1 1 rest
=2' cha2 2. d~ 4 d~
=2, cha3 4 leg80 f)2 leg95 Bn 2 e
|
=1 1 rest
=2' cha2 1 c~
=2, cha3 4 leg80 A leg95 e a g
/
6 bars | 1b 4 | 1 1 1 1.3 | 4 | 4 | 4 | 1 1 1 1.3 |
|
=1  1 rest
=2' cha2 1 d~
=2, cha3 4 leg80 f leg95 d b-s2, a-s1,
|
il0.3 .20 10
=1 1 rest
=2' cha2 1 e~
=2, cha3 4 leg80 g leg95 e c# 8 [d-s3, e]
|
=1' cha0 1 rest  cc11=110
=1, cha1 2 rest, D-s2
=2' cha2 2 leg80 a leg95 d~(1
=2, cha3 4 f d-s2, c B
|
=1 1 rest'
=1, cha1 2. A 4 G
=2' cha2 2 d~)1 c~#
=2, cha3 4 A-s5, G-s4, 2 A-s2,
|
=1 1 rest
=1, cha1 1 F-s2-s5
=2' cha2 4 leg80 d~ leg95 a 2 b(1
=2, cha3 2. leg80 D 4 leg95 d-s1,
|
=1' cha0 2. blank 1 rest'
=1, cha1 1 G-s5
=2' cha2 4 leg80 b)1 leg95 g-s1, 2 c~(1-s1
=2, cha3 2. e-s3, 8 [d-s5, e]
/
5 bars | 1b 4 | 1 1 1 1.2 | 1 1.3 1 1 | 3.7 | 3.7 |
|
il0.5 .23 15
=1' cha0 2. blank 1 rest'
=1, cha1 1 A-s4
=2' cha2 4 leg80 c~)1 leg95 a-s2, d~-s1 c~(1-s1,
=2, cha3 2 f-s5, f#-s4,
|
=1' cha0 2 rest A-s3
=1, cha1 1 D(2-s1
=2' cha2 4 c~)1 b-s2, 2 a(1-s1,
=2, cha3 2. g-s3, 8 [f# e]
|
=1' cha0 2. d 4 d
=1, cha1 2 D)2 E(2
=2' cha2 4 a)1 8 [bn-s2, c~-s1,] 2 b
=2, cha3 2 f# g#
|
=1' cha0 1 c
=1, cha1 4 E)2 C-s1, 2 F(2-s1
=2' cha2 2. leg80 ar 4 leg95 a-s3,
=2, cha3 2 a-s3, rest
|
=1' cha0 1 d
=1, cha1 4 leg80 F)2 leg95 D-s1, 2 G(2-s1
=2' cha2 2. b 4 bn-s2,
=2, cha3 1 rest,
/
5 bars | 1b 1.9 1.9 1.9 1.7 | 4 3.6 | 8 | 8 | 8 |
|
il0.5 .02 20
=1' cha0 1 e
=1, cha1 4 leg80 G)2 leg95 E-s1 A-s3 G(2
=2' cha2 2 c~ c~#-s2,
=2, cha3 1 rest,
|
=1' cha0 2. A-s4 4 Bn-s4
=1, cha1 4 Gr)2 8 [F-s1 E-s2] 2 F-s1-s3-s(4)
=2' cha2 4 d~ a-s2, 2 d~
=2, cha3 2 rest, d
=2 4. blank 4 blank-s"5 - 2",
|
=1' cha0 2. c-s1-s2-s5 4 d
=1, cha1 4 E 8 [D-s2 E-s3] 2 F(2-s1
=2' cha2 2 c~ rest'
=2, cha3 2. A-s5, 4 Bn
|
=1' cha0 2 G-s4 F#
=1, cha1 4 Fr)2 2 Eb-s2 4 D(2-s1
=2' cha2 1 rest'
=2, cha3 1 c
|
=1' cha0 2 G-s3 G#-s4
=1, cha1 8 [D)2 E-s1] 2 F 8 [E-s1 D-s2]
=2' cha2 2 rest' d-s2,
=2, cha3 1 Bb-s4,
/
5 bars | 1b 1.3 1 1 1.2 1 1 1 1 | 8 | 7.5 \
 | 1 1 1.4 1 0.9 0.9 1.1 1.0 | 0.9 0.9 1.4 1 0.9 0.9 1.1 1.1 |
|
il0.7  25
=1' cha0 8 A-s1-s4 4 c 8 Bn 2 c(1
=1, cha1 4 C D 2 E
=2' cha2 2. a 4 g-s2,
=2, cha3 1 A
|
=1' cha0 4 c)1 8 [Bn A] 2 B
=1, cha1 2. D 8 [E-s1 F-s2]
=2' cha2 1 f
=2, cha3 1 d-s1,-s3,
|
=1' cha0 4 c Bb-s2-s5 A-s1-s5 G
=1, cha1 4 E D 2 C(2
=2' cha2 1 g
=2, cha3 4 c-s2,-s5, d 2 eb(2
|
=1' cha0 2. F# 8 [G-s4 A]
=1, cha1 4 C)2 8 [D-s1 Eb] 2 D(2
=2' cha2 1 a
=2, cha3 4 leg80 eb)2 leg95 A d-s2, c
|
=1' cha0 2. leg80 G 8 leg95 [A-s3 B]
=1, cha1 4 D)2 8 [E-s2 F#-s3] 2 G(2-s1
=2' cha2 2. leg80 d 8 leg95 [c-,-s4, d]
=2, cha3 2 Bn Bb(2-s5,
/
4 bars | 1b 1 1 1 1.3 1 1 1 1 | 8 | 1 1 1.3 1.3 1 1 1 1| 1 1 1 1.2 1 1 1 1|
|
il0.5 .03 30
=1' cha0 1 c(1
=1, cha1 4 leg80 G)2 8 leg95 [F#--s2 G--s1] 2 A--s3
=2' cha2 4 leg80 e 8 leg95 [d-s3, e] 4 f# 8 [e f-s1,]
=2, cha3 2 B)2 A
|
=1' cha0 4 c)1 8 [B A] 2 B-s5
=1, cha1 2. D 4 E-s2
=2' cha2 4 g d 2 g
=2, cha3 2 G-s1,-s4, 4 rest, G-s5,
|
=1' cha0 4 leg80 A-s1-s3 8 leg95 [Bn-s2 c#-s3] 2 d(1-s4
=1, cha1 1 F
=2' cha2 4 leg80 f 8 leg95 [g-s1, a-s2,] 2 bb(1-s1,
=2, cha3 2. d-s2,-s"       3 - 5", 8 [e-,-s4, f-,-s3,]
|
=1' cha0 4 d)1 8 [e d] 2 c#
=1, cha1 1 E
=2' cha2 2 b)1 a(1-s1,
=2, cha3 2. g-s(1),-s2, 8 [f# e]

6 systems 13 /19-43-19/19-34-19 5/19-38-19/19-38-19 5/19-37-19/19-43-19/
pagenum
innerhead J. S. Bach, Contrapunctus 14, completed by Zoltán Göncz
leftfoot typesetting (c) 1998 Peter Billam
/
5 bars | 1b 2 2 2 2.6 | 2 2.6 2 2 | 8 | 2 2.4 2 2 | 2 2.4 2 2 |
|
=1 4. blank 2 blank 8 blank 8 blank---s2
=1' cha0 4 d-s4 2 cn-s5 4 Bn-s(1)-s3-s4
=1, cha1 1 D
=2' cha2 2 a)1 4 g 8 [g~ f~]
=2, cha3 4 f# d 2 gr(2
=2 2 blank 8 blank-s"4 - 5", 4 blank
|
il0.9 .25 35
=1' cha0 2 c#--s3-s5 d(1-s1-s(3)-s5
=1, cha1 1 A(2
=2' cha2 4 e~ 8 [d~-s2, e~-s1,] 2 f~
=2, cha3 2 g)2-s1,-s(5), 4 f-s4, g-s3,
|
=1' cha0 2 d)1 c#-s1-s(3)-s4
=1, cha1 2. A)2 4 G(2-s2
=2' cha2 4 e~-s" 2" d~-s1 2 e~
=2, cha3 2 a-s1, A
|
=1' cha0 2 leg80 d-s1-s(2)-s5 leg95 A
=1, cha1 4 leg80 G)2 8 leg95 [F-s2 E-s1] 2 F
=2' cha2 4 leg80 d~ leg95 8 [a-s1, g-s2,] 2 a(1
=2, cha3 2. d-s4, 4 c-s5,
|
=1' cha0 2. d 4 d
=1, cha1 2 rest, D
=2' cha2 4 a)1 8 [g f] 2 g(1
=2, cha3 4 B-s4, A 2 B
/
5 bars | 1b 8 | 8 | 2 2.4 2 2 | 1 1.3 1 1 1.4 1.7 1.3 1 | 2 2 2 1.7 |
|
=1' cha0 1 c-s3-s4
=1, cha1 2. A 4 G
=2' cha2 4 leg80 g)1 leg95 c f e
=2, cha3 1 A
|
il0.4 .15 40
=1' cha0 1 d
=1, cha1 1 F
=2' cha2 4 d a d~ c~
=2, cha3 4 leg80 B-s3,-s5, leg95 f-s1,-s2, b-s2,-s4, a-s1,-s5,
|
=1' cha0 1 e
=1, cha1 1 G
=2' cha2 4 b 8 [a g] 2 c~(1
=2, cha3 4 g-s2,-s3, f-s1,-s4, e-s1,-s5, 8 [d-s4, c-s5,]
|
=1' cha0 4 A-s3 Bn 2 c(1
=1, cha1 1 Ar
=2' cha2 4 c~)1 d~-s2, 8 [e~b c~-s2, bn-s1, a-s2,]
=2, cha3 2 f f#-s1,-s4,
=2 16 blank 2.. blank-,-s"3 - 5",
|
=1' cha0 2. c)1 4 Bn
=1, cha1 4 D E-s2 2 F(2-s1
=2' cha2 1 g(1
=2, cha3 2 gr-s1, G
/
5 bars | 1b 8 | 8 | 8 | 8 | 8 |
|
=1' cha0 4 leg80 c leg95 G-s2-s3 2 c(1
=1, cha1 4 F)2 8 [E D] 2 E(2
=2' cha2 1 g)1(1
=2, cha3 2. leg80 c-s(1),-s3, 4 leg95 B
|
il0.4 .24 45
=1' cha0 2. c)1 4 A
=1, cha1 4 leg80 E)2 leg95 C 2 F(2-s2
=2' cha2 4 g)1 8 [f-s1, g-s2,] 2 a(1-s1,
=2, cha3 1 A
|
=1' cha0 1 d(1
=1, cha1 4 leg80 F)2 leg95 D G--s2 F
=2' cha2 4 a)1 8 [g-s2, a-s1,] 2 b(1-s1,
=2, cha3 1 B-s(1),-s5,
|
=1' cha0 4 leg80 d)1-s2-s(5) leg95 G c-s2-s5 B
=1, cha1 4 E D 2 Eb(2
=2' cha2 2 b)1 4 a-s1, g
=2 2. blank 8 blank 8. blank-s"2 - 1",
=2, cha3 1 c
|
=1' cha0 4 A-s(2)-s5 G 2 A(1-s2-s5
=1, cha1 2 E)2 4 D C
=2' cha2 2 f rest'
=2, cha3 2 F F#
/
5 bars | 1b 8 | 8 | 8 | 8 | 8 |
|
=1' cha0 2 A)1 4 G F
=1, cha1 4 B_n A_ 2 B_b(2
=2' cha2 1 rest
=2, cha3 4 G-s1, Fn E D
|
il0.5 .22 50
=1' cha0 4 E-s5 D 2 Eb(1-s2-s5
=1, cha1 2 B_)2 4 A_ G_
=2' cha2 1 rest
=2, cha3 4 leg80 C leg95 G c B
|
=1' cha0 2 E)1-s2-s(5) D(1
=1, cha1 4 leg80 F_# leg95 A_-s1 Dr C
=2' cha2 1 rest
=2, cha3 4 A-s1, G F# D
|
=1' cha0 2. D)1 4 D
=1, cha1 4 B_ A_ 2 B_
=2' cha2 1 rest'
=2, cha3 4 leg80 G-s4, leg95 d-s2, g-s1, f
|
=1' cha0 4 G F E-s1-s2 G
=1, cha1 2 B_n C(2
=2' cha2 1 rest'
=2, cha3 4 e-s1, d c Bb
/
5 bars | 1b 2 2 2 1.8 | 8 | 2 2.5 2 1.8 | 1 1 1.5 1.3 1 1 1.3 1.3 | 2 2 2 2.4 |
|
=1' cha0 2. leg80 c 4 leg95 c
=1, cha1 4 C)2 E 2 A(2
=2' cha2 1 rest'
=2, cha3 4 leg80 A leg95 c f-s1, e-s3,
|
il0.7 .43 55
=1' cha0 4 f e d c
=1, cha1 4 A)2 G 4. F 8 E
=2' cha2 2 rest' d~
=2, cha3 4 d-s5, e 2 f(2-s1,-s3,
|
=1' cha0 2 Bn c#
=1, cha1 4 D 8 [E F] 2 G
=2' cha2 2. g 4 a
=2, cha3 4 fr)2-s2,-s(3), 2 e-s5, 4 eb-s1,-s4,
|
=1' cha0 2. d 8 [c d]
=1, cha1 4 F# 8 [G-s2 A-s1] 4 B-s2 8 [A B]
=2' cha2 1 b
=2, cha3 4 d-s2,-s5, 8 [e f#-s3,] 2 g(2-s3,
|
=1' cha0 4 e-s1-s3 2 a 4 d(1-s2-s3
=1, cha1 2. c 8 [B A]
=2' cha2 1 a-s1,-s(3),
=2, cha3 4 leg80 gr)2 leg95 c 2 f(2-s3,
/
5 bars | 1b 1 1.1 1.3 1.3 1 1 1.3 1.3 | 2.3 2.6 2 2.6 | 2 2 2 2.5 | 1 1.2 1.7 1.3 1 1 1.3 1.3 | 2 2.2 2 2 |
|
=1' cha0 4 d)1 2 g 4 c(1-s1-s4
=1, cha1 2. B 8 [A G-s2]
=2' cha2 1 g-s2,-s(3),
=2, cha3 4 fr)2 8 [eb d] 2 e
|
il0.5 .45 60
=1' cha0 4 c)1 2 Bn-s5 4 Bb
=1, cha1 2 F# G(2
=2' cha2 2. d~ 8 [e~-s2, d~-s1,]
=2, cha3 2 d rest
|
=1' cha0 2 A-s5 rest'
=1, cha1 4 Gr)2 8 [Fn E] 4 F 8 [G F]
=2' cha2 4 leg80 c~#-s2, leg95 a 2 d~(1
=2, cha3 2 rest d
|
=1' cha0 2 rest' A-s3
=1, cha1 2. E 8 [F-s1 G]
=2' cha2 4 d~)1 8 [c~#-s2, bn-s1,] 4 c~-s2, 8 [d~ e~]
=2, cha3 2. a-s3, 4 g-s2,-s5,
|
=1' cha0 2. d 4 c-s2-s5
=1, cha1 4 A G F Eb
=2' cha2 2 d~ a-s2,
=2, cha3 1 f-s4,

6 systems /19-45-19/19-35-19/19-45-19/19-40-19 5/19-40-19/19-45-19/
pagenum
innerhead J. S. Bach, Contrapunctus 14, completed by Zoltán Göncz
leftfoot typesetting (c) 1998 Peter Billam
/
5 bars |1b 1 1 1.7 1.2 1 1 1 1|1 1 1.7 1.2 1 1 1 1|8|8|1 1 1.2 1.6 1 1 1 1|
|
=1' cha0 1 B
=1, cha1 4 D 8 [G F#] 2 G(2
=2' cha2 4 rest'' b e~b d~
=2, cha3 1 g-s5,
|
il0.4      65
=1' cha0 1 c
=1, cha1 2 G)2 Fn(2
=2' cha2 4 c~ 8 [d~ e~b] 4 d~ c~
=2, cha3 1 a
|
=1' cha0 1 d
=1, cha1 4 F)2 8 [G A] 4 G F
=2' cha2 4 bn a 2 bb(1
=2, cha3 1 d
|
=1' cha0 2 G 4 A B
=1, cha1 4 leg80 E leg95 C 2 F(2
=2' cha2 2 b)1 a
=2, cha3 1 c(2
|
=1' cha0 4 c G c B
=1, cha1 4 F)2 8 [E D] 2 Eb(2
=2' cha2 4 g b a g
=2, cha3 1 c)2
/
5 bars | 1b 8 | 8 | 8 | 8 | 8 |
|
=1' cha0 4 leg80 A leg95 F 2 B(1
=1, cha1 2 E)2 D
=2' cha2 2 f rest'
=2, cha3 2. d 4 eb
|
il0.4      70
=1' cha0 2 B)1 A
=1, cha1 1 C
=2' cha2 1 rest'
=2, cha3 4 leg80 f leg95 c f eb
|
=1' cha0 2 B Ab(1
=1, cha1 1 F
=2' cha2 1 rest'
=2, cha3 4 d 8 [c B] 4 c d
|
=1' cha0 4 A)1 8 [G F] 4 G An
=1, cha1 2. B_ 4 C
=2' cha2 2 rest' b
=2, cha3 4 leg80 eb leg95 B 2 e(2
|
=1' cha0 4 leg80 B leg95 F 2 B
=1, cha1 1 D
=2' cha2 2. f 4 g
=2, cha3 4 er)2 8 [d c] 4 d en
/
5 bars | 1b 1 1 1 1.5 1 1 1.5 1 | 1.5 1.5 1.5 2 | 8 | 1 1 1 1 1 1 1.5 1 | 1 1 1 1 1 1 1.4 1 |
|
=1' cha0 8 [A B c d] [eb A G F#]
=1, cha1 1 C
=2' cha2 1 a
=2, cha3 2 f 4 c d
|
il0.4      75
=1' cha0 2. G 8 [A B]
=1, cha1 1 B_
=2' cha2 1 g
=2, cha3 4 leg80 eb leg95 B 2 e(2
|
=1' cha0 4 A 8 [B c] 2 B(1
=1, cha1 2. F 8 [Eb F]
=2' cha2 1 f
=2, cha3 4 er)2 2 d 8 [c d]
|
=1' cha0 4 B)1 8 [A B] 2 c(1
=1, cha1 2. G 8 [F# G]
=2' cha2 2. c~ 8 [d~ e~b]
=2, cha3 4 e 8 [f# g] 4 a g
|
=1' cha0 4 c)1 8 [d c] 2 B
=1, cha1 2. A 8 [G F]
=2' cha2 2. d~ 8 [e~b d~]
=2, cha3 4 leg80 f# leg95 d 2 g(2
/
5 bars | 1b 8 | 8 | 8 | 1 1 1.6 1.3 1 1 1 1 | 2 2 2 2.5 |
|
=1' cha0 2 leg80 A leg95 a
=1, cha1 2 Eb D(2
=2' cha2 4 leg80 c~ leg95 a d~ c~(1
=2, cha3 2 g)2 f#
|
il0.4       80
=1' cha0 2. d 4 e
=1, cha1 2 D)2 G
=2' cha2 4 c~)1 8 [b a] 2 b
=2, cha3 2. leg80 g 4 leg95 c#
|
=1' cha0 1 f
=1, cha1 2 F D
=2' cha2 2 a d~(1
=2, cha3 4 d e f g
|
=1' cha0 1 e
=1, cha1 2. A 4 G
=2' cha2 4 d~)1 8 [c~# bn] 2 c~
=2, cha3 2. a 8 [bb a]
|
=1' cha0 1 d
=1, cha1 1 F
=2' cha2 2. d~ 8 [c~# d~]
=2, cha3 4 leg80 b leg95 f 2 b(2
/
5 bars | 1b 8 | 1 1 1.6 1.3 1 1 1 1 | 1 1 1.6 1.3 1 1 1 1 | 8 | 1 1 1.4 1.3 1 1 1 1 |
|
=1' cha0 1 g(1
=1, cha1 1 G
=2' cha2 2. e~b 4 d~
=2, cha3 4 leg80 b)2 leg95 g c~ b
|
il0.4      85
=1' cha0 2 g)1 f#
=1, cha1 1 A
=2' cha2 4 c~ 8 [d~ e~b] 4 d~ c~
=2, cha3 4 a g 2 a
|
=1' cha0 4 g 8 [fn eb] 4 d e
=1, cha1 2 D rest,
=2' cha2 4 leg85 b leg95 a b c~
=2, cha3 2 g rest,
|
=1' cha0 2. f 8 [eb d]
=1, cha1 4 B 8 [A G] 4 F G
=2' cha2 4 leg85 d~ leg95 c~ d~ e~b
=2, cha3 1 rest,
|
=1' cha0 4 c d eb f
=1, cha1 4 A B c 8 [B A]
=2' cha2 4 f~ 8 [e~b d~] 4 c~ d~
=2, cha3 1 rest,
/
5 bars |1b 1 1 1.6 1.3 1 1 1 1|1.8 1.2 1 1 1 1 1.6 1.2|8|8|1 1 1.5 1.3 1 1 1 1|
|
=1' cha0 4 g 8 [f eb] 4 d 8 [e d]
=1, cha1 4 G A 2 B(2
=2' cha2 4 e~b 8 [d~ c~] 4 b f(1
=2, cha3 2 rest, B
|
il0.4      90
=1' cha0 2. c 8 [d eb]
=1, cha1 4 Br)2 8 [A G] 2 A(2
=2' cha2 8 [f)1 g a leg80 b] 2 leg95 c~
=2, cha3 2. fr 4 eb
|
=1' cha0 1 f(1
=1, cha1 4 A)2 8 [B c] 4 B A
=2' cha2 2. f 4 f
=2, cha3 1 d
|
=1' cha0 4 f)1 8 [eb d] 4 c B
=1, cha1 4 G F# 2 G
=2' cha2 1 g
=2, cha3 1 eb
|
=1' cha0 4 leg80 Ar 8 leg95 [a g] 4 f eb(1
=1, cha1 2. d 4 c
=2' cha2 1 a
=2, cha3 1 f

6 systems 5 /19-40-19/19-30-19/19-45-19/19-40-19 5/19-45-19/19-35-19/
pagenum
innerhead J. S. Bach, Contrapunctus 14, completed by Zoltán Göncz
leftfoot typesetting (c) 1998 Peter Billam
/
5 bars |1b 1 1 1.2 1.4 1 1 1.2 1.2|2 2.4 2 2|2 2.4 2 2|2 2.4 2 2|2 2.4 2.4 2|
|
=1' cha0 4 eb)1 2 d 8 [c B]
=1, cha1 1 B
=2' cha2 1 b
=2, cha3 4 B 8 [c d] 2 eb(2
|
il0.5 .26 95
=1' cha0 4 Ar G 2 A
=1, cha1 1 c
=2' cha2 4 leg80 f leg95 c~ 2 f~(1
=2, cha3 4 er)2 8 [f g] 4 f eb
|
=1' cha0 1 Br(1
=1, cha1 1 d
=2' cha2 4 f~)1 e~b 2 d~
=2, cha3 4 d 8 [eb f] 4 g f
|
=1' cha0 4 B)1 8 [A B] 2 c(1
=1, cha1 2. G 8 [F# G]
=2' cha2 2 rest' a
=2, cha3 4 en 8 [f# g] 4 ar g
|
=1' cha0 4 leg80 c)1 leg95 a 2 d(1
=1, cha1 4 A 8 [c B] [A G] 4 A(2
=2' cha2 2. d~ 4 c~
=2, cha3 4 f# e 2 f
/
5 bars |1b 8|2 2.4 2 2|1 1 1.6 1.2 1 1 1 1|2 2 2 2.4|1 1 1.7 1.3 1 1 1.2 1.2|
|
=1' cha0 4 d)1 e 2 f(1
=1, cha1 4 A)2 leg80 G 2 leg95 D
=2' cha2 1 bn
=2, cha3 2. g 4 g#
|
il0.5 .22 100
=1' cha0 2 f)1 e(1
=1, cha1 2. A 4 G
=2' cha2 1 c~#
=2, cha3 4 a 8 [b a] 4 g a
|
=1' cha0 4 e)1 8 [d c#] 2 d(1
=1, cha1 1 F
=2' cha2 1 d~
=2, cha3 4 leg85 b leg95 f leg85 b leg95 d
|
=1' cha0 2 leg80 d)1 leg95 g(1
=1, cha1 1 G
=2' cha2 4 g a b 8 [c~ b]
=2, cha3 2 eb en
|
=1' cha0 2 g)1 f(1
=1, cha1 1 A
=2' cha2 4 a 8 [bn c~#] 4 d~ c~n
=2, cha3 2. f 8 [e f]
/
5 bars |1b 2 2.4 2.4 2|8|8|1 1 1.7 1.3 1.3 1.3 1 1|1 1 1.7 1.2 1 1 1 1|
|
=1' cha0 2 f)1 4 e d
=1, cha1 4 D 8 [G F] [G A] 4 B
=2' cha2 1 bb
=2, cha3 1 g(2
|
il0.6 .22 105
=1' cha0 2 c# d(1
=1, cha1 4 A 2 A 8 [G F]
=2' cha2 1 a(1
=2, cha3 4 gr)2 8 [f e] 4 f d
|
=1' cha0 2 d)1 c#
=1, cha1 4 E D 2 E
=2' cha2 1 a)1(1
=2, cha3 2. ar 4 g
|
=1' cha0 4 leg80 d leg95 A d c
=1, cha1 4 D 8 [F E] [F G] 4 A(2
=2' cha2 4 a)1 8 [d~ c~#] 2 d~(1
=2, cha3 1 f
|
=1' cha0 1 B(1
=1, cha1 4 Ar)2 8 [G F#] 4 G B
=2' cha2 4 leg80 d~)1 leg95 b e~b d~(1
=2, cha3 1 g
/
5 bars |1b 1.2 1.2 1.7 1.3 1 1 1 1|2 2.3 2.3 2.3|2 2.3 2.3 2.3|2 2.3 2 2.3|2 2.3 2.3 2|
|
il0.6    109
=1' cha0 8 [B)1 A] 4 e a g(1
=1, cha1 2 En 4 rest, e(2
=2' cha2 4 d~)1 8 [c~# bn] 2 c~
=2, cha3 1 a
|
=1' cha0 4 g)1 8 [f e] 4 f d
=1, cha1 4 leg80 e)2 leg95 A 2 d(2
=2' cha2 2 d~ a(1
=2, cha3 2 d(2 8 [d)2 c B A]
|
=1' cha0 1 b
=1, cha1 4 d)2 8 [e f] 4 e d
=2' cha2 4 leg80 a)1 leg95 d 2 g(1
=2, cha3 2 G(2 8 [G)2 A B G]
|
=1' cha0 2 e d(1
=1, cha1 4 c# 2 A 8 [G F]
=2' cha2 4 g)1 8 [f e] 4 f d
=2, cha3 1 A(2
|
=1' cha0 2 d)1 c#
=1, cha1 4 G E(2 8 [E)2 F] 4 G(2
=2' cha2 4 e 8 [f g] 2 a(1
=2, cha3 1 A)2
/
4 bars |1b 8|8|1 1 1 1 1 1.3 1 1|4 3|
|
# according to Zoltan Göncz and Richard Jones ...
# see sop bars 133 140 155, alt 126, tenor 152, bass 146 157 158 178 etc
=1' cha0 4 d 2 A 4 G
# and Hans Gal in Boosey gives d A(2 A)2 G
# but Henle leave out the tie. I think that's a misprint:
# =1' cha0 4 d A A G
=1, cha1 4 G)2 8 [F G] [F E D C#]
=2' cha2 4 a)1 d~ 2 b
=2, cha3 1 d(2
|
il0.4   115
=1' cha0 4 F rest' 2 rest'
=1, cha1 8 [D A_ D E] [F E D F]
=2' cha2 4 a rest' 2 rest'
=2, cha3 4 d)2 rest, 2 rest,
|
=1' cha0 1 rest'
=1, cha1 8 leg80 [E leg99 A_ E F] [G 16 F E 8 F G]
=2' cha2 1 rest
=2, cha3 1 rest,
|
=1' cha0 1 rest'
=1, cha1 8 [A G F G] 2 A(2
=2' cha2 1 rest
=2, cha3 1 rest,
/
4 bars |1b 1 2.0 1 1 .7 .7 .7 .7|8|1 1 1 1.3 1 1 1 1|1.3 1 1.3 1 1.3 1 1.3 1|
|
=1' cha0 1 rest'
=1, cha1 8 [A)2 16 G F# 8 G A] 2 B(2
=2' cha2 1 rest
=2, cha3 1 rest,
|
=1' cha0 1 rest'
=1, cha1 8 [B)2 A G F] [E D leg80 E leg99 G]
=2' cha2 1 rest
=2, cha3 1 rest,
|
il0.5 .20 120
=1' cha0 1 rest'
=1, cha1 8 [F E D C] [B_n A_ leg80 B_ leg99 D]
=2' cha2 1 rest
=2, cha3 1 rest,
|
=1' cha0 4 rest' 8 [c d] [c Bn A G#]
=1, cha1 8 [C B_n A_ G_#] 4 A_ B_
=2' cha2 1 rest
=2, cha3 1 rest,

5 systems 8 /19-37-19/19-35-19/19-45-19 \
 /19-45-19/19-45-19 10/
pagenum
innerhead J. S. Bach, Contrapunctus 14, completed by Zoltán Göncz
leftfoot typesetting (c) 1998 Peter Billam
/
4 bars |1b 6 6 7 6 6 6.5 6 5 | 6 7 6 6 6 8 6 5 \
 | 6 6 6 6 7 6 6 5 | 3 3 6.5 4 3 3 3 3 4 3 4 3 3 3 3 2 |
|
=1' cha0 8 leg80 [A leg99 E A Bn] [c B A c]
=1, cha1 4. C 8 D 4 E F#
=2' cha2 1 rest
=2, cha3 1 rest,
|
=1' cha0 8 leg80 [Bn leg99 E B c] [d 16 c B 8 c d]
=1, cha1 4 G 2 G# 4 A(2
=2' cha2 1 rest
=2, cha3 1 rest,
|
=1' cha0 8 [e d c d] 2 e(1
=1, cha1 8 [A)2 F E D] [C B_n A_ G_]
=2' cha2 1 rest
=2, cha3 1 rest,
|
il1.0  125
=1' cha0 8 [e)1 16 d c# 8 d e-s5] 2 f(1-s4
=1, cha1 8 leg80 [F_ leg99 G F E] [D Cn B_n A_]
=2' cha2 1 rest
=2, cha3 1 rest,
/
4 bars |1b 6 6 6 7 6 6 6 5 | 6 6 6 6 6 6 6 5 \
 | 6 6 7 6 6 6 7 5 | 6 6 6 6 6 6 6 5 |
|
=1' cha0 8 [f)1 e-s5 d c] [Bn A leg80 B leg99 d-s4]
=1, cha1 4 G_# 2 A_ 4 G_
=2' cha2 1 rest
=2, cha3 1 rest,
|
=1' cha0 8 [c-s1 a g f] [e d leg80 e leg99 g-s5]
=1, cha1 4 A_ B_n C C#
=2' cha2 1 rest
=2, cha3 1 rest,
|
=1' cha0 8 [f-s4 e-s5 d c#] 4 d e-s2-s5
=1, cha1 4 D 2 A 4 G(2
=2' cha2 1 rest'
=2, cha3 4 rest, 8 [f-s3, g-s2,] [f-s1, e d c#]
|
=1' cha0 2. A-s3 4 Bn
=1, cha1 4 Gr)2 8 [F-s1 E-s2] 4 D G(2
=2' cha2 1 rest'
=2, cha3 8 leg80 [d leg99 A d e] [f e d f]
/
4 bars |1b 6 6 6 7 6 8 6 5 | 6 6 6 6 6 6 7 5 \
 | 3 3 6 4 3 3 3 3 3 3 3 3 3 3 3 2 | 6 6 6 6 6 6 6 5 |
|
il0.6    130
=1' cha0 4 c 2 c# 8 [d e]
=1, cha1 8 [G)2 F G A] [Bb 16 A G 8 A B]
=2' cha2 1 rest'
=2, cha3 8 leg80 [e leg99 A e f-s1,] [g-s3, 16 f-s4, e 8 f g]
|
=1' cha0 8 [f b a g] [f e d cn]
=1, cha1 4 C# 4. D 8 [C-s1, F E]
=2' cha2 1 rest''
=2, cha3 8 [a-s1,-s2, g f-s1,-s4, g] 2 a(2
|
=1' cha0 8 leg80 [B leg99 c~ b a] [g f e d]
=1, cha1 2 D(2-s1, 8 [D)2 A G F]
=2' cha2 1 rest''
=2, cha3 8 [a)2 16 g-s4, f# 8 g a] 2 b(2
|
=1' cha0 4 c# 2 d 4 c
=1, cha1 4 leg80 E leg99 A leg80 G leg99 Br
=2' cha2 1 rest''
=2, cha3 8 [b)2 a-s1, g f] [e d leg80 e leg99 g-s2,]
/
4 bars |1b 1 1 1 1.3 1 1 1 1|1 1 1 1 1.3 1 1.3 1|1 1 1.3 1 1 1 1 1|1 1.3 1 1.3 1 1.8 1.4 1|
|
=1' cha0 4 d e 2 f
=1, cha1 2. A 4 G#
=2' cha2 1 rest'
=2, cha3 8 [f e-s1, d c] [Bn A B d]
|
il0.8 .10 135
=1' cha0 4 e a e d(1
=1, cha1 2 A 4 rest, E
=2' cha2 4 rest' 8 [c~ d~] [c~ bn a g#]
=2, cha3 2 c-s5, 4 rest, e
|
=1' cha0 4 d)1 8 [c d] 4 e f(1
=1, cha1 2 E 4 rest, A
=2' cha2 8 leg80 [a leg99 e a bn] [c~ b a c~]
=2, cha3 2 A 4 rest, a(2
|
=1' cha0 4 f)1 2 e(1 8 [e)1 Bn]
=1, cha1 4. d 8 c 4 Bn 8 [A G#l]
=2' cha2 8 leg80 [bn leg99 e b c~] [d~ 16 c~ b 8 c~ d~]
=2, cha3 4 ar)2 2 g# 4 a(2
/
4 bars |1b 6 6 6 6 7 6 6 5 | 3 3 6.5 4 3 3 3 3 4 3 4 3 3 3 3 2 \
 | 6 6 6 7 6 6 6 5 | 6 6 6 6 6 6 6 5 |
|
=1' cha0 4 c rest' 2 rest'
=1, cha1 4 A rest, rest, c
=2' cha2 8 [e~ d~ c~ d~] 2 e~(1
=2, cha3 8 [a)2 f e d] [c Bn A G]
|
=1' cha0 1 rest'
=1, cha1 2. A 8 [G# A]
=2' cha2 8 [e~)1 16 d~ c~# 8 d~ e~] 2 f~(1
=2, cha3 8 leg80 [F leg99 g f e] [d cn Bn A]
|
il0.4      140
=1' cha0 1 rest'
=1, cha1 8 [Bn e] 2 A 4 G#
=2' cha2 8 [f~)1 e~ d~ c~] [bn a leg80 b leg99 d~]
=2, cha3 4 G# A leg80 e leg99 E
|
=1' cha0 1 rest'
=1, cha1 4 A rest, 2 rest,
=2' cha2 2 c~ c~#
=2, cha3 8 leg80 [A leg99 a g f] [e d leg80 e leg99 g]


5 systems /19-45-19/19-45-19/19-45-19/19-50-19/19-50-19/
pagenum
innerhead J. S. Bach, Contrapunctus 14, completed by Zoltán Göncz
leftfoot typesetting (c) 1998 Peter Billam
/
4 bars |1b 8|8|1 1 1 1 1 1.3 1 1|8|
|
=1' cha0 8 rest' [a g f] [e d e g]
=1, cha1 1 rest,
=2' cha2 2. d~ 4 c~n(1
=2, cha3 4 f g 2 a
|
=1' cha0 4 f# 2 g 4 fn(1
=1, cha1 8 rest [d c B] [A G A c]
=2' cha2 8 leg80 [c~)1 leg99 b a g] 2 d~(1
=2, cha3 2 d 4 rest, d
|
=1' cha0 8 leg80 [f)1 leg99 g f e] [d c d f]
=1, cha1 4 Bn 2 c 4 Bb(2
=2' cha2 8 leg80 [d~)1 leg99 e~ d~ c~] 4 g~ rest''
=2, cha3 2 g 4 rest g
|
il0.7 .38 145
=1' cha0 4 e 2 f 8 [e d]
=1, cha1 8 [B)2 G] 4 A B G(2
=2' cha2 8 rest' [c~ b a] [g f g b]
=2, cha3 2 c 4 rest, c
/
4 bars | 1b 8|1 1 1 1 1 1 1.3 1|1 1 1.3 1 1 1 1 1|1 1 1.1 1.1 1 1.4 1 1|
|
=1' cha0 4 e rest' 2 rest'
=1, cha1 8 leg80 [G)2 leg99 A G F] [E D E G]
=2' cha2 4. a 8 a [g f] 4 e
=2, cha3 4 c# 2 d 4 c
|
=1' cha0 4 rest' 8 [f g] [f e d c#]
=1, cha1 8 [F A] 4 D 2 rest,
=2' cha2 4 d a 2 b
=2, cha3 2. dr 4 e
|
=1' cha0 8 leg80 [d leg99 A d e] [f e d f]
=1, cha1 1 rest,
=2' cha2 4 leg80 a 8 leg99 [bn c~#] 2 d~(1
=2, cha3 2 leg80 f leg95 d
|
=1' cha0 8 leg80 [e leg99 A e f] [g 16 f e 8 f g]
=1, cha1 1 rest,
=2' cha2 4 leg80 d~)1 8 leg99 [c~# d~] 2 e~(1
=2, cha3 2. a 4 g
/
4 bars | 1b 8|1 2.3 1 1 1 1.3 1 1|8|1 1 1 1.3 1.3 1 1 1|
|
il0.8 150
=1' cha0 8 [a g f g] 2 a(1
=1, cha1 1 rest,
=2' cha2 8 [e~)1 a] 4 d~(1 8 [d~)1 c~ b a]
=2, cha3 1 f
|
=1' cha0 8 [a)1 16 g f# 8 g a] 2 b(1
=1, cha1 1 rest,
=2' cha2 8 [b d~] 4 e~b(1 8 [e~)1 d~ c~# d~]
=2, cha3 1 g
|
=1' cha0 8 leg80 [b)1 leg99 a g f] [e d e g]
=1, cha1 1 rest,
=2' cha2 4 c~# 2 d~ 4 c~n(1
=2, cha3 1 a
|
=1' cha0 8 [f e d c] [Bn A B d]
=1, cha1 1 rest,
=2' cha2 4 c~)1 8 [bn a] [g# f# g b]
=2, cha3 2 d e
/
4 bars | 1b 1 1 1 1.2 1.2 1 1 1 | 1 1 1 1.2 1 1 1 1 | 1.2 1 1.2 1 1.2 1 1.2 1 | 1 1 1.2 1 1 1.2 1 1 |
|
=1' cha0 4 c 8 [Bn A] [G# F# G B]
=1, cha1 1 rest,,
=2' cha2 8 leg80 [a leg99 e~ d~ c~] [bn a b d~]
=2, cha3 4 A rest, 2 rest,
|
il0.4      155
=1' cha0 4 E 2 A 4 G#
=1, cha1 1 rest,,
=2' cha2 4 c~ e~ d~ f~
=2, cha3 8 rest, [e d c] [Bn A B d]
|
=1' cha0 4 leg80 A 2 leg99 e 4 d(1
=1, cha1 4 rest,, 8 [c d] [c Bn A G#]
=2' cha2 4 e~ rest' 2 rest'
=2, cha3 8 [c Bn A G#] 4 A B
|
=1' cha0 4 d)1 8 [c d] 4 e d#
=1, cha1 8 leg80 [A leg99 E A Bn] [c B A c]
=2' cha2 2 rest' a
=2, cha3 4 c 2 f 4 f#
/
4 bars | 1b 1 1 1 1 1 1.3 1 1 | 1 1 1.3 1 1 1 1 1 | 1 2.1 1.3 1 1.3 1.3 1 1 | 1 1 1 1.3 1 1 1 1 |
|
=1' cha0 4 e rest'' 2 rest''
=1, cha1 8 leg80 [Bn leg99 E B c] [d 16 c B 8 c d]
=2' cha2 2 e~(1 4. e~)1 8 d~
=2, cha3 4 g 2 g# 4 a(2
|
=1' cha0 1 rest''
=1, cha1 8 [e d c d] 2 e(2
=2' cha2 1 c~
=2, cha3 8 leg80 [a)2 leg99 e a bn] [c~ b a g]
|
il0.4         160
=1' cha0 1 rest''
=1, cha1 8 [e)2 16 d c# 8 d e] 2 f(2
=2' cha2 1 d~
=2, cha3 8 [f# a bn c~#] [d~ c~n bn a]
|
=1' cha0 1 rest''
=1, cha1 8 leg80 [f)2 leg99 e d c] [Bn A B d]
=2' cha2 1 e~
=2, cha3 4 g# 2 a 4 g

5 systems /19-40-19/19-45-19/19-45-19/19-45-19/19-45-19 8/
pagenum
innerhead J. S. Bach, Contrapunctus 14, completed by Zoltán Göncz
leftfoot typesetting (c) 1998 Peter Billam
/
4 bars | 1b 8 | 1 1 1.3 1 1 1 1 1 | 8 | 8 |
|
=1' cha0 1 rest'
=1' cha0 1 c(1
=1, cha1 8 rest,, [A G F] [E D E G]
=2' cha2 8 a
=2, cha3 4 a bn c~ a
|
=1' cha0 1 rest''
=1' cha0 8 leg80 [c)1 leg99 d c Bb] [A G A c]
=1, cha1 1 F(2
=2, cha3 4 d e leg80 f leg95 d
|
=1' cha0 1 rest'
=1' cha0 1 B(1
=1, cha1 8 leg80 [F)2 leg99 G F E] [D C D F]
=2, cha3 4 g a b g
|
il0.6          165
=1' cha0 1 rest''
=1' cha0 8 leg80 [B)1 leg99 c B A] [G F G B]
=1, cha1 4 E, rest,, 2 rest,,
=2, cha3 4 c d leg80 e leg95 c
/
4 bars | 1b 8 | 8 | 8 | 1 1.3 1 1 1 1.3 1 1 |
|
=1' cha0 1 rest'
=1, cha1 8 leg80 [A leg99 B A G] [F E F A]
=2' cha2 1 rest'
=2, cha3 4 f g a f
|
=1' cha0 1 rest'
=1, cha1 8 [D E] 4 F(2 8 [F)2 E] 4 B(2
=2' cha2 4 rest' 8 [a b] [a g f e]
=2, cha3 2 B c
|
=1' cha0 1 rest'
=1, cha1 4 B)2 8 [A G] [F A] 4 D(2
=2' cha2 8 leg80 [f leg99 c f g] [a g f a]
=2, cha3 2 F 4 rest, f
|
=1' cha0 2 rest' F
=1, cha1 8 [D)2 G] 4 C 2 D
=2' cha2 8 leg80 [g leg99 c g a] [b 16 a g 8 a b]
=2, cha3 4 e eb 2 d
/
4 bars | 1b 8 | 1 1.3 1 1 1 1 1 1 | 1.2 1 1 1.2 1 1 1 1 | 1 1 1 1.3 1 1 1 1 |
|
il0.6     170
=1' cha0 2. c 4 B
=1, cha1 4 E 8 [F G] 4 A G(2
=2' cha2 8 [c~ b a b] 2 c~(1
=2, cha3 2 a(2 8 [a)2 g f e]
|
=1' cha0 1 A
=1, cha1 4 Gr)2 8 [F E] 2 F(2
=2' cha2 8 [c~)1 16 b a 8 b c~] 2 d~(1
=2, cha3 2 f(2 8 [f)2 d e f]
|
=1' cha0 1 B
=1, cha1 8 [F)2 Eb] 4 F(2 8 [F)2 D E G]
=2' cha2 8 [d~)1 c~ b a] [g f g b]
=2, cha3 4 g d 2 eb(2
|
=1' cha0 1 c
=1, cha1 4. C 8 D 2 Eb(2
=2' cha2 1 a(1
=2, cha3 8 [e)2 f eb d] [c B c e]
/
4 bars | 1b 1 1 1 1 1.3 1 1.3 1 | 1 1 1.3 1 1.3 1.3 1 1 | 8 |1.3 1 1 1 1 1 1 1|
|
=1' cha0 2 F(1 8 [F)1 F# G A]
=1, cha1 4 Er)2 8 [D C] 2 D(2
=2' cha2 8 [a)1 f g a] 2 b(1
=2, cha3 2 d(2 8 leg80 [d)2 leg99 d e f#]
|
il0.5     175
=1' cha0 2 B(1 8 [B)1 Bn c d]
=1, cha1 8 [D)2 D E F#] 2 G(2
=2' cha2 8 [b)1 c~ b a] 2 g(1
=2, cha3 2 g(2 8 [gr)2 f eb d]
|
=1' cha0 1 eb(1
=1, cha1 8 leg80 [G)2 leg99 d c B] [A G A c]
=2' cha2 4 leg80 g)1 leg95 g 2 c~(1
=2, cha3 2 c 4 rest, c
|
=1' cha0 4 eb)1 A 2 d(1
=1, cha1 2. F# 4 F
=2' cha2 8 leg80 [c~)1 leg99 e~b d~ c~] [b a b d~]
=2, cha3 2 d 4 rest, d
/
4 bars | 1b 1 1 1.3 1 1 1 1 1 | 8 | 1.3 1 1 1 1 1 1.3 1 | 1 1 1.3 1 1 1.3 1 1 |
|
=1' cha0 2 d)1 c#
=1, cha1 8 [G A G Fn] [E D E G]
=2' cha2 4 g 8 [b a] [g f] 4 e
=2, cha3 4 eb 2 en 4 A
|
=1' cha0 2 d cn(1
=1, cha1 4 F# 2 G 8 [F A]
=2' cha2 8 [d d~ c~ b] [a g a c~]
=2, cha3 4 d rest, 2 rest,
|
il0.5      180
=1' cha0 4 c)1 8 [B A] 4 B eb
=1, cha1 8 leg80 [D leg99 F#] [G F] 4 G c(2
=2' cha2 8 [b e~b] 2 d~ 4 rest'
=2, cha3 4 rest, 8 [B c] [B A G F#]
|
=1' cha0 4 d 8 [en f#] 2 g(1
=1, cha1 4 cr)2 B 8 rest [f eb d]
=2' cha2 1 rest'
=2, cha3 8 leg80 [G leg99 D G A] [B A G B]

6 systems /19-40-19/19-35-19/19-45-19/19-50-19/19-45-19/19-45-19/
pagenum
innerhead J. S. Bach, Contrapunctus 14, completed by Zoltán Göncz
leftfoot typesetting (c) 1998 Peter Billam
/
4 bars | 1b 1.3 1 1.3 1 1 1.4 1 1 | 1.3 1.3 1 1 1 1.3 1 1 | 1 2.2 1 1.3 1 1.3 1 1 | 1.3 1.3 1 1.3 1 1 1 1 |
|
=1' cha0 4 g)1 4. f 8 [eb d c]
=1, cha1 8 [c Bn c d] 2 G
=2' cha2 2 rest' 4 rest' f(1
=2, cha3 8 leg80 [A leg99 D A Bn] [c 16 B A 8 B c]
|
=1' cha0 8 [Bnrl A] 4 leg80 G 2 leg95 d
=1, cha1 2. d 4 c
=2' cha2 8 [f)1 eb d e] [f g ab f]
=2, cha3 8 [d c Bn c] 2 d(2
|
=1' cha0 2. g 4 f
=1, cha1 1 Bn
=2' cha2 2 g(1 8 [g)1 g bn d~]
=2, cha3 8 [d)2 16 c Bn 8 c d] 2 eb(2
|
il0.4    185
=1' cha0 1 <c eb>
=1, cha1 8 [G Bb Ab G] 4. F# 8 G
=2, cha3 8 [e)2 d c B] [An G A c]
/
4 bars | 1b 1 1 1.3 1 1 1.3 1 1 | 1 1 1 1 1.3 1 1 1 | 1 1 1 1.3 1 1 1 1 | 1.3 1 1.3 1 1 1 1 1 |
|
=1' cha0 1 <d f>
=1, cha1 8 Ab
=2' cha2 8 rest' [g f eb] [d c d f]
=2, cha3 4 Bn 2 c 4 Bb(2
|
=1' cha0 1 g
=1, cha1 4 G A 2 B(2
=2' cha2 1 en
=2, cha3 8 [B)2 c B A] [G F# G B]
|
=1' cha0 1 c(1
=1, cha1 4 Br)2 8 [A G] [F# E F A]
=2' cha2 4 f# rest' 2 rest'
=2, cha3 8 leg80 [A leg99 d c B] [A G A c]
|
=1' cha0 8 leg80 [c)1 leg99 F# G A] [B c B G]
=1, cha1 2 D rest,
=2' cha2 8 rest' [d e f#] 2 g(1
=2, cha3 2 B 4 rest, G
/
4 bars | 1b 8 | 1.2 1 1 1 1.2 1 1 1 | 1.5 1.2 1 1.3 1 1 1 1 | 3.5 3 |
|
il0.5 .03 190
=1' cha0 1 eb(1
=1, cha1 8 rest, [d c B] [A G A c]
=2' cha2 8 leg80 [g)1 leg99 g a b] [c~ d~ c~ b]
=2, cha3 2 c, 4 rest, c(2
|
=1' cha0 8 [e)1 eb d c] [B A B d]
=1, cha1 1 F#
=2' cha2 4 a rest' 2 rest'
=2, cha3 8 [c)2 A B c] [d eb d B]
|
=1' cha0 4. G 8 A 4. F# 8 G
=1, cha1 8 [G Fn] 4 Eb D C(2
=2' cha2 4 rest'' b 8 [a g] 4 a
=2, cha3 4 eb c 2 d

|
=1' cha0 2 G rest
=1, cha1 4 C)2 B_ 2 rest,
=2' cha2 2 g b
=2, cha3 2 G rest,
/
5 bars | 1b 6 | 1 1 1 1.6 1 1 1 1 | 1 1 1 2.6 1 1 1 1 | 8 | 1 1 1 2.6 1 1 1 1 |
|
=1' cha0 1 rest'
=1, cha1 1 rest,
=2' cha2 2 a c~
=2, cha3 1 rest,
|
il0.5 .25 195
=1' cha0 1 rest'
=1, cha1 2 rest, F
=2' cha2 4. bn 8 c~# 2 d~(1
=2, cha3 1 rest,
|
=1' cha0 1 rest'
=1, cha1 2 E G
=2' cha2 4. d~)1 16 [c~#' bn] 2 c~-tr
=2, cha3 1 rest,
|
=1' cha0 1 rest'
=1, cha1 4. F# 8 G# 2 A(2
=2' cha2 2 d~ 4 rest' d~#
=2, cha3 1 rest,
|
=1' cha0 1 rest'
=1, cha1 4. A)2 16 [G# F#] 2 G
=2' cha2 4 e~ bn e~ d~
=2, cha3 1 rest,
/
5 bars | 1b 8|8|1 1 1 1.3 1 1 1 1| 1 1 1 1.5 1 1 1 1|2 2 2 2.5 |
|
=1' cha0 1 rest'
=1, cha1 4 leg80 A leg99 E A G
=2' cha2 2 c~ 4 rest' c~#
=2, cha3 1 rest,
|
il0.5 .20 200
=1' cha0 1 rest'
=1, cha1 2 F 4 rest, F#
=2' cha2 4 d~ a d~ c~n
=2, cha3 1 rest,
|
=1' cha0 2 rest' B
=1, cha1 4 G D G F
=2' cha2 4. b 8 a [g a b g]
=2, cha3 1 rest,
|
=1' cha0 2 A c
=1, cha1 4 E 8 [F# G] 2 A(2
=2' cha2 8 [c~ b a g] [f# e f d]
=2, cha3 1 rest,
|
=1' cha0 4. Bn 8 c# 2 d(1
=1, cha1 4 Ar)2 G A D
=2' cha2 4 g e f 8 [g a]
=2, cha3 2 rest, fr
/
5 bars | 1b 1 1 1 2.7 1 1 1 1 | 8 | 1 1 1 2.7 1 1 .9 .9 | 7.8 | 3.4 3.9 |
|
=1' cha0 4. d)1 16 [c# Bn] 2 c
=1, cha1 4. G 8 F 2 E
=2' cha2 8 [bb a g a] [b e] 4 a(1
=2, cha3 2 e g
|
il0.6 .20 205
=1' cha0 4 d rest' rest' d#
=1, cha1 4 D rest, 2 rest,
=2' cha2 4 a)1 2 d~ 4 c~
=2, cha3 4. f# 8 g# 2 a(2
|
=1' cha0 4 e Bn e d
=1, cha1 2 rest, 4 rest, Bn(2
=2' cha2 4 bn 2. e~n(1
=2, cha3 4. ar)2 16 [g# f#] 2 g
|
=1' cha0 2 c c#
=1, cha1 4 Bnrl)2 E A G
=2' cha2 4 e~)1 rest'' 2 rest''
=2, cha3 2 a 4 rest a
|
=1' cha0 4 leg80 d leg95 A 2 d(1
=1, cha1 2. F 8 [G F]
=2, cha3 4 b f b a

6 systems /19-40-19/19-40-19/19-45-19/19-40-19/19-40-19/19-40-19/
pagenum
innerhead J. S. Bach, Contrapunctus 14, completed by Zoltán Göncz
leftfoot typesetting (c) 1998 Peter Billam

/
5 bars | 1b 1 1 1.5 1 1 1.4 1 1 |8|8| 1 1 1 1.3 1 1 1 1|.9 .9 1.2 2.7 1.4 1 1 1|
|
=1' cha0 4 d)1 8 [c Bn] 2 c(1
=1, cha1 2 E(2 8 [E)2 D Eb C]
=2, cha3 4 leg80 g# leg95 e a gn
|
il0.7 .20 210
=1' cha0 4 c)1 8 [B A] 4 B G
=1, cha1 2. D 8 [En D]
=2' cha2 2 rest'' b
=2, cha3 4 f# d 2 g(2
|
=1' cha0 4 leg80 A 2 leg95 a 4 d(1
=1, cha1 4 C# E 2 A(2
=2' cha2 2 a c~n
=2, cha3 2 gr)2 f#l
|
=1' cha0 4 d)1 e 2 f
=1, cha1 8 [A)2 D] 4 G 2 rest,
=2' cha2 4. bn 8 c~# 2 d~(1
=2, cha3 2 g 4 rest g#
|
=1' cha0 2 e(1 8 [e)1 c# d e]
=1, cha1 2 rest, E
=2' cha2 4. d~)1 16 [c~# bn] 2 c~
=2, cha3 4 a e a gn
/
4 bars | 1b 1 1 1 1.3 1 1 1.3 1 | 1 1 1 1.3 1 1 1 1 | 1 1 1 1 1 1 1.4 1 | 2 1.8 1.8 1.8 1.8 |
|
=1' cha0 2. A 8 [G F#]
=1, cha1 2 F D
=2' cha2 4. d~ 8 c~ 4 bn a
=2, cha3 4 f d 2 g(2
|
il0.4    215
=1' cha0 1 G(1
=1, cha1 4. Eb 8 D 2 C#(2
=2' cha2 2 bb(1 8 leg80 [b)1 leg99 a b g]
=2, cha3 8 leg80 [g)2 leg99 a g f] 2 en
|
=1' cha0 2 G)1 8 [F E] 4 F
=1, cha1 2 C)2 D(2
=2' cha2 2 a(1 8 leg80 [a)1 leg99 b a g#]
=2, cha3 8 leg80 [f leg99 g f e] 2 d
|
=1' cha0 2 E B
=1, cha1 4 leg80 Dr)2 leg95 C# D E
=2' cha2 4 a rest'' rest'' b
=2, cha3 4 leg80 A 2 leg95 a 4 g
/
4 bars | 1b 1.8 2 1.8 2| 1.3 1 1.5 1.4 1.3 1 1.3 1 \
 | .5 .5 .5 .5 .5 .5 1.3 .8 .65 .65 .5 .5 .7 .7 .7 .7 \
 | .9 .9 1.2 2.4 .9 .9 .9 .9 |
|
=1' cha0 2 A c
=1, cha1 4 F 8 [E F] 2 G(2
=2' cha2 4 c~ d~ e~ 8 [f~ e~]
=2, cha3 2 f e
|
=1' cha0 4. Bn 8 c#rl 2 d(1
=1, cha1 8 [G)2 F# G Bbl] 2 A(2
=2' cha2 2 d~(1 8 [d~)1 c~# d~ f~n]
=2, cha3 2 g 4. f# 8 g#
|
il0.5      220
=1' cha0 4. d)1 16 [c# Bn] 8 [c d#] 16 [e d c d]
=1, cha1 2 A)2 4 G F#
=2' cha2 8 [e~ d~] 4 e~(1 e~)1 bn
=2, cha3 1 a(2
|
=1' cha0 4 leg80 e leg95 Bn e d
=1, cha1 1 E(2
=2' cha2 1 bn
=2, cha3 4. ar)2 16 [g# f#] 2 g
/
4 bars | 1b 1 1 1 1.5 1 1 1 1.5 | 1.3 1 1.3 1 1 1.3 1 1 | 1 1 1.3 1.3 1.5 1.4 1 1 | 1.3 1.3 1.3 1 1 1 1 1 |
|
=1' cha0 2 c c#
=1, cha1 4 leg80 E)2 leg95 E A G(2
=2' cha2 4. a 16 [g f] 4. e 16 [d e]
=2, cha3 4 a, rest, 2 A
|
=1' cha0 2 d(1 8 leg80 [d)1 leg99 f eb d]
=1, cha1 8 leg80 [G)2 leg99 F# G A] 4 B Bnl
=2' cha2 4 d 8 [e f#] 4 g fn
=2, cha3 2 B G
|
=1' cha0 8 [c g f eb] [d c] 4 db(1
=1, cha1 2 cr(2 4. cr)2 8 B
=2' cha2 8 [eb d] 4 c d e(1
=2, cha3 4. Ab 8 G 2 F#(2
|
il0.7        225
=1' cha0 8 [d)1 Bn] 4 c(1 c)1 B
=1, cha1 4. A 8 Ab 2 G(2
=2' cha2 8 [e)1 d] 4 eb(1 8 [e)1 d] 4 f(1
=2, cha3 2 F)2 G
/
3 bars | 1b 1 1 1 1.5 1.3 1 1 1 | 1 1.7 1 1.7 1 1.1 1 1 | 1 1.4 1 1 1 1.7 1 1 |
|
=1' cha0 4. c 16 [Bb A] 8 leg80 [Gr leg95 E] 4 e(1
=1, cha1 2 G)2 B
=2' cha2 4 f)1 en(1 e)1 g(1
=2, cha3 2 c 4 rest, c#
|
=1' cha0 8 [e)1 16 d c#] 8 [d 16 cn Bn] 4 Ar rest'
=1, cha1 2 A c
=2' cha2 4 g)1 f#(1 8 [f)1 g#] 4 a(1
=2, cha3 2 d 4 rest, d#
|
=1' cha0 1 rest'
=1, cha1 4. Bn 8 c# 2 d(2
=2' cha2 2 a)1(1 8 [a)1 16 g# f#] 4 g(1
=2, cha3 8 [e 16 dn e] 4 f(2 8 leg80 [f)2 leg95 Bn e d]
/
3 bars | 1b 1 1 1 1.7 1 1.7 1 1 | 1 1.4 1 1 1 1 1 1.4 | 1 1.7 1 1 1 1.4 1 1 |
|
il0.6 .22 229
=1' cha0 2 rest'' 4 rest'' a(1
=1, cha1 4. d)2 16 [c# Bn] 2 c
=2' cha2 4 g#)1 8 leg80 [a leg99 e] [a 16 bb a] 8 [gn a]
=2, cha3 8 [c# Bn] 4 A rest, A
|
=1' cha0 8 [a)1 16 g a] 4 b(1 8 leg80 [b)1 leg99 e a g]
=1, cha1 8 [d 16 e f] 4 g(2 g)2 c#
=2' cha2 8 leg80 [b leg99 d~ g a] [b g] [e 16 f g]
=2, cha3 1 d(2
|
=1' cha0 8 leg80 [f leg99 16 e d] 8 [c# d] [e 16 d e] 8 [f e]
=1, cha1 8 [d A] 4 Br 2 A(2
=2, cha3 8 leg80 [d)2 leg99 16 e f] 8 [e d] leg80 [c# leg99 A] [d cn]
=2' cha2 4 a g(1 g)1 f(1

6 systems 8 /19-40-19/19-43-19/19-40-19 \
 /19-40-19/19-40-19/19-45-19/
pagenum
innerhead J. S. Bach, Contrapunctus 14, completed by Zoltán Göncz
leftfoot typesetting (c) 1998 Peter Billam

/
4 bars | 1b 1 1.4 1 1 1 1.3 1 1 | 1 1 1 1 1 1 1.3 1 | 1 1 1.3 1 1 1 1 1 | 1 1 1 1 1 1.4 1 1 |
|
=1' cha0 4. d 8 c# [d 16 e f] 8 [e d]
=1, cha1 8 [A)2 G F E] 4 D rest,
=2' cha2 8 [f)1 16 e d] 4 a(1 a)1 g
=2, cha3 4 B A 2 B
|
=1' cha0 4 c# rest' 8 rest' [e f g]
=1, cha1 8 rest, [E F G] [F E D C#]
=2' cha2 4 a rest' 2 rest'
=2, cha3 4 A, rest, 2 rest,
|
=1' cha0 8 [f e d c#] 2 d(1
=1, cha1 8 leg80 [D leg99 A_ D E] [F E D F]
=2' cha2 1 rest'
=2, cha3 2 rest, d
|
il0.7 .12 235
=1' cha0 4 d)1 8 [c# d] 2 e(1
=1, cha1 8 leg80 [E leg99 A_ E F] [G 16 F E 8 F G]
=2' cha2 2 rest'' b
=2, cha3 2. a 4 g
/
4 bars | 1b 6 6 6 6 6 6 6 5 | 3 3 6.5 4 4 3 3 3 3 3 3 3 3 3 3 2 \
 | 3 3 3 3 3 3 6.5 4 3 3 3 3 3 3 3 2 | 6 6 7 7 6 7 6 5 |
|
=1' cha0 4 leg80 e)1 8 leg99 [d e] [f g a f]
=1, cha1 8 [A G F G] 2 A(2
=2' cha2 2 a c~
=2, cha3 1 f
|
=1' cha0 4 d 8 [e f#] [g a b g]
=1, cha1 8 [A)2 16 G F# 8 G A] 2 B(2
=2' cha2 4. bn 8 c~# 2 d~(1
=2, cha3 1 g
|
=1' cha0 4 e rest' 2 rest'
=1, cha1 8 [B)2 A G F] [E D E G]
=2' cha2 4. d~)1 16 [c~# bn] 2 c~
=2, cha3 1 a
|
i0.5 Here Bach's manuscript ends
=1' cha0 2 blank 1 rest
=1, cha1 4 F rest, 2 rest,
=2' cha2 8 leg80 [d~ leg99 e~ d~ c~n] [bn a b d~]
=2, cha3 4 d 2 a 4 g#
/
4 bars | 1b 7 6 7 6 7 6 7 5 | 7 6 7 6 6 6 6 5 \
 | 7 7 6 6 6 8 6 5 | 6 6 6 6 6 6 7 5 |
|
il0.7 .01 240
i0.9 .25 The remainder is by Zoltán Göncz
=1' cha0 leg100 4 rest' 8 [c d] [c Bn A G#]
=1, cha1 2. rest, 8 [C D]
=2' cha2 leg100 8 [c~ bn a g#] 4 a rest'
=2, cha3 4 a rest, 2 rest,
|
#P =1' cha0 8 [A E A Bn] [c B A c]
#M =1' cha0 8 [A E A Bn] [c B rest c]
=1, cha1 8 [C B_n A_ G_#] 4 A_ A(2
=2' cha2 2 rest' a
=2, cha3 2 blank 1 rest,
|
=1' cha0 8 leg80 [Bn leg99 E B c] [d 16 c B 8 c d]
=1, cha1 4 Ar)2 G# 2 A
=2' cha2 2. e~ 4 d~
=2, cha3 2 rest f
|
=1' cha0 8 [e d c d] 2 e(1
=1, cha1 2 rest, 8 rest [d c Bn]
=2' cha2 1 c~
=2, cha3 2 e g
/
4 bars | 1b 3 3 6.5 4 3 3 3 3 3 3 3 3 4 3 3 2 \
 | 3 3 3 3 3 3 6.5 4 3 3 3 3 3 3 3 2 | 6 6 6 7 6 6 6 5 | 7 6 6 7 6 6 6 5 |
|
=1' cha0 8 [e)1 16 d c# 8 d e] 2 f(1
=1, cha1 2 A 8 rest [e d cn]
=2' cha2 1 d~
=2, cha3 4. f# 8 g# 2 a(2
|
il0.9 .36 245
=1' cha0 8 [f)1 e d c] [Bn A B d]
=1, cha1 4 Bn rest, rest, E(2
=2' cha2 1 e~
=2, cha3 4. a)2 16 [g# f#] 2 g
|
=1' cha0 4 leg80 c leg95 e d f
=1, cha1 8 [E)2 E D C] [B_n A_ B_ D]
=2' cha2 2. ar 4 g#
#P=2, cha3 2 a rest,
|
=1' cha0 4 leg80 e 2 leg95 c 8 [Bn A]
=1, cha1 4 leg80 C leg95 E A D(2
=2' cha2 8 [a bn a g] [f# e f a]
=2, cha3 2 blank 1 rest,

/
4 bars | 1b 6 6 6 6 6 6 6 5 | 6 6 7 6 6 6 6 5 \
 | 6 6 6 6 6 6 6 5 | 6 6 6 7 6 8 6 5 |
|
=1' cha0 4 Bn 2 Bb 8 [A G]
=1, cha1 4 D)2 D G C(2
=2' cha2 8 [g a g f] [e d e g]
=2, cha3 2 blank 1 rest,
|
=1' cha0 2 A 4 B c
=1, cha1 8 leg80 [C)2 leg95 C] 2 F 4 Eb(2
=2' cha2 2 f rest'
=2, cha3 4 rest, 8 [d eb] [d c B A]
|
il0.5 .17 250
=1' cha0 2 F B
=1, cha1 4 Er)2 8 [D C] 4 B_ B(2
=2' cha2 2 blank 1 rest'
=2, cha3 8 [B F B c] [d c B d]
|
=1' cha0 2. f 4 eb
=1, cha1 4 B)2 2 A 4 c(2
=2' cha2 2 rest' g~b
=2, cha3 8 leg80 [c leg99 F c d] [eb 16 d c 8 d e]
/
4 bars | 1b 7 6 6 6 6 6 5 5 | 7 8 6 6 6 8 6 5 \
 | 6 7 6 6 6 6 6 5 | 6 7 6 7 7 6 6 5 |
|
=1' cha0 1 d
=1, cha1 4 cr)2 Bn(2 8 [B)2 c] 4 d(2
=2' cha2 2 f~ a~b
=2, cha3 8 [f eb d e] 2 f(2
|
=1' cha0 1 eb
=1, cha1 2 dr)2(2 8 [d)2 16 c B 8 c d]
=2' cha2 4. g~ 8 a~ 2 b~(1
=2, cha3 8 [f)2 16 eb d 8 e f] 2 g(2
|
=1' cha0 1 f
=1, cha1 2 c rest,
=2' cha2 4. b~)1 8 b~ 4 a~ a~b(1
=2, cha3 8 [g)2 f eb d] [c B c e]
|
il0.6 .15 255
=1' cha0 4. B 8 eb 4 Ab B(1
=1, cha1 4 blank 1 rest,,
=2' cha2 8 leg80 [a~)1 leg99 b~ a~b g~] [f~ e~b f~ a~]
=2, cha3 4 leg80 d 2 leg95 eb 4 d

6 systems 8 /19-38-19/19-40-19 12/19-33-19 \
 /19-43-19/19-47-19/19-40-19/
pagenum
innerhead J. S. Bach, Contrapunctus 14, completed by Zoltán Göncz
leftfoot typesetting (c) 1998 Peter Billam

/
4 bars | 1b 6 6 6 6 6 6 6 5 | 7 6 6 6 6 6 6 5 \
 | 6 6 6 6 6 6 6 5 | 6 6 6 6 6 6 6 5 |
|
=1' cha0 4 B)1 8 [An B] 2 c(1
=1, cha1 4 blank 1 rest,,
=2' cha2 2. g~ 8 [f~# g~]
=2, cha3 8 [eb d c B] [A G A c]
|
=1' cha0 8 leg80 [c)1 leg99 eb d c] [B A B d]
=1, cha1 4 blank 1 rest,,
=2' cha2 2. a~ 4 d~(1
=2, cha3 4 leg80 F# leg95 d g fn
|
=1' cha0 4 G 2 g 8 [f e]
=1, cha1 2 rest,, 4 rest, c(2
=2' cha2 8 leg80 [d~)1 leg99 d~ c~ b] [a g a c~]
=2, cha3 4 leg80 e leg95 c f e
|
=1' cha0 2. f 8 [e d]
=1, cha1 8 [c)2 c B A] [G F G B]
=2' cha2 4 f 8 [g a] 2 b(1
=2, cha3 2 d 4 rest, g
/
4 bars | 1b 6 6 6 7 7 6 6 5 | 6 6 7 6 6 6 7 5 \
 | 6 6 7 6 6 6 6 5 | 6 6 6 6 6 8 6 5 |
|
il1.0 260
=1' cha0 4 e 2 eb 8 [d c]
=1, cha1 8 leg80 [E leg99 B A G] [F# En F A]
=2' cha2 4 b)1 8 [c~ b] 2 a(1
=2, cha3 2. c 8 [B c]
|
=1' cha0 4 d rest' rest' 8 [B c]
=1, cha1 2 D rest,
=2' cha2 4 a)1 8 [b c~] [b a g f#]
=2, cha3 8 [B A G F#] 4 G rest,
|
#P=1' cha0 8 [B A G F#] 4 G g(1
#M=1' cha0 8 [B A G F#] 4 rest g(1
=1, cha1 2 rest, Gr
=2' cha2 8 leg80 [g leg99 d g a] [b a g b]
=2, cha3 2. blank 1 rest,
|
=1' cha0 4 g)1 2 f# 4 a(1
=1, cha1 2. d 4 c
=2' cha2 8 leg80 [a leg99 d a b] [c~ 16 b a 8 b c~]
=2, cha3 2 rest, eb
/
4 bars | 1b 6 6 6 6 6 6 5 5 | 3 3 6.5 4  3 3 4 3  3 3 4 4 3 3 3 2 \
 | 6 6 6 8.3 6 7 6 5 | 7 6 7 6 6 6 6 5 |
|
=1' cha0 4 a)1 g(1 8 [g)1 a] 4 b(1
=1, cha1 1 B
=2' cha2 8 [d~ c~ b c~] 2 d~(1
=2, cha3 2 d f
|
il1.1 .15 265
=1' cha0 2 b)1(1 8 [b)1 16 a g 8 a b]
=1, cha1 1 c
=2' cha2 8 [d~)1 16 c~ bn 8 c~ d~] 2 e~b(1
=2, cha3 4. e 8 f# 2 g(2
|
=1' cha0 2 a 4 rest' d(1
=1, cha1 1 d
=2' cha2 8 leg80 [e~)1 leg99 d~ c~ b] [a g a c~]
=2, cha3 4. g)2 16 [f# e] 4 f fn(2
|
=1' cha0 8 [d)1 eb d c] 2 g
=1, cha1 1 G(2
=2' cha2 4 bn 2 c~ 4 bb(1
=2, cha3 8 leg80 [f)2 leg99 g f eb] [d c d f]
/
4 bars | 1b 6 6 6 6 6 6 6 5 | 6 6 6 6 6 6 7 5 \
 | 6 6 6 6 6 6 6 5 | 6 6 6 6 6 8 6 5 |
|
=1' cha0 4. c 8 f 2 B(1
=1, cha1 4 G)2 A(2 8 [Ar)2 D] 4 G(2
=2' cha2 8 leg80 [b)1 leg99 c~ b a] [g f g b]
=2, cha3 4 en 2 f 8 [e d]
|
=1' cha0 8 [B)1 E] 2 A 4 G(1
=1, cha1 4 leg80 G)2 8 leg99 [F G] [F E D C#]
=2' cha2 4 a rest' 2 rest'
=2, cha3 2 c# A
|
il0.6 .12 270
=1' cha0 4 G)1 F 2 rest'
=1, cha1 8 leg90 [D leg99 A_ D E] [F E D F]
=2' cha2 2 rest' d
=2, cha3 2. d 4 d
|
=1' cha0 2 rest' B
=1, cha1 8 leg80 [E leg99 A_ E F] [G 16 F E 8 F G]
=2' cha2 2. a 4 g
=2, cha3 1 c#
/
4 bars | 1b 7 6 6 6 6 6 6 5 | 4.5 3 6.5 4.5 3 3 4 4.5  4 3 4.5 4.5 3 3 3 2 \
 | 3 3 3 3 3 3 6.5 4.5 3 3 3 3 3 3 3 2 | 6 6 6 6 6 6 6 5 |
|
=1' cha0 2 A c
=1, cha1 8 [Ar G F G] 2 A(2
=2' cha2 4 rest'' a(1 8 [a)1 d~ c~ d~]
=2, cha3 1 <d f>
|
# Bad exposed parallel fifths between the outer voices :-(
=1' cha0 4. Bn 8 c# 2 d(1
=1, cha1 8 [Ar)2 16 G F# 8 G A] 2 Bb(2
=2' cha2 4 gr g~(1 8 [g~)1 16 f~n e~ 8 f~ g~]
=2, cha3 1 <e g>
|
=1' cha0 4. d)1 16 [c# Bn] 2 c
=1, cha1 8 [B)2 A G F] [E D E G]
=2' cha2 4 e~ rest' rest' a(1
=2, cha3 1 <A a>
|
il0.7 .08 275
=1' cha0 1 d(1
=1, cha1 4 leg80 [F# 2 leg95 G 4 G#
=2' cha2 4 a)1 8 [b a] 4 g d~
=2, cha3 2 dr(2 8 [d)2 f e d]
=2, cha3 1 B
/
4 bars | 1b 6 6 6 6 6 6 6 5 | 6 6 6 6 6 6 7 5 \
 | 6 6 6 6 6 6 6 5 | 6 6 6 6 6 8 6 5 |
|
=1' cha0 4 d)1 c# 2 rest'
=1, cha1 4. A 8 B [A G F E]
=2' cha2 2 e~ rest'
=2, cha3 2 <A a> rest,
|
=1' cha0 2 d 4. a 8 g
=1, cha1 8 [F E F G] [F E D C#]
=2' cha2 4. blank 1 rest'
=2, cha3 4. blank 1 rest,
|
=1' cha0 4. f 8 e 2 d
=1, cha1 8 [D A_ D E] [F E D F]
=2' cha2 4 blank 1 rest'
=2, cha3 2 rest, d
|
=1' cha0 2 c# 4. d 8 e
=1, cha1 8 leg80 [E leg99 A_ E F] [G 16 F E 8 F G]
=2' cha2 2 rest'' b
=2, cha3 2. a 4 g

6 systems 8 /19-40-19/19-40-19/19-42-19/19-40-19/19-40-19/19-40-19/19-40-19/
pagenum
innerhead J. S. Bach, Contrapunctus 14, completed by Zoltán Göncz
leftfoot typesetting (c) 1998 Peter Billam

/
4 bars | 1b 6 6 6 6 6 6 6 5 | 3 3 6.5 4.5 3 3 3 3 3 3 3 3 3 3 3 2 \
 | 3 3 3 3 3 3 6.5 4.5 3 3 3 3 3 3 3 2 | 6 6 6 7 6 6 6 5 |
|
il0.8 .21 280
=1' cha0 2 f(1 8 [f)1 g f e]
=1, cha1 8 [A G F G] 2 A(2
=2' cha2 2 leg80 a leg95 c~
=2, cha3 1 f
|
=1' cha0 2 d 8 rest'' [a g f]
=1, cha1 8 leg75 [A)2 leg95 16 G F# 8 G A] 2 B(2
=2' cha2 4. bn 8 c~# 2 d~(1
=2, cha3 1 g
|
=1' cha0 4 e rest' 2 rest'
=1, cha1 8 leg75 [B)2 leg95 A G F] [E D E G]
=2' cha2 4. d~)1 16 [c~# bn] 2 c~
=2, cha3 1 a
|
=1' cha0 4. blank 1 rest'
=1, cha1 4 leg80 F 2 leg95 A 4 G#
=2' cha2 8 [d~ e~ d~ c~] [bn a b d~]
=2, cha3 4 d rest, 2 rest
/
4 bars | 1b 7 6 6 6 7 6 7 5 | 6 6 7 6 6 6 6 5 \
 | 6 6 6 6 6 8 6 5 | 6 6 6 6 6 6 6.5 5 |
|
=1' cha0 4 rest' 8 [c d] [c Bn A G#]
=1, cha1 4 A rest, 2 rest,
=2' cha2 8 [c~ bn] 4 a 2 rest''
=2, cha3 2 A 4. e 8 d
|
il0.8 .10 285
=1' cha0 8 leg75 [A leg95 E A Bn] [c B A c]
=1, cha1 2. blank 1 rest,,
=2' cha2 2 rest' e
=2, cha3 4. c 8 Bn 2 A
|
=1' cha0 8 leg75 [Bn leg95 E B c] [d 16 c B 8 c d]
=1, cha1 2 rest,, F
=2' cha2 2. bn 4 a
=2, cha3 2 G# 4. A 8 Bn
|
=1' cha0 8 [e d c d] 2 e(1
=1, cha1 2 leg80 E leg95 G
=2' cha2 1 g
=2, cha3 2 c(2 8 [c)2 d c Bn]
/
4 bars | 1b 3 3 6.5 4 3 3 3 3 3 3 3 3 3 3 3 2 \
 | 3 3 3 3 3 3 6.5 5 3 3 4 3 3 3 3 2 | 6 6 6 6 6 6 6 5 | 6 6 6.5 6 6 6 6 5 |
|
=1' cha0 8 leg75 [e)1 leg95 16 d c# 8 d e] 2 f(1
=1, cha1 4. F# 8 G# 2 A(2
=2' cha2 1 a
=2, cha3 2 A 8 rest [e d c]
|
=1' cha0 8 leg75 [f)1 leg95 e d c] [Bn A B d]
=1, cha1 4. A)2 16 [G# F#] 4 G Gn(2
=2' cha2 1 bn
=2, cha3 2 d 4 leg75 e leg95 Bn
|
il0.8 .11 290
=1' cha0 4 c# 2 d 4 c
=1, cha1 8 leg75 [G)2 leg95 A G F] [E D E G]
=2' cha2 4 e 8 [f g] 2 leg75 a leg95
=2, cha3 1 A
|
=1' cha0 4 d rest' 2 rest'
=1, cha1 8 [F E D C#] 4 D rest,
=2' cha2 2 d~ 4. a~ 8 g~
=2, cha3 4 rest 8 [f g] [f e d c#]
/
4 bars | 1b 6 6 6 6 6 6 6 5 | 6 6 6 6 6 8 6 5 \
 | 6 6 6 6 6 6 6 5 | 3 3 6 4 3 3 3 3 3 3 3 3 3 3 3 2 |
|
=1' cha0 2 blank 1 rest'
=1, cha1 2 rest, D
=2' cha2 4. f~ 8 e~ 2 d~
=2, cha3 8 leg75 [d leg95 A d e] [f e d f]
|
=1' cha0 2 rest' B
=1, cha1 2. A 4 G
=2' cha2 2 c~# 4. d~ 8 e~
=2, cha3 8 leg75 [e leg95 A e f] [g 16 f e 8 f g]
|
=1' cha0 2 leg80 A leg95 c
=1, cha1 1 F
=2' cha2 2 f~(1 8 [f~)1 g~ f~ e~]
=2, cha3 8 [a g f g] 2 a(2
|
il0.6 .15 295
=1' cha0 4. Bn 8 c# 2 d(1
=1, cha1 1 G
=2' cha2 2 d~ 8 rest''' [a~ g~ f~]
=2, cha3 8 leg75 [a)2 leg95 16 g f# 8 g a] 2 b(2
/
4 bars | 1b 3 3 3 3 3 3 7  5 3 3 3 3 3 3 3 2 | 7 6 6 7 6 6 6 5 \
 | 7 6 7 6 7 6 7 5 | 6 6 7 6 6 6 6 5 |
|
=1' cha0 4. d)1 16 [c# Bn] 2 c
=1, cha1 1 A
=2' cha2 2 e~ 4 rest'' a(1
=2, cha3 8 leg75 [b)2 leg95 a g f] [e d e g]
|
=1' cha0 8 leg75 [d leg95 e d c] [Bn A B d]
=1, cha1 4 D 2 F 4 E
=2' cha2 4 a)1 a 2 d~
=2, cha3 8 [f# g#] 2 ar 4 g
|
=1' cha0 8 [c Bn A G#] 4 Ar rest''
=1, cha1 2 A 4. e 8 d
=2' cha2 4 rest'' 8 [c~ d~] [c~ bn a g#]
=2, cha3 4 a rest, 2 rest,
|
#P=1' cha0 2 rest' A
=1, cha1 4. c 8 Bn 2 A
=2' cha2 8 leg75 [a leg95 e a bn] [c~ b a c~]
=2, cha3 4. blank 1 rest,

/
4 bars | 1b 6 6 6 6 6 8 7 5 | 6 6 6 6 6 6 7 5 \
 | 3 3 7 4 3 3 3 3  3 3 3 3 3 3 3 2 | 3 3 3 3 3 3 7 5  3 3 4 3 3 3 3 2  |
|
il0.7 300
=1' cha0 2. e 4 d
=1, cha1 2 G# 4. A 8 Bn
=2' cha2 8 leg75 [bn leg95 e b c~] [d~ 16 c~ b 8 c~ d~]
=2, cha3 2 rest, f
|
#P=1' cha0 1 c
=1, cha1 2 cr(2 8 [c)2 d c Bn]
=2' cha2 8 [e~ d~ c~ d~] 2 e~(1
=2, cha3 2 e g
|
=1' cha0 1 d
=1, cha1 2 A 8 rest, [e d c]
=2' cha2 8 leg75 [e~)1 leg95 16 d~ c~# 8 d~ e~] 2 f~(1
=2, cha3 4. f# 8 g# 2 a(2
|
=1' cha0 1 e
=1, cha1 2 Bn 4 rest, E(2
=2' cha2 8 leg75 [f~)1 leg95 e~ d~ c~] [bn a b d~]
=2, cha3 4. a)2 16 [g# f#] 4 leg70 g leg95 gn(2


6 systems 8 /19-40-19/19-40-19/19-40-19/19-40-19/19-40-19/19-40-19/19-40-19/
pagenum
innerhead J. S. Bach, Contrapunctus 14, completed by Zoltán Göncz
leftfoot typesetting (c) 1998 Peter Billam

/
4 bars | 1b 6 6 6 6 6 6 6 5 | 6 6 6 6 6 6 6 5 \
 | 6 6 6 6 6 6 6 5 | 6 6 6 6 6 6.5 6 5 |
|
=1' cha0 2 A rest'
=1, cha1 4 E)2 F G B
=2' cha2 4 c~# 2 d~ 4 c~
=2, cha3 8 leg60 [g)2 leg95 a g f] [e d e g]
|
il1.1 305
=1' cha0 8 rest'' [a g f] [e d e g]
=1, cha1 4 A rest, 2 rest,
=2' cha2 2. d~ 4 c~n(1
=2, cha3 4 f g 2 a
|
=1' cha0 4 f# 2 g 4 fn(1
=1, cha1 8 rest, [d c B] [A G A c]
=2' cha2 8 [c~)1 b a g] 2 d~(1
=2, cha3 2 d 4 rest, d
|
=1' cha0 8 leg60 [f)1 leg95 g f e] [d c d f]
=1, cha1 4 Bn 2 c 4 Bb(2
=2' cha2 8 leg60 [d~)1 leg95 e~ d~ c~] 4 g~ rest''
=2, cha3 2 g 4 rest g
/
4 bars | 1b 6 6 6 6 6 6 6 5 | 6 6 6 6 6 6 6 5 \
 | 6 6 6.5 6 6 6 6.5 5 | 6 6 6 6 6 6 6 5 |
|
=1' cha0 4 e 2 f 8 [e d]
=1, cha1 8 [B)2 G] 4 A B G(2
=2' cha2 8 rest' [c~ b a] [g f g b]
=2, cha3 2 c 4 rest, c
|
#P=1' cha0 8 [e A] 2 d 4 c#
#M=1' cha0 8 e rest 2 d 4 c#
=1, cha1 8 [G)2 A G F] [E D E G]
=2' cha2 1 a(1
=2, cha3 4 c# d 2 leg75 A leg95 
|
il0.8 310
=1' cha0 4 rest' 8 [f g] [f e d c#]
=1, cha1 8 [F E D C#] 4 D rest,
=2' cha2 4 a)1 rest'' 2 a
=2, cha3 2 ar 4. d 8 e
|
=1' cha0 8 leg60 [d leg95 A d e] [f e d f]
=1, cha1 2. blank 1 rest,
=2' cha2 2. d~ 4 d~
=2, cha3 4. f 8 g 2 a
/
4 bars | 1b 6 6 6 6 6 8 6 5 | 6 6 6 6 6 6 6 5 \
 | 3 3 6.5 4 3 3 3 3 3 3 4 4 3 3 3 2 | 3 3 3 3 3 3 6 4 3 3 4 3.5 3 3 3 2 |
|
=1' cha0 8 leg60 [e leg95 A e f] [g 16 f e 8 f g]
=1, cha1 2 rest, B
# obtrusive semitone dischord Bb/A
=2' cha2 1 c~#
=2, cha3 2 br 4. a 8 g
|
=1' cha0 8 [a g f g] 2 a(1
=1, cha1 2 A c
=2' cha2 1 d~
=2, cha3 2 f(2 8 leg60 [f)2 leg95 d e f]
|
=1' cha0 8 leg60 [a)1 leg95 16 g f# 8 g a] 2 b(1
=1, cha1 4. Bn 8 c# 2 d(2
=2' cha2 1 e~
=2, cha3 2 g(2 8 [g)2 16 f e 8 f g]
|
il1.1 .45 315
=1' cha0 8 leg60 [b)1 leg95 a g f] [e d e g]
=1, cha1 4. d)2 16 [c# Bn] 4 c cn(2
=2' cha2 1 ar(1
#P=2, cha3 2 a 4 rest, A
#M=2, cha3 2 rest 4 rest, A
/
4 bars | 1b 6 6 6 6 6 6 6 5 | 6 6.5 6.5 6 6 6 6 5 \
 | 6 6 6 6 6 6 6 5 | 6 6.5 6 6 6 6 6 5 |
|
=1' cha0 4 f# 2 g 4 f
=1, cha1 8 leg60 [c)2 leg95 d c B] [A G A c]
=2' cha2 8 [a)1 b a g] 2 d~(1
=2, cha3 2 d 4 rest, d
|
=1' cha0 8 rest' [g fn eb] [d c d f]
=1, cha1 1 B(2
=2' cha2 4 d~)1 rest'' 2 rest''
=2, cha3 4 g a leg60 b leg95 g
|
=1' cha0 1 eb(1
=1, cha1 8 leg60 [B)2 leg95 c B A] [G F G B]
=2' cha2 4. blank 1 rest'
=2, cha3 4 c d leg60 eb leg95 c
|
#P=1' cha0 8 leg65 [e)1 leg95 f eb d] [c B c e]
#M=1' cha0 8 [e)1 f eb d] [c B blank e]
=1, cha1 4 A rest, rest, c(2
=2' cha2 2 rest'' a(1
#P=2, cha3 4 f g ar f
#M=2, cha3 4 f g blank f
/
4 bars | 1b 7 6 6 6 6 6 6 5 | 6 6 6.5 6 6 6 6.5 5 \
 | 6 6 6 6 6 6 6 5 | 6 6 6 6 6 8 6 5 |
|
il0.8 320
=1' cha0 2. d 4 rest''
=1, cha1 8 leg60 [cr)2 leg95 d c B] [A G A c]
=2' cha2 8 [a)1 d~] 2 g 4 f#
#P=2, cha3 4 f# gr 2 d
#M=2, cha3 4 f# blank 2 d
|
=1' cha0 2 d 4. Gr 8 A
#P=1, cha1 8 [B A G F#] 4 G rest,
#M=1, cha1 8 [B A G F#] 4 blank rest,
=2' cha2 4 rest' 8 [b c~] [b a g f#]
=2, cha3 4 leg120 G rest, 2 leg99 d
|
=1' cha0 4. B 8 c 2 d
=1, cha1 2 blank 1 rest,
#P=2' cha2 8 [g d g a] [b a g b]
#M=2' cha2 8 blank [d g a] [b a blank b]
=2, cha3 2. gr 4 g
|
=1' cha0 2 eb 4. d 8 c
=1, cha1 2 rest, Eb
=2' cha2 8 leg60 [a leg95 d a b] [c~ 16 b a 8 b c~] 
=2, cha3 1 f#

/
4 bars | 1b 6 6 6 6 6 6 6 5 | 3 3 6.5 4 3 3 4 3 3 3 4 4 3 3 3 2 \
 | 3 3 3 3 3 3 6 4 3 3 3 3 3 3 3 2 | 7 6 6.5  6 6 6 6 5 |
|
=1' cha0 2 B(1 8 leg60 [B)1 leg95 G A B]
=1, cha1 2 leg65 D leg95 F
=2' cha2 8 [d~ c~ b c~] 2 d~(1
=2, cha3 1 g
|
il0.7 .12 325
=1' cha0 2 c(1 8 leg60 [c)1 leg95 16 B A 8 B c]
=1, cha1 4. E 8 F# 2 G(2
=2' cha2 8 leg60 [d~)1 leg95 16 c~ bn 8 c~ d~] 2 e~b(1
=2, cha3 1 a
|
=1' cha0 2 A 4 rest' d
=1, cha1 4. Gr)2 16 [F# En] 4 F Fn(2
=2' cha2 8 leg60 [e~)1 leg95 d~ c~ b] [a g a c~]
=2, cha3 1 d(2
|
=1  cha0 1 G(1
=1, cha1 8 leg60 [Fr)2 leg95 G F Eb] [D C D F]
=2' cha2 4 bn 2 c~ 4 bb(1
=2, cha3 4 leg75 d)2 leg95 c leg60 g leg95 G

6 systems 8 /19-40-19/19-40-19/19-40-19/19-43-19/19-42-19/19-40-19/19-40-19/
pagenum
innerhead J. S. Bach, Contrapunctus 14, completed by Zoltán Göncz
leftfoot typesetting (c) 1998 Peter Billam

/
4 bars | 1b 6 6 6 6 6.5 6 6 5 | 6 6.5 6 6 6 6 6.5 5 \
 | 6 6 6 6 6 6 6 5 | 6 6 5 5 4 4 4 4 |
|
=1' cha0 4 G)1 A 2 B
#P=1, cha1 4. Er 8 F# 2 G(2
#M=1, cha1 4. blank 8 F# 2 G(2
=1, cha1 1 E(4
=2' cha2 8 leg60 [b)1 leg95 c~ b a] [g f# g b]
=2, cha3 1 c
|
=1' cha0 1 c(1
=1, cha1 4 G)2 8 [A G] 2 F#(2
=1, cha1 4 Er)4 rest,,, rest,,, A
=2' cha2 1 a(1
=2, cha3 8 rest, [g f# e] [d c d f#]
|
il0.8 .10 330
=1' cha0 4 c)1 8 [B A] 2 B(1
=1, cha1 4 F)2 D 2 G(3
=1, cha1 2. Dr 8 [C# D]
=2' cha2 8 leg60 [a)1 leg95 a g f] [e d e g]
=2, cha3 2 B(2
| .65 .5 .5 .5
=1' cha0 leg115 4 B)1 4 rest 2 rest
=1, cha1 4 G)3 2. blank
=1, cha1 4 Er 2. blank
=2' cha2 leg115 4 c# 4 rest 2 rest
=2, cha3 4 Br)2 2. blank
/
4 bars | 1b 6 6 5 5 4 4 4 4 | 3 4 6 4 3 3 3 3 3 4 3 3 4 4 3 2 \
 | 7 6 6 6 6 6 6 5 | 7 6 6 6 6 8 6 5 |
| .75 .7 .5 .5
=1' cha0 leg130 4 G# 4 rest 2 rest
=1, cha1 4 Fr 2. blank
=1, cha1 4 D 2. blank
=2' cha2 leg130 4 d 4 rest 2 rest
=2, cha3 4 Bn 2. blank
| 2.1
=1' cha0 1 leg100 Ar(1
#P=1' cha0 2 A 4. Dr 8 E
#M=1' cha0 2 blank 4. blank 8 E
=1, cha1 8 [D 16 C# B_n] 4 C D rest,,
=2' cha2 leg100 4 rest'' 8 [f g] [fr e d c#rll]
=2, cha3 2 e 4. a 8 g
=2, cha3 1 Ar(4
|
=1' cha0 2 A)1 rest''
=1' cha0 4. Fr 8 G 2 A
=1, cha1 2 rest,, A_
=2' cha2 8 leg60 [dr leg95 A d e] [f e d f]
#P=2, cha3 4. f 8 e 2 d
#M=2, cha3 4. f 8 blank 2 d
=2, cha3 1 Ar)4(4
|
il0.5 .25 335
=1' cha0 2 rest'' B
=1  2 B' 4. Ar 8 G
=1, cha1 2. E 4 D
=2' cha2 8 leg60 [e leg95 A e f] [g 16 f e 8 f g]
=2, cha3 2 c# 4. d 8 e
=2, cha3 1 Ar)4(4
/
3 bars | 1b 6 6 6 6 6 6 6 5 | 3 3 5 4 3 3 3 3 3 3 4 4 3 3 3 2 \
 | 3 3 3 3 3 3 5 4  3 3 3 3 3 3 3 2 |
|
=1' cha0 2 leg60 A leg95 c
=1, cha1 2 Fr(1 8 leg75 [F)1 leg95 D E F]
=1, cha1 1 Crr
=2' cha2 8 [a g f g] 2 a(1
=2, cha3 2 f(2 8 leg75 [f)2 leg95 g f e]
=2, cha3 1 Ar)4(4
|
=1' cha0 4. Bn 8 c# 2 d(1
=1, cha1 2 G(2 8 leg75 [G)2 leg95 16 F E 8 F G]
=1, cha1 1 Dr
=2' cha2 8 leg75 [a)1 leg95 16 g f# 8 g a] 2 b(1
=2, cha3 2 d 8 rest [a g fn]
=2, cha3 1 Ar)4(4
|
=1' cha0 4. d)1 16 [c# Bn] 4 leg60 c leg95 cn(1
=1, cha1 1 <E A>
=2' cha2 8 [b)1 a g f] leg50 [e leg95 d e g]
=2, cha3 2 e rest,
=2, cha3 1 Ar)4
/
4 bars | 1b 6 6 8 8 6 6 6 5 | 6 6 6 8 6 6 6 5 \
 | 6.5 6 6.5 6 7 6 6.5 6 | 6.5 6 6 6 6 6 6 5 |
|
midi on
=1' cha0 4 c)1 8 [B A] 2 B
=1, cha1 8 rest, [D E F#] 2 G(2
=1, cha1 4 A_ 8 [B_r Cr] 2 Dr(4
=2' cha2 4 f# 8 [g a] 2 g
=2, cha3 4 blank 1 rest,
=2, cha3 2 B(4 8 leg50 [B)4 leg95 A B G]
|
il0.5 .25 340
=1' cha0 2 A(1 8 [A)1 B] 4 c(1
=1, cha1 4. Gr)2 16 [F# E] 2 F
=1, cha1 2. D)4 4 rest,,
=2' cha2 2 a rest''
=2, cha3 8 rest''' [d~ c~ b] [a g a c~]
=2, cha3 1 d(4
|
=1' cha0 4 c)1 8 [B c] [Br A G F#rll]
=1, cha1 2 G 4. d 8 c
=1, cha1 4. blank 1 rest,
=2' cha2 2 d~ 4. gr 8 a
#P=2, cha3 8 [b a g f#] 4 g rest
#M=2, cha3 8 [b a g f#] 2 rest
=2, cha3 1 dr)4(,4
|
=1' cha0 8 leg50 [Gr leg95 D G A] [B A G B]
#P=1, cha1 4. B 8 A 2 G
#M=1, cha1 4. B 8 blank 2 G
=1, cha1 4. blank 1 rest,,,
=2' cha2 4. b 8 c~ 2 d~
#P=2, cha3 43 blank 23 rest 2 d
#P=2, cha3 1 dr)4(4
#M=2, cha3 2 d)4 d(4
/
4 bars | 1b 3 3 3 3 3 3 4 3 3 3 4 4 3 3 3 2 | 6 6 6 6 6 6 6 5 \
 | 3 3 6 4 3 3 4 4  3 3 4 4 3 3 3 2 | 6 6 6 7 6 6 6 5 |
|
=1' cha0 8 leg50 [A leg95 D A B] [c 16 B A 8 B c]
=1, cha1 2 F# 4. G 8 A
=1, cha1 43 blank 23 rest,,, 2 Ebrll
=2' cha2 2 e~b 4. d~ 8 c~
=2, cha3 2. a 4 g
=2, cha3 1 dr)4(4
| 1.08 1.11
=1' cha0 8 [d c B c] 2 d(1
=1, cha1 2 B(2 8 leg50 [B)2 leg95 c B A]
=1, cha1 2 Dr Fr
=2' cha2 2 b(1 8 leg50 [b)1 leg95 g a b]
=2, cha3 1 f
=2, cha3 1 d)4(4
| 1.14 1.18
il0.9 .05 345
=1' cha0 8 [d)1 16 c Bn 8 c d] 2 eb(1
=1, cha1 4. G 8 A [Bbl d c B]
=1, cha1 4. Er 8 F#rll 2 Gr(2
=2' cha2 2 c~(1 8 leg50 [c~)1 16 leg95 b a 8 b c~]
=2, cha3 1 g
=2, cha3 1 d)4(4
| 1.22 1.26
=1' cha0 8 leg50 [e)1 leg95 d c B] [A G A c]
=1, cha1 4 A rest,,, rest,,, D
=1, cha1 4. Gr)2 16 [F# E] 2 F
=2, cha3 1 <a d~>
#P=2, cha3 1 d)4(4
#M=2, cha3 1 d)4
/
4 bars | 1b 6 5 6 5 5 5 5 5 | 6 5 5 5 5 5 5 5 | 6 6 6 6 6 6 6 5 | 16 ||
| 1.30 1.35
=1' cha0 1 B
=1, cha1 8 leg50 [G leg95 A G F#] [E D E G]
=1, cha1 1 Er
=2' cha2 1 c~#
#P=2, cha3 2 dr rest'
#P=2, cha3 1 d)4(4
#M=2, cha3 1 d(4
| 1.40 1.50
=1' cha0 4 leg75 A 8 leg95 [B c] 2 d(1
=1, cha1 2. F# 8 [G A]
=1, cha1 1 Dr
=2' cha2 8 leg50 [c~n leg95 e~b d~ c~] [b a b d~]
=2 2. blank 1 rest
=2, cha3 1 d)4(4
| .425 .43 .435 .44 .45 .46 0.6 0.88
=1' cha0 2 d)1(1 4. d)1 8 <Bx c#>
=1, cha1 8 [<E B> <A c> <G B> <F# A>] leg50 [<E G> leg95 <D F#> <E G> <E G>]
=2' cha2 8 leg50 [g leg95 f# g a] [b c~ b g]
#P=2, cha3 8 rest, [d e f#] [g a g e]
#P=2, cha3 1 d)4(,4
#M=2, cha3 8 rest, rest, [e f#] [g a g e]
#M=2, cha3 8 d)4 2.. d(,4
| 5.0
=1 1 <D F# A d-fermata>
=2 1 <f# a-fermata>
=2, cha3 1 d),4
