6 systems 10 /19-35-19/19-40-19/19-40-19/19-40-19/19-35-19/19-35-19/
pagenum 4
title Contrapunctus 14
innerhead J. S. Bach, completed by D. F. Tovey
leftfoot typesetting (c) 1998 Peter Billam
midi channel 0 patch 0 pan80
midi channel 1 patch 0 pan75
midi channel 2 patch 0 pan25
midi channel 3 patch 0 pan20
/
8 bars | 1b 2/2 4 | 4 | 3 | 3 | 3 | 4 | 4 | 4 |
| 2/2 2.0
=1  treble 1b leg95 cha1  cc11=90
=2' bass   1b leg95 cha2  cc11=95
=2, bass   1b leg95 cha3  cc11=100
# midi off
=1  treble 1b 1 rest
=2' bass   1b 1 rest'
=2, bass   1b cha3 2 rest d
|
=1 1 rest
=2 1 rest''
=2, cha3 2. a 4 g
|
=1 1 rest
=2 1 rest''
=2, cha3 1 f
|
=1 1 rest
=2 1 rest''
=2, cha3 1 g
|
il0.2      5
=1 1 rest
=2 1 rest''
=2, cha3 1 a
|
=1 1 rest
=2' cha2 2 rest' a
=2, cha3 2 d f(2
|
=1 1 rest
=2' cha2 2. d~ 4 d~
=2, cha3 4 leg80 f)2 leg95 Bn 2 e
|
=1 1 rest
=2' cha2 1 c~
=2, cha3 4 leg80 A leg95 e a g
/
6 bars | 1b 4 | 1 1 1 1.3 | 4 | 4 | 4 | 1 1 1 1.3 |
|
=1  1 rest
=2' cha2 1 d~
=2, cha3 4 leg80 f leg95 d b-s2, a-s1,
|
il0.3 .20 10
=1 1 rest
=2' cha2 1 e~
=2, cha3 4 leg80 g leg95 e c# 8 [d-s3, e]
|
=1' cha0 1 rest  cc11=110
=1, cha1 2 rest, D-s2
=2' cha2 2 leg80 a leg95 d~(1
=2, cha3 4 f d-s2, c B
|
=1 1 rest'
=1, cha1 2. A 4 G
=2' cha2 2 d~)1 c~#
=2, cha3 4 A-s5, G-s4, 2 A-s2,
|
=1 1 rest
=1, cha1 1 F-s2-s5
=2' cha2 4 leg80 d~ leg95 a 2 b(1
=2, cha3 2. leg80 D 4 leg95 d-s1,
|
=1' cha0 2. blank 1 rest'
=1, cha1 1 G-s5
=2' cha2 4 leg80 b)1 leg95 g-s1, 2 c~(1-s1
=2, cha3 2. e-s3, 8 [d-s5, e]
/
5 bars | 1b 4 | 1 1 1 1.2 | 1 1.3 1 1 | 3.7 | 3.7 |
|
il0.5 .23 15
=1' cha0 2. blank 1 rest'
=1, cha1 1 A-s4
=2' cha2 4 leg80 c~)1 leg95 a-s2, d~-s1 c~(1-s1,
=2, cha3 2 f-s5, f#-s4,
|
=1' cha0 2 rest A-s3
=1, cha1 1 D(2-s1
=2' cha2 4 c~)1 b-s2, 2 a(1-s1,
=2, cha3 2. g-s3, 8 [f# e]
|
=1' cha0 2. d 4 d
=1, cha1 2 D)2 E(2
=2' cha2 4 a)1 8 [bn-s2, c~-s1,] 2 b
=2, cha3 2 f# g#
|
=1' cha0 1 c
=1, cha1 4 E)2 C-s1, 2 F(2-s1
=2' cha2 2. leg80 ar 4 leg95 a-s3,
=2, cha3 2 a-s3, rest
|
=1' cha0 1 d
=1, cha1 4 leg80 F)2 leg95 D-s1, 2 G(2-s1
=2' cha2 2. b 4 bn-s2,
=2, cha3 1 rest,
/
5 bars | 1b 1.9 1.9 1.9 1.7 | 4 3.6 | 8 | 8 | 8 |
|
il0.5 .02 20
=1' cha0 1 e
=1, cha1 4 leg80 G)2 leg95 E-s1 A-s3 G(2
=2' cha2 2 c~ c~#-s2,
=2, cha3 1 rest,
|
=1' cha0 2. A-s4 4 Bn-s4
=1, cha1 4 Gr)2 8 [F-s1 E-s2] 2 F-s1-s3-s(4)
=2' cha2 4 d~ a-s2, 2 d~
=2, cha3 2 rest, d
=2 4. blank 4 blank-s"5 - 2",
|
=1' cha0 2. c-s1-s2-s5 4 d
=1, cha1 4 E 8 [D-s2 E-s3] 2 F(2-s1
=2' cha2 2 c~ rest'
=2, cha3 2. A-s5, 4 Bn
|
=1' cha0 2 G-s4 F#
=1, cha1 4 Fr)2 2 Eb-s2 4 D(2-s1
=2' cha2 1 rest'
=2, cha3 1 c
|
=1' cha0 2 G-s3 G#-s4
=1, cha1 8 [D)2 E-s1] 2 F 8 [E-s1 D-s2]
=2' cha2 2 rest' d-s2,
=2, cha3 1 Bb-s4,
/
5 bars | 1b 1.3 1 1 1.2 1 1 1 1 | 8 | 7.5 \
 | 1 1 1.4 1 0.9 0.9 1.1 1.0 | 0.9 0.9 1.4 1 0.9 0.9 1.1 1.1 |
|
il0.7  25
=1' cha0 8 A-s1-s4 4 c 8 Bn 2 c(1
=1, cha1 4 C D 2 E
=2' cha2 2. a 4 g-s2,
=2, cha3 1 A
|
=1' cha0 4 c)1 8 [Bn A] 2 B
=1, cha1 2. D 8 [E-s1 F-s2]
=2' cha2 1 f
=2, cha3 1 d-s1,-s3,
|
=1' cha0 4 c Bb-s2-s5 A-s1-s5 G
=1, cha1 4 E D 2 C(2
=2' cha2 1 g
=2, cha3 4 c-s2,-s5, d 2 eb(2
|
=1' cha0 2. F# 8 [G-s4 A]
=1, cha1 4 C)2 8 [D-s1 Eb] 2 D(2
=2' cha2 1 a
=2, cha3 4 leg80 eb)2 leg95 A d-s2, c
|
=1' cha0 2. leg80 G 8 leg95 [A-s3 B]
=1, cha1 4 D)2 8 [E-s2 F#-s3] 2 G(2-s1
=2' cha2 2. leg80 d 8 leg95 [c-,-s4, d]
=2, cha3 2 Bn Bb(2-s5,
/
4 bars | 1b 1 1 1 1.3 1 1 1 1 | 8 | 1 1 1.3 1.3 1 1 1 1| 1 1 1 1.2 1 1 1 1|
|
il0.5 .03 30
=1' cha0 1 c(1
=1, cha1 4 leg80 G)2 8 leg95 [F#--s2 G--s1] 2 A--s3
=2' cha2 4 leg80 e 8 leg95 [d-s3, e] 4 f# 8 [e f-s1,]
=2, cha3 2 B)2 A
|
=1' cha0 4 c)1 8 [B A] 2 B-s5
=1, cha1 2. D 4 E-s2
=2' cha2 4 g d 2 g
=2, cha3 2 G-s1,-s4, 4 rest, G-s5,
|
=1' cha0 4 leg80 A-s1-s3 8 leg95 [Bn-s2 c#-s3] 2 d(1-s4
=1, cha1 1 F
=2' cha2 4 leg80 f 8 leg95 [g-s1, a-s2,] 2 bb(1-s1,
=2, cha3 2. d-s2,-s"       3 - 5", 8 [e-,-s4, f-,-s3,]
|
=1' cha0 4 d)1 8 [e d] 2 c#
=1, cha1 1 E
=2' cha2 2 b)1 a(1-s1,
=2, cha3 2. g-s(1),-s2, 8 [f# e]

6 systems 13 /19-43-19/19-34-19 5/19-38-19/19-38-19 5/19-37-19/19-43-19/
pagenum
innerhead J. S. Bach, Contrapunctus 14, completed by D. F. Tovey
leftfoot typesetting (c) 1998 Peter Billam
/
5 bars | 1b 2 2 2 2.6 | 2 2.6 2 2 | 8 | 2 2.4 2 2 | 2 2.4 2 2 |
|
=1 4. blank 2 blank 8 blank 8 blank---s2
=1' cha0 4 d-s4 2 cn-s5 4 Bn-s(1)-s3-s4
=1, cha1 1 D
=2' cha2 2 a)1 4 g 8 [g~ f~]
=2, cha3 4 f# d 2 gr(2
=2 2 blank 8 blank-s"4 - 5", 4 blank
|
il0.9 .25 35
=1' cha0 2 c#--s3-s5 d(1-s1-s(3)-s5
=1, cha1 1 A(2
=2' cha2 4 e~ 8 [d~-s2, e~-s1,] 2 f~
=2, cha3 2 g)2-s1,-s(5), 4 f-s4, g-s3,
|
=1' cha0 2 d)1 c#-s1-s(3)-s4
=1, cha1 2. A)2 4 G(2-s2
=2' cha2 4 e~-s" 2" d~-s1 2 e~
=2, cha3 2 a-s1, A
|
=1' cha0 2 leg80 d-s1-s(2)-s5 leg95 A
=1, cha1 4 leg80 G)2 8 leg95 [F-s2 E-s1] 2 F
=2' cha2 4 leg80 d~ leg95 8 [a-s1, g-s2,] 2 a(1
=2, cha3 2. d-s4, 4 c-s5,
|
=1' cha0 2. d 4 d
=1, cha1 2 rest, D
=2' cha2 4 a)1 8 [g f] 2 g(1
=2, cha3 4 B-s4, A 2 B
/
5 bars | 1b 8 | 8 | 2 2.4 2 2 | 1 1.3 1 1 1.4 1.7 1.3 1 | 2 2 2 1.7 |
|
=1' cha0 1 c-s3-s4
=1, cha1 2. A 4 G
=2' cha2 4 leg80 g)1 leg95 c f e
=2, cha3 1 A
|
il0.4 .15 40
=1' cha0 1 d
=1, cha1 1 F
=2' cha2 4 d a d~ c~
=2, cha3 4 leg80 B-s3,-s5, leg95 f-s1,-s2, b-s2,-s4, a-s1,-s5,
|
=1' cha0 1 e
=1, cha1 1 G
=2' cha2 4 b 8 [a g] 2 c~(1
=2, cha3 4 g-s2,-s3, f-s1,-s4, e-s1,-s5, 8 [d-s4, c-s5,]
|
=1' cha0 4 A-s3 Bn 2 c(1
=1, cha1 1 Ar
=2' cha2 4 c~)1 d~-s2, 8 [e~b c~-s2, bn-s1, a-s2,]
=2, cha3 2 f f#-s1,-s4,
=2 16 blank 2.. blank-,-s"3 - 5",
|
=1' cha0 2. c)1 4 Bn
=1, cha1 4 D E-s2 2 F(2-s1
=2' cha2 1 g(1
=2, cha3 2 gr-s1, G
/
5 bars | 1b 8 | 8 | 8 | 8 | 8 |
|
=1' cha0 4 leg80 c leg95 G-s2-s3 2 c(1
=1, cha1 4 F)2 8 [E D] 2 E(2
=2' cha2 1 g)1(1
=2, cha3 2. leg80 c-s(1),-s3, 4 leg95 B
|
il0.4 .24 45
=1' cha0 2. c)1 4 A
=1, cha1 4 leg80 E)2 leg95 C 2 F(2-s2
=2' cha2 4 g)1 8 [f-s1, g-s2,] 2 a(1-s1,
=2, cha3 1 A
|
=1' cha0 1 d(1
=1, cha1 4 leg80 F)2 leg95 D G--s2 F
=2' cha2 4 a)1 8 [g-s2, a-s1,] 2 b(1-s1,
=2, cha3 1 B-s(1),-s5,
|
=1' cha0 4 leg80 d)1-s2-s(5) leg95 G c-s2-s5 B
=1, cha1 4 E D 2 Eb(2
=2' cha2 2 b)1 4 a-s1, g
=2 2. blank 8 blank 8. blank-s"2 - 1",
=2, cha3 1 c
|
=1' cha0 4 A-s(2)-s5 G 2 A(1-s2-s5
=1, cha1 2 E)2 4 D C
=2' cha2 2 f rest'
=2, cha3 2 F F#
/
5 bars | 1b 8 | 8 | 8 | 8 | 8 |
|
=1' cha0 2 A)1 4 G F
=1, cha1 4 B_n A_ 2 B_b(2
=2' cha2 1 rest
=2, cha3 4 G-s1, Fn E D
|
il0.5 .22 50
=1' cha0 4 E-s5 D 2 Eb(1-s2-s5
=1, cha1 2 B_)2 4 A_ G_
=2' cha2 1 rest
=2, cha3 4 leg80 C leg95 G c B
|
=1' cha0 2 E)1-s2-s(5) D(1
=1, cha1 4 leg80 F_# leg95 A_-s1 Dr C
=2' cha2 1 rest
=2, cha3 4 A-s1, G F# D
|
=1' cha0 2. D)1 4 D
=1, cha1 4 B_ A_ 2 B_
=2' cha2 1 rest'
=2, cha3 4 leg80 G-s4, leg95 d-s2, g-s1, f
|
=1' cha0 4 G F E-s1-s2 G
=1, cha1 2 B_n C(2
=2' cha2 1 rest'
=2, cha3 4 e-s1, d c Bb
/
5 bars | 1b 2 2 2 1.8 | 8 | 2 2.5 2 1.8 | 1 1 1.5 1.3 1 1 1.3 1.3 | 2 2 2 2.4 |
|
=1' cha0 2. leg80 c 4 leg95 c
=1, cha1 4 C)2 E 2 A(2
=2' cha2 1 rest'
=2, cha3 4 leg80 A leg95 c f-s1, e-s3,
|
il0.7 .43 55
=1' cha0 4 f e d c
=1, cha1 4 A)2 G 4. F 8 E
=2' cha2 2 rest' d~
=2, cha3 4 d-s5, e 2 f(2-s1,-s3,
|
=1' cha0 2 Bn c#
=1, cha1 4 D 8 [E F] 2 G
=2' cha2 2. g 4 a
=2, cha3 4 fr)2-s2,-s(3), 2 e-s5, 4 eb-s1,-s4,
|
=1' cha0 2. d 8 [c d]
=1, cha1 4 F# 8 [G-s2 A-s1] 4 B-s2 8 [A B]
=2' cha2 1 b
=2, cha3 4 d-s2,-s5, 8 [e f#-s3,] 2 g(2-s3,
|
=1' cha0 4 e-s1-s3 2 a 4 d(1-s2-s3
=1, cha1 2. c 8 [B A]
=2' cha2 1 a-s1,-s(3),
=2, cha3 4 leg80 gr)2 leg95 c 2 f(2-s3,
/
5 bars | 1b 1 1.1 1.3 1.3 1 1 1.3 1.3 | 2.3 2.6 2 2.6 | 2 2 2 2.5 | 1 1.2 1.7 1.3 1 1 1.3 1.3 | 2 2.2 2 2 |
|
=1' cha0 4 d)1 2 g 4 c(1-s1-s4
=1, cha1 2. B 8 [A G-s2]
=2' cha2 1 g-s2,-s(3),
=2, cha3 4 fr)2 8 [eb d] 2 e
|
il0.5 .45 60
=1' cha0 4 c)1 2 Bn-s5 4 Bb
=1, cha1 2 F# G(2
=2' cha2 2. d~ 8 [e~-s2, d~-s1,]
=2, cha3 2 d rest
|
=1' cha0 2 A-s5 rest'
=1, cha1 4 Gr)2 8 [Fn E] 4 F 8 [G F]
=2' cha2 4 leg80 c~#-s2, leg95 a 2 d~(1
=2, cha3 2 rest d
|
=1' cha0 2 rest' A-s3
=1, cha1 2. E 8 [F-s1 G]
=2' cha2 4 d~)1 8 [c~#-s2, bn-s1,] 4 c~-s2, 8 [d~ e~]
=2, cha3 2. a-s3, 4 g-s2,-s5,
|
=1' cha0 2. d 4 c-s2-s5
=1, cha1 4 A G F Eb
=2' cha2 2 d~ a-s2,
=2, cha3 1 f-s4,

6 systems /19-40-19/19-35-19/19-45-19/19-40-19 5/19-40-19/19-35-19/
pagenum
innerhead J. S. Bach, Contrapunctus 14, completed by D. F. Tovey
leftfoot typesetting (c) 1998 Peter Billam
/
5 bars |1b 1 1 1.7 1.2 1 1 1 1|1 1 1.7 1.2 1 1 1 1|8|8|1 1 1.2 1.6 1 1 1 1|
|
=1' treble 1b smb B
=1, treble 1b cro D qua [G F#] min G(2
=2' bass   1b cro rest'' b e~b d~
=2, bass   1b smb g
|
il0.4      65
=1' smb c
=1, min G)2 Fn(2
=2' cro c~ qua [d~ e~b] cro d~ c~
=2, smb a
|
=1' smb d
=1, cro F)2 qua [G A] cro G F
=2' cro bn a min bb(1
=2, smb d
|
=1' min G cro A B
=1, cro E C min F(2
=2' min b)1 a
=2, smb c(2
|
=1' cro c G c B
=1, cro F)2 qua [E D] min Eb(2
=2' cro g b a g
=2, smb c)2
/
5 bars | 1b 8 | 8 | 8 | 8 | 8 |
|
=1' treble 1b cro A F min B(1
=1, treble 1b min E)2 D
=2' bass   1b min f rest'
=2, bass   1b min. d cro eb
|
il0.4      70
=1' min B)1 A
=1, smb C
=2' smb rest'
=2, cro f c f eb
|
=1' min B Ab(1
=1, smb F
=2' smb rest'
=2, cro d qua [c B] cro c d
|
=1' cro A)1 qua [G F] cro G An
=1, min. B_ cro C
=2' min rest' b
=2, cro eb B min e(2
|
=1' cro B F min B
=1, smb D
=2' min. f cro g
=2, cro er)2 qua [d c] cro d en
/
5 bars | 1b 1 1 1 1.5 1 1 1.5 1 | 1.5 1.5 1.5 2 | 8 | 1 1 1 1 1 1 1.5 1 | 1 1 1 1 1 1 1.4 1 |
|
=1' treble 1b qua [A B c d] [eb A G F#]
=1, treble 1b smb C
=2' bass   1b smb a
=2, bass   1b min f cro c d
|
il0.4      75
=1' min. G qua [A B]
=1, smb B_
=2' smb g
=2, cro eb B min e(2
|
=1' cro A qua [B c] min B(1
=1, min. F qua [Eb F]
=2' smb f
=2, cro er)2 min d qua [c d]
|
=1' cro B)1 qua [A B] min c(1
=1, min. G qua [F# G]
=2' min. c~ qua [d~ e~b]
=2, cro e qua [f# g] cro a g
|
=1' cro c)1 qua [d c] min B
=1, min. A qua [G F]
=2' min. d~ qua [e~b d~]
=2, cro f# d min g(2
/
5 bars | 1b 8 | 8 | 8 | 1 1 1.6 1.3 1 1 1 1 | 2 2 2 2.5 |
|
=1' treble 1b min A a
=1, treble 1b min Eb D(2
=2' bass   1b cro c~ a d~ c~(1
=2, bass   1b min g)2 f#
|
il0.4       80
=1' min. d cro e
=1, min D)2 G
=2' cro c~)1 qua [b a] min b
=2, min. g cro c#
|
=1' smb f
=1, min F D
=2' min a d~(1
=2, cro d e f g
|
=1' smb e
=1, min. A cro G
=2' cro d~)1 qua [c~# bn] min c~
=2, min. a qua [bb a]
|
=1' smb d
=1, smb F
=2' min. d~ qua [c~# d~]
=2, cro b f min b(2
/
5 bars | 1b 8 | 1 1 1.6 1.3 1 1 1 1 | 1 1 1.6 1.3 1 1 1 1 | 8 | 1 1 1.4 1.3 1 1 1 1 |
|
=1' treble 1b smb g(1
=1, treble 1b smb G
=2' bass   1b min. e~b cro d~
=2, bass   1b cro b)2 g c~ b
|
il0.4      85
=1' min g)1 f#
=1, smb A
=2' cro c~ qua [d~ e~b] cro d~ c~
=2, cro a g min a
|
=1' cro g qua [fn eb] cro d e
=1, min D rest,
=2' cro b a b c~
=2, min g rest,
|
=1' min. f qua [eb d]
=1, cro B qua [A G] cro F G
=2' cro d~ c~ d~ e~b
=2, smb rest,
|
=1' cro c d eb f
=1, cro A B c qua [B A]
=2' cro f~ qua [e~b d~] cro c~ d~
=2, smb rest,
/
5 bars |1b 1 1 1.6 1.3 1 1 1 1|1.8 1.2 1 1 1 1 1.6 1.2|8|8|1 1 1.5 1.3 1 1 1 1|
|
=1' treble 1b cro g qua [f eb] cro d qua [e d]
=1, treble 1b cro G A min B(2
=2' bass   1b cro e~b qua [d~ c~] cro b f(1
=2, bass   1b min rest, B
|
il0.4      90
=1' min. c qua [d eb]
=1, cro Br)2 qua [A G] min A(2
=2' qua [f)1 g a b] min c~
=2, min. fr cro eb
|
=1' smb f(1
=1, cro A)2 qua [B c] cro B A
=2' min. f cro f
=2, smb d
|
=1' cro f)1 qua [eb d] cro c B
=1, cro G F# min G
=2' smb g
=2, smb eb
|
=1' cro Ar qua [a g] cro f eb(1
=1, min. d cro c
=2' smb a
=2, smb f

6 systems /19-35-19/19-35-19/19-45-19/19-40-19 5/19-45-19/19-40-19/
pagenum
innerhead J. S. Bach, Contrapunctus 14, completed by D. F. Tovey
leftfoot typesetting (c) 1998 Peter Billam
/
5 bars |1b 1 1 1.2 1.4 1 1 1.2 1.2|2 2.4 2 2|2 2.4 2 2|2 2.4 2 2|2 2.4 2.4 2|
|
=1' treble 1b cro eb)1 min d qua [c B]
=1, treble 1b smb B
=2' bass   1b smb b
=2, bass   1b cro B qua [c d] min eb(2
|
il0.4      95
=1' cro Ar G min A
=1, smb c
=2' cro f c~ min f~(1
=2, cro er)2 qua [f g] cro f eb
|
=1' smb Br(1
=1, smb d
=2' cro f~)1 e~b min d~
=2, cro d qua [eb f] cro g f
|
=1' cro B)1 qua [A B] min c(1
=1, min. G qua [F# G]
=2' min rest' a
=2, cro en qua [f# g] cro ar g
|
=1' cro c)1 a min d(1
=1, cro A qua [c B] [A G] cro A(2
=2' min. d~ cro c~
=2, cro f# e min f
/
5 bars |1b 8|2 2.4 2 2|1 1 1.6 1.2 1 1 1 1|2 2 2 2.4|1 1 1.7 1.3 1 1 1.2 1.2|
|
=1' treble 1b cro d)1 e min f(1
=1, treble 1b cro A)2 G min D
=2' bass   1b smb bn
=2, bass   1b min. g cro g#
|
il0.4      100
=1' min f)1 e(1
=1, min. A cro G
=2' smb c~#
=2, cro a qua [b a] cro g a
|
=1' cro e)1 qua [d c#] min d(1
=1, smb F
=2' smb d~
=2, cro b f b d
|
=1' min d)1 g(1
=1, smb G
=2' cro g a b qua [c~ b]
=2, min eb en
|
=1' min g)1 f(1
=1, smb A
=2' cro a qua [bn c~#] cro d~ c~n
=2, min. f qua [e f]
/
5 bars |1b 2 2.4 2.4 2|8|8|1 1 1.7 1.3 1.3 1.3 1 1|1 1 1.7 1.2 1 1 1 1|
|
=1' treble 1b min f)1 cro e d
=1, treble 1b cro D qua [G F] [G A] cro B
=2' bass   1b smb bb
=2, bass   1b smb g(2
|
il0.4      105
=1' min c# d(1
=1, cro A min A qua [G F]
=2' smb a(1
=2, cro gr)2 qua [f e] cro f d
|
=1' min d)1 c#
=1, cro E D min E
=2' smb a)1(1
=2, min. ar cro g
|
=1' cro d A d c
=1, cro D qua [F E] [F G] cro A(2
=2' cro a)1 qua [d~ c~#] min d~(1
=2, smb f
|
=1' smb B(1
=1, cro Ar)2 qua [G F#] cro G B
=2' cro d~)1 b e~b d~(1
=2, smb g
/
5 bars |1b 1.2 1.2 1.7 1.3 1 1 1 1|2 2.3 2.3 2.3|2 2.3 2.3 2.3|2 2.3 2 2.3|2 2.3 2.3 2|
|
il0.5     109
=1' treble 1b qua [B)1 A] cro e a g(1
=1, treble 1b min En cro rest, e(2
=2' bass   1b cro d~)1 qua [c~# bn] min c~
=2, bass   1b smb a
|
=1' cro g)1 qua [f e] cro f d
=1, cro e)2 A min d(2
=2' min d~ a(1
=2, min d(2 qua [d)2 c B A]
|
=1' smb b
=1, cro d)2 qua [e f] cro e d
=2' cro a)1 d min g(1
=2, min G(2 qua [G)2 A B G]
|
=1' min e d(1
=1, cro c# min A qua [G F]
=2' cro g)1 qua [f e] cro f d
=2, smb A(2
|
=1' min d)1 c#
=1, cro G E(2 qua [E)2 F] cro G(2
=2' cro e qua [f g] min a(1
=2, smb A)2
/
4 bars |1b 8|8|1 1 1 1 1 1.3 1 1|4 3|
|
=1' treble 1b 4 d 2 A 4 G
=1, treble 1b cro G)2 qua [F G] [F E D C#]
=2' bass   1b cro a)1 d~ min b
=2, bass   1b smb d(2
|
il0.4   115
=1' cro F rest' min rest'
=1, qua [D A_ D E] [F E D F]
=2' cro a rest' min rest'
=2, cro d)2 rest, min rest,
|
=1' smb rest'
=1, qua [E A_ E F] [G smq F E qua F G]
=2' smb rest
=2, smb rest,
|
=1' smb rest'
=1, qua [A G F G] min A(2
=2' smb rest
=2, smb rest,
/
4 bars |1b 1 2.0 1 1 .7 .7 .7 .7|8|1 1 1 1.5 1 1 1 1|1.4 1 1.4 1 1.4 1 1.4 1|
|
=1' treble 1b smb rest'
=1, treble 1b qua [A)2 smq G F# qua G A] min B(2
=2' bass   1b smb rest
=2, bass   1b smb rest,
|
=1' smb rest'
=1, qua [B)2 A G F] [E D E G]
=2' smb rest
=2, smb rest,
|
il0.4      120
=1' smb rest'
=1, qua [F E D C] [B_n A_ B_ D]
=2' smb rest
=2, smb rest,
|
=1' cro rest' qua [c d] [c Bn A G#]
=1, qua [C B_n A_ G_#] cro A_ B_
=2' smb rest
=2, smb rest,

5 systems 10 /19-37-19/19-35-19/19-45-19/19-45-19/19-45-19 10/
pagenum
innerhead J. S. Bach, Contrapunctus 14, completed by D. F. Tovey
leftfoot typesetting (c) 1998 Peter Billam
/
4 bars |1b 6 6 7 6 6 6.5 6 5 | 6 7 6 6 6 8 6 5 \
 | 6 6 6 6 7 6 6 5 | 3 3 6.5 4 3 3 3 3 4 3 4 3 3 3 3 2 |
|
=1' qua [A E A Bn] [c B A c]
=1, cro. C qua D cro E F#
=2' smb rest
=2, smb rest,
|
=1' qua [Bn E B c] [d smq c B qua c d]
=1, cro G min G# cro A(2
=2' smb rest
=2, smb rest,
|
=1' qua [e d c d] min e(1
=1, qua [A)2 F E D] [C B_n A_ G_]
=2' smb rest
=2, smb rest,
|
il1.0  125
=1' qua [e)1 smq d c# qua d e] min f(1
=1, qua [F_ G F E] [D Cn B_n A_]
=2' smb rest
=2, smb rest,
/
4 bars |1b 6 6 6 7 6 6 6 5 | 6 6 6 6 6 6 6 5 \
 | 6 6 7 6 6 6 7 5 | 6 6 6 6 6 6 6 5 |
|
=1' qua [f)1 e d c] [Bn A B d]
=1, cro G_# min A_ cro G_
=2' smb rest
=2, smb rest,
|
=1' qua [c a g f] [e d e g]
=1, cro A_ B_n C C#
=2' smb rest
=2, smb rest,
|
=1' qua [f e d c#] cro d e
=1, cro D min A cro G(2
=2' smb rest'
=2, cro rest, qua [f g] [f e d c#]
|
=1' min. A cro Bn
=1, cro Gr)2 qua [F E] cro D G(2
=2' smb rest'
=2, qua [d A d e] [f e d f]
/
4 bars | 1b 6 6 6 7 6 8 6 5 | 6 6 6 6 6 6 7 5 \
 | 3 3 6 4 3 3 3 3 3 3 3 3 3 3 3 2 | 6 6 6 6 6 6 6 5 |
|
il0.6    130
=1' treble 1b cro c min c# qua [d e]
=1, treble 1b qua [G)2 F G A] [Bb smq A G qua A B]
=2' bass   1b smb rest'
=2, bass   1b qua [e A e f] [g smq f e qua f g]
|
=1' qua [f b a g] [f e d cn]
=1, cro C# cro. D qua [C F E]
=2' smb rest''
=2, qua [a g f g] min a(2
|
=1' qua [B c~ b a] [g f e d]
=1, min D(2 qua [D)2 A G F]
=2' smb rest''
=2, qua [a)2 smq g f# qua g a] min b(2
|
=1' cro c# min d cro c
=1, cro E A G Br
=2' smb rest''
=2, qua [b)2 a g f] [e d e g]
/
4 bars |1b 1 1 1 1.3 1 1 1 1|1 1 1 1 1.3 1 1.3 1|1 1 1.3 1 1 1 1 1|1 1.3 1 1.3 1 1.8 1.4 1|
|
=1' treble 1b cro d e min f
=1, treble 1b min. A cro G#
=2' bass   1b smb rest'
=2, bass   1b qua [f e d c] [Bn A B d]
|
il0.8 .10 135
=1' cro e a e d(1
=1, min A cro rest, E
=2' cro rest' qua [c~ d~] [c~ bn a g#]
=2, min c cro rest, e
|
=1' cro d)1 qua [c d] cro e f(1
=1, min E cro rest, A
=2' qua [a e a bn] [c~ b a c~]
=2, min A cro rest, a(2
|
=1' cro f)1 min e(1 qua [e)1 Bn]
=1, cro. d qua c cro Bn qua [A G#l]
=2' qua [bn e b c~] [d~ smq c~ b qua c~ d~]
=2, cro ar)2 min g# cro a(2
/
4 bars |1b 6 6 6 6 7 6 6 5 | 3 3 6.5 4 3 3 3 3 4 3 4 3 3 3 3 2 \
 | 6 6 6 7 6 6 6 5 | 6 6 6 6 6 6 6 5 |
|
=1' treble 1b cro c rest' min rest'
=1, treble 1b cro A rest, rest, c
=2' bass   1b qua [e~ d~ c~ d~] min e~(1
=2, bass   1b qua [a)2 f e d] [c Bn A G]
|
=1' smb rest'
=1, min. A qua [G# A]
=2' qua [e~)1 smq d~ c~# qua d~ e~] min f~(1
=2, qua [F g f e] [d cn Bn A]
|
il0.4      140
=1' smb rest'
=1, qua [Bn e] min A cro G#
=2' qua [f~)1 e~ d~ c~] [bn a b d~]
=2, cro G# A e E
|
=1' smb rest'
=1, cro A rest, min rest,
=2' min c~ c~#
=2, qua [A a g f] [e d e g]

5 systems /19-45-19/19-45-19/19-45-19/19-50-19/19-50-19/
pagenum
innerhead J. S. Bach, Contrapunctus 14, completed by D. F. Tovey
leftfoot typesetting (c) 1998 Peter Billam
/
4 bars |1b 8|8|1 1 1 1 1 1.3 1 1|8|
|
=1' treble 1b qua rest' [a g f] [e d e g]
=1, treble 1b smb rest,
=2' bass   1b min. d~ cro c~n(1
=2, bass   1b cro f g min a
|
=1' cro f# min g cro fn(1
=1, qua rest [d c B] [A G A c]
=2' qua [c~)1 b a g] min d~(1
=2, min d cro rest, d
|
=1' qua [f)1 g f e] [d c d f]
=1, cro Bn min c cro Bb(2
=2' qua [d~)1 e~ d~ c~] cro g~ rest''
=2, min g cro rest g
|
il0.7 .38 145
=1' cro e min f qua [e d]
=1, qua [B)2 G] cro A B G(2
=2' qua rest' [c~ b a] [g f g b]
=2, min c cro rest, c
/
4 bars | 1b 8|1 1 1 1 1 1 1.3 1|1 1 1.3 1 1 1 1 1|1 1 1.1 1.1 1 1.4 1 1|
|
=1' treble 1b cro e rest' min rest'
=1, treble 1b qua [G)2 A G F] [E D E G]
=2' bass   1b cro. a qua a [g f] cro e
=2, bass   1b cro c# min d cro c
|
=1' cro rest' qua [f g] [f e d c#]
=1, qua [F A] cro D min rest,
=2' cro d a min b
=2, min. dr cro e
|
=1' qua [d A d e] [f e d f]
=1, smb rest,
=2' cro a qua [bn c~#] min d~(1
=2, min f d
|
=1' qua [e A e f] [g smq f e qua f g]
=1, smb rest,
=2' cro d~)1 qua [c~# d~] min e~(1
=2, min. a cro g
/
4 bars | 1b 8|1 2.3 1 1 1 1.3 1 1|8|1 1 1 1.3 1.3 1 1 1|
|
il0.6 150
=1' treble 1b qua [a g f g] min a(1
=1, treble 1b smb rest,
=2' bass   1b qua [e~)1 a] cro d~(1 qua [d~)1 c~ b a]
=2, bass   1b smb f
|
=1' qua [a)1 smq g f# qua g a] min b(1
=1, smb rest,
=2' qua [b d~] cro e~b(1 qua [e~)1 d~ c~# d~]
=2, smb g
|
=1' qua [b)1 a g f] [e d e g]
=1, smb rest,
=2' cro c~# min d~ cro c~n(1
=2, smb a
|
=1' qua [f e d c] [Bn A B d]
=1, smb rest,
=2' cro c~)1 qua [bn a] [g# f# g b]
=2, min d e
/
4 bars | 1b 1 1 1 1.2 1.2 1 1 1 | 1 1 1 1.2 1 1 1 1 | 1.2 1 1.2 1 1.2 1 1.2 1 | 1 1 1.2 1 1 1.2 1 1 |
|
=1' treble 1b cro c qua [Bn A] [G# F# G B]
=1, treble 1b smb rest,,
=2' bass   1b qua [a e~ d~ c~] [bn a b d~]
=2, bass   1b cro A rest, min rest,
|
il0.4      155
=1' cro E min A cro G#
=1, smb rest,,
=2' cro c~ e~ d~ f~
=2, qua rest, [e d c] [Bn A B d]
|
=1' cro A min e cro d(1
=1, cro rest,, qua [c d] [c Bn A G#]
=2' cro e~ rest' min rest'
=2, qua [c Bn A G#] cro A B
|
=1' cro d)1 qua [c d] cro e d#
=1, qua [A E A Bn] [c B A c]
=2' min rest' a
=2, cro c min f cro f#
/
4 bars | 1b 1 1 1 1 1 1.3 1 1 | 1 1 1.3 1 1 1 1 1 | 1 2.1 1.3 1 1.3 1.3 1 1 | 1 1 1 1.3 1 1 1 1 |
|
=1' treble 1b cro e rest'' min rest''
=1, treble 1b qua [Bn E B c] [d smq c B qua c d]
=2' bass   1b min e~(1 cro. e~)1 qua d~
=2, bass   1b cro g min g# cro a(2
|
=1' smb rest''
=1, qua [e d c d] min e(2
=2' smb c~
=2, qua [a)2 e a bn] [c~ b a g]
|
il0.4         160
=1' smb rest''
=1, qua [e)2 smq d c# qua d e] min f(2
=2' smb d~
=2, qua [f# a bn c~#] [d~ c~n bn a]
|
=1' smb rest''
=1, qua [f)2 e d c] [Bn A B d]
=2' smb e~
=2, cro g# min a cro g

5 systems /19-40-19/19-45-19/19-45-19/19-45-19/19-45-19 8/
pagenum
innerhead J. S. Bach, Contrapunctus 14, completed by D. F. Tovey
leftfoot typesetting (c) 1998 Peter Billam
/
4 bars | 1b 8 | 1 1 1.3 1 1 1 1 1 | 8 | 8 |
|
=1' treble 1b smb rest'
=1' treble 1b smb c(1
=1, treble 1b qua rest,, [A G F] [E D E G]
=2' bass   1b qua a
=2, bass   1b cro a bn c~ a
|
=1' smb rest''
=1' qua [c)1 d c Bb] [A G A c]
=1, smb F(2
=2, cro d e f d
|
=1' smb rest'
=1' smb B(1
=1, qua [F)2 G F E] [D C D F]
=2, cro g a b g
|
il0.6          165
=1' smb rest''
=1' qua [B)1 c B A] [G F G B]
=1, cro E, rest,, min rest,,
=2, cro c d e c
/
4 bars | 1b 8 | 8 | 8 | 1 1.3 1 1 1 1.3 1 1 |
|
=1' treble 1b smb rest'
=1, treble 1b qua [A B A G] [F E F A]
=2' bass   1b smb rest'
=2, bass   1b cro f g a f
|
=1' smb rest'
=1, qua [D E] cro F(2 qua [F)2 E] cro B(2
=2' cro rest' qua [a b] [a g f e]
=2, min B c
|
=1' smb rest'
=1, cro B)2 qua [A G] [F A] cro D(2
=2' qua [f c f g] [a g f a]
=2, min F cro rest, f
|
=1' min rest' F
=1, qua [D)2 G] cro C min D
=2' qua [g c g a] [b smq a g qua a b]
=2, cro e eb min d
/
4 bars | 1b 8 | 1 1.3 1 1 1 1 1 1 | 1.2 1 1 1.2 1 1 1 1 | 1 1 1 1.3 1 1 1 1 |
|
il0.6     170
=1' treble 1b min. c cro B
=1, treble 1b cro E qua [F G] cro A G(2
=2' bass   1b qua [c~ b a b] min c~(1
=2, bass   1b min a(2 qua [a)2 g f e]
|
=1' smb A
=1, cro Gr)2 qua [F E] min F(2
=2' qua [c~)1 smq b a qua b c~] min d~(1
=2, min f(2 qua [f)2 d e f]
|
=1' smb B
=1, qua [F)2 Eb] cro F(2 qua [F)2 D E G]
=2' qua [d~)1 c~ b a] [g f g b]
=2, cro g d min eb(2
|
=1' smb c
=1, cro. C qua D min Eb(2
=2' smb a(1
=2, qua [e)2 f eb d] [c B c e]
/
4 bars | 1b 1 1 1 1 1.3 1 1.3 1 | 1 1 1.3 1 1.3 1.3 1 1 | 8 |1.3 1 1 1 1 1 1 1|
|
=1' treble 1b min F(1 qua [F)1 F# G A]
=1, treble 1b cro Er)2 qua [D C] min D(2
=2' bass   1b qua [a)1 f g a] min b(1
=2, bass   1b min d(2 qua [d)2 d e f#]
|
il0.5     175
=1' min B(1 qua [B)1 Bn c d]
=1, qua [D)2 D E F#] min G(2
=2' qua [b)1 c~ b a] min g(1
=2, min g(2 qua [gr)2 f eb d]
|
=1' smb eb(1
=1, qua [G)2 d c B] [A G A c]
=2' cro g)1 g min c~(1
=2, min c cro rest, c
|
=1' cro eb)1 A min d(1
=1, min. F# cro F
=2' qua [c~)1 e~b d~ c~] [b a b d~]
=2, min d cro rest, d
/
4 bars | 1b 1 1 1.3 1 1 1 1 1 | 8 | 1.3 1 1 1 1 1 1.3 1 | 1 1 1.3 1 1 1.3 1 1 |
|
=1' treble 1b min d)1 c#
=1, treble 1b qua [G A G Fn] [E D E G]
=2' bass   1b cro g qua [b a] [g f] cro e
=2, bass   1b cro eb min en cro A
|
=1' min d cn(1
=1, cro F# min G qua [F A]
=2' qua [d d~ c~ b] [a g a c~]
=2, cro d rest, min rest,
|
il0.5      180
=1' cro c)1 qua [B A] cro B eb
=1, qua [D F#] [G F] cro G c(2
=2' qua [b e~b] min d~ cro rest'
=2, cro rest, qua [B c] [B A G F#]
|
=1' cro d qua [en f#] min g(1
=1, cro cr)2 B qua rest [f eb d]
=2' smb rest'
=2, qua [G D G A] [B A G B]

6 systems /19-40-19/19-35-19/19-45-19/19-40-19/19-45-19/19-45-19/
pagenum
innerhead J. S. Bach, Contrapunctus 14, completed by D. F. Tovey
leftfoot typesetting (c) 1998 Peter Billam
/
4 bars | 1b 1.3 1 1.3 1 1 1.4 1 1 | 1.3 1.3 1 1 1 1.3 1 1 | 1 2.2 1 1.3 1 1.3 1 1 | 1.3 1.3 1 1.3 1 1 1 1 |
|
=1' treble 1b cro g)1 cro. f qua [eb d c]
=1, treble 1b qua [c Bn c d] min G
=2' bass   1b min rest' cro rest' f(1
=2, bass   1b qua [A D A Bn] [c smq B A qua B c]
|
=1' qua [Bnrl A] cro G min d
=1, min. d cro c
=2' qua [f)1 eb d e] [f g ab f]
=2, qua [d c Bn c] min d(2
|
=1' min. g cro f
=1, smb Bn
=2' min g(1 qua [g)1 g bn d~]
=2, qua [d)2 smq c Bn qua c d] min eb(2
|
il0.4    185
=1' smb <c eb>
=1, qua [G Bb Ab G] cro. F# qua G
=2, qua [e)2 d c B] [An G A c]
/
4 bars | 1b 1 1 1.3 1 1 1.3 1 1 | 1 1 1 1 1.3 1 1 1 | 1 1 1 1.3 1 1 1 1 | 1.3 1 1.3 1 1 1 1 1 |
|
=1' treble 1b smb <d f>
=1, treble 1b qua Ab
=2' bass   1b qua rest' [g f eb] [d c d f]
=2, bass   1b cro Bn min c cro Bb(2
|
=1' smb g
=1, cro G A min B(2
=2' smb en
=2, qua [B)2 c B A] [G F# G B]
|
=1' smb c(1
=1, cro Br)2 qua [A G] [F# E F A]
=2' cro f# rest' min rest'
=2, qua [A d c B] [A G A c]
|
=1' qua [c)1 F# G A] [B c B G]
=1, min D rest,
=2' qua rest' [d e f#] min g(1
=2, min B cro rest, G
/
4 bars | 1b 8 | 1.3 1 1 1 1.3 1 1 1 | 1.5 1.3 1 1.3 1 1 1 1 | 3.5 3 |
|
il0.4    190
=1' treble 1b smb eb(1
=1, treble 1b qua rest, [d c B] [A G A c]
=2' bass   1b qua [g)1 g a b] [c~ d~ c~ b]
=2, bass   1b min c, cro rest, c(2
|
=1' qua [e)1 eb d c] [B A B d]
=1, smb F#
=2' cro a rest' min rest'
=2, qua [c)2 A B c] [d eb d B]
|
=1' cro. G qua A cro. F# qua G
=1, qua [G Fn] cro Eb D C(2
=2' cro rest'' b qua [a g] cro a
=2, cro eb c min d
|
=1' min G rest
=1, cro C)2 B_ min rest,
=2' min g b
=2, min G rest,
/
5 bars | 1b 6 | 1 1 1 1.6 1 1 1 1 | 1 1 1 2.6 1 1 1 1 | 8 | 1 1 1 2.6 1 1 1 1 |
|
=1' treble 1b smb rest'
=1, treble 1b smb rest,
=2' bass   1b min a c~
=2, bass   1b smb rest,
|
il0.4    195
=1' smb rest'
=1, min rest, F
=2' cro. bn qua c~# min d~(1
=2, smb rest,
|
=1' smb rest'
=1, min E G
I0.5                         tr
=2' cro. d~)1 smq [c~#' bn] min c~
=2, smb rest,
|
=1' smb rest'
=1, cro. F# qua G# min A(2
=2' min d~ cro rest' d~#
=2, smb rest,
|
=1' smb rest'
=1, cro. A)2 smq [G# F#] min G
=2' cro e~ bn e~ d~
=2, smb rest,
/
5 bars | 1b 8|8|1 1 1 1.3 1 1 1 1| 1 1 1 1.5 1 1 1 1|2 2 2 2.5 |
|
=1' treble 1b smb rest'
=1, treble 1b cro A E A G
=2' bass   1b min c~ cro rest' c~#
=2, bass   1b smb rest,
|
il0.4    200
=1' smb rest'
=1, min F cro rest, F#
=2' cro d~ a d~ c~n
=2, smb rest,
|
=1' min rest' B
=1, cro G D G F
=2' cro. b qua a [g a b g]
=2, smb rest,
|
=1' min A c
=1, cro E qua [F# G] min A(2
=2' qua [c~ b a g] [f# e f d]
=2, smb rest,
|
=1' cro. Bn qua c# min d(1
=1, cro Ar)2 G A D
=2' cro g e f qua [g a]
=2, min rest, fr
/
5 bars | 1b 1 1 1 2.7 1 1 1 1 | 8 | 1 1 1 2.7 1 1 .9 .9 | 7.8 | 3.4 3.9 |
|
=1' treble 1b cro. d)1 smq [c# Bn] min c
=1, treble 1b cro. G qua F min E
=2' bass   1b qua [bb a g a] [b e] cro a(1
=2, bass   1b min e g
|
il0.5      205
=1' cro d rest' rest' d#
=1, cro D rest, min rest,
=2' cro a)1 min d~ cro c~
=2, cro. f# qua g# min a(2
|
=1' cro e Bn e d
=1, min rest, cro rest, Bn(2
=2' cro bn min. e~n(1
=2, cro. ar)2 smq [g# f#] min g
|
=1' min c c#
=1, cro Bnrl)2 E A G
=2' cro e~)1 rest'' min rest''
=2, min a cro rest a
|
=1' cro d A min d(1
=1, min. F qua [G F]
=2, cro b f b a

6 systems /19-40-19/19-35-19/19-45-19/19-35-19/19-30-19/19-30-19/
pagenum
innerhead J. S. Bach, Contrapunctus 14, completed by D. F. Tovey
leftfoot typesetting (c) 1998 Peter Billam

/
5 bars | 1b 1 1 1.5 1 1 1.4 1 1 |8|8| 1 1 1 1.3 1 1 1 1|.9 .9 1.2 2.7 1.4 1 1 1|
|
=1' treble 1b cro d)1 qua [c Bn] min c(1
=1, treble 1b min E(2 qua [E)2 D Eb C]
=2, bass   1b cro g# e a gn
|
il0.6    210
=1' cro c)1 qua [B A] cro B G
=1, min. D qua [En D]
=2' min rest' b
=2, cro f# d min g(2
|
=1' cro A min a cro d(1
=1, cro C# E min A(2
=2' min a c~n
=2, min gr)2 f#l
|
=1' cro d)1 e min f
=1, qua [A)2 D] cro G min rest,
=2' cro. bn qua c~# min d~(1
=2, min g cro rest g#
|
=1' min e(1 qua [e)1 c# d e]
=1, min rest, E
=2' cro. d~)1 smq [c~# bn] min c~
=2, cro a e a gn
/
4 bars | 1b 1 1 1 1.3 1 1 1.3 1 | 1 1 1 1.3 1 1 1 1 | 1 1 1 1 1 1 1.4 1 | 2 1.8 1.8 1.8 1.8 |
|
=1' treble 1b min. A qua [G F#]
=1, treble 1b min F D
=2' bass   1b cro. d~ qua c~ cro bn a
=2, bass   1b cro f d min g(2
|
il0.4    215
=1' smb G(1
=1, cro. Eb qua D min C#(2
=2' min bb(1 qua [b)1 a b g]
=2, qua [g)2 a g f] min en
|
=1' min G)1 qua [F E] cro F
=1, min C)2 D(2
=2' min a(1 qua [a)1 b a g#]
=2, qua [f g f e] min d
|
=1' min E B
=1, cro Dr)2 C# D E
=2' cro a rest'' rest'' b
=2, cro A min a cro g
/
4 bars | 1b 1.8 2 1.8 2| 1.3 1 1.5 1.4 1.3 1 1.3 1 \
 | .5 .5 .5 .5 .5 .5 1.3 .8 .65 .65 .5 .5 .7 .7 .7 .7 \
 | .9 .9 1.2 2.4 .9 .9 .9 .9 |
|
=1' treble 1b min A c
=1, treble 1b cro F qua [E F] min G(2
=2' bass   1b cro c~ d~ e~ qua [f~ e~]
=2, bass   1b min f e
|
=1' cro. Bn qua c#rl min d(1
=1, qua [G)2 F# G Bbl] min A(2
=2' min d~(1 qua [d~)1 c~# d~ f~n]
=2, min g cro. f# qua g#
|
il0.5      220
=1' cro. d)1 smq [c# Bn] qua [c d#] smq [e d c d]
=1, min A)2 cro G F#
=2' qua [e~ d~] cro e~(1 e~)1 bn
=2, smb a(2
|
=1' cro e Bn e d
=1, smb E(2
=2' smb bn
=2, cro. ar)2 smq [g# f#] min g
/
4 bars | 1b 1 1 1 1.5 1 1 1 1.5 | 1.3 1 1.3 1 1 1.3 1 1 | 1 1 1.3 1.3 1.5 1.4 1 1 | 1.3 1.3 1.3 1 1 1 1 1 |
|
=1' treble 1b min c c#
=1, treble 1b cro E)2 E A G(2
=2' bass   1b cro. a smq [g f] cro. e smq [d e]
=2, bass   1b cro a, rest, min A
|
=1' min d(1 qua [d)1 f eb d]
=1, qua [G)2 F# G A] cro B Bnl
=2' cro d qua [e f#] cro g fn
=2, min B G
|
=1' qua [c g f eb] [d c] cro db(1
=1, min cr(2 cro. cr)2 qua B
=2' qua [eb d] cro c d e(1
=2, cro. Ab qua G min F#(2
|
il0.7        225
=1' qua [d)1 Bn] cro c(1 c)1 B
=1, cro. A qua Ab min G(2
=2' qua [e)1 d] cro eb(1 qua [e)1 d] cro f(1
=2, min F)2 G
/
3 bars | 1b 1 1 1 1.5 1.3 1 1 1 | 1 1.7 1 1.7 1 1.1 1 1 | 1 1.4 1 1 1 1.7 1 1 |
|
=1' treble 1b cro. c smq [Bb A] qua [Gr E] cro e(1
=1, treble 1b min G)2 B
=2' bass   1b cro f)1 en(1 e)1 g(1
=2, bass   1b min c cro rest, c#
|
=1' qua [e)1 smq d c#] qua [d smq cn Bn] cro Ar rest'
=1, min A c
=2' cro g)1 f#(1 qua [f)1 g#] cro a(1
=2, min d cro rest, d#
|
=1' smb rest'
=1, cro. Bn qua c# min d(2
=2' min a)1(1 qua [a)1 smq g# f#] cro g(1
=2, qua [e smq dn e] cro f(2 qua [f)2 Bn e d]
/
3 bars | 1b 1 1 1 1.7 1 1.7 1 1 | 1 1.4 1 1 1 1 1 1.4 | 1 1.7 1 1 1 1.4 1 1 |
|
il0.4    229
=1' treble 1b min rest' cro rest'' a(1
=1, treble 1b cro. d)2 smq [c# Bn] min c
=2' bass   1b cro g#)1 qua [a e] [a smq bb a] qua [gn a]
=2, bass   1b qua [c# Bn] cro A rest, A
|
=1' qua [a)1 smq g a] cro b(1 qua [b)1 e a g]
=1, qua [d smq e f] cro g(2 g)2 c#
=2' qua [b d~ g a] [b g] [e smq f g]
=2, smb d(2
|
=1' qua [f smq e d] qua [c# d] [e smq d e] qua [f e]
=1, qua [d A] cro Br min A(2
=2' cro a g(1 g)1 f(1
=2, qua [d)2 smq e f] qua [e d] [c# A] [d cn]

6 systems /19-40-19/19-45-19/19-45-19/19-35-19/19-45-19/19-40-19/
pagenum
innerhead J. S. Bach, Contrapunctus 14, completed by D. F. Tovey
leftfoot typesetting (c) 1998 Peter Billam

/
4 bars | 1b 1 1.4 1 1 1 1.3 1 1 | 1 1 1 1 1 1 1.3 1 | 1 1 1.3 1 1 1 1 1 | 1 1 1 1 1 1.4 1 1 |
|
=1' treble 1b cro. d qua c# [d smq e f] qua [e d]
=1, treble 1b qua [A)2 G F E] cro D rest,
=2' bass   1b qua [f)1 smq e d] cro a(1 a)1 g
=2, bass   1b cro B A min B
|
=1' cro c# rest' qua rest' [e f g]
=1, qua rest, [E F G] [F E D C#]
=2' cro a rest' min rest'
=2, cro A, rest, min rest,
|
=1' qua [f e d c#] min d(1
=1, qua [D A_ D E] [F E D F]
=2' smb rest'
=2, min rest, d
|
il0.6      235
=1' cro d)1 qua [c# d] min e(1
=1, qua [E A_ E F] [G smq F E qua F G]
=2' min rest'' b
=2, min. a cro g
/
4 bars | 1b 8 | 1 2.1 1.3 1 1 1 1 1 | 1 1 1 2.3 1 1 1 1 | 1 1 1.3 1.7 1 1 1 1 |
|
=1' treble 1b cro e)1 qua [d e] [f g a f]
=1, treble 1b qua [A G F G] min A(2
=2' bass   1b min a c~
=2, bass   1b smb f
|
=1' cro d qua [e f#] [g a b g]
=1, qua [A)2 smq G F# qua G A] min B(2
=2' cro. bn qua c~# min d~(1
=2, smb g
|
=1' cro e rest' min rest'
=1, qua [B)2 A G F] [E D E G]
=2' cro. d~)1 smq [c~# bn] min c~
=2, smb a
|
i0.5 Here Bach's manuscript ends
=1' smb rest
=1, qua [F G] min A qua [G F]
=2' qua [d~ e~ d~ c~n] [bn a b d~(1]
=2, cro. d smq [e f] cro g G
/
3 bars | 1b 3.6 4 | 1 1 1.3 1 .9 .9 .9 .9 | 1.3 2.2 1.3 1 1 1.3 1 1 |
|
il0.5      240
i0.6                  The remainder is by D. F. Tovey
=1' treble 1b smb rest
=1, treble 1b min E(2 qua [E)2 D E F]
=2' bass   1b qua [d~)1 bn c~ d~] [c~ b a g#]
=2, bass   1b cro G# A(2 qua [A)2 Bn c d]
|
=1' smb rest
=1, smb E
=2' qua [a e a bn] [c~ b a c~]
=2, qua [c Bn A G#] cro A a(2
|
=1' min rest' f
=1, min. Bn cro A
=2' qua [bn er b c~] [d~ smq c~ b qua c~ d~]
=2, qua [ar)2 smq gn f#] cro g(2 qua [g)2 g# a bn]
/
3 bars |1b 1 1 1.3 1 1 1 1 1\
 | .5 .5 1.2 .75 .65 .65 .65 .65 .5 .5 .5 .5 .5 .5 .5 .5 \
 |1 1 1.3 1.9 1.3 1.3 1 1|
|
=1' treble 1b min e g
=1, treble 1b smb G
=2' bass   1b qua [e~ d~ c~ d~] min e~(1
=2, bass   1b cro. c~ qua bn [a g f e]
|
=1' cro. f# qua g# min a(1
=1, smb A
=2' qua [e~)1 smq d~r c~# qua d~ e~] min f~(1
=2, qua [d e~ d~ c~n] [bn a g f]
|
il0.5      245
=1' cro. a)1 smq [g# f#] cro g gn(1
=1, smb Bn
=2' qua [f~)1 e~ d~ c~n] [bn a b d~]
=2, min e(2 qua [e)2 f# g e]
/
3 bars | 1b 1.3 1 1.3 1.3 1.3 1 1 1|1 1.3 1 1.3 1 1 1 1|1 1 1 1.3 1 1 1 1.3|
|
=1' treble 1b qua [g)1 fn e d] [c# Bn c e]
=1, treble 1b cro. E qua F min G(2
=2' bass   1b cro. c~#r qua d~ cro. e~ qua d~
=2, bass   1b qua [bbl a g fn] min e(2
|
=1' min A(1 qua [A)1 G A c]
=1, cro. Gr)2 smq [F E] min F(2
=2' qua [c~# d~ c~ a] min d~(1
=2, qua [e)2 smq f g] cro f(2 qua [f)2 e f a]
|
=1 cro. B' smq [c' d'] qua [c' B' c' eb']
=1 qua [F,)2 G, F, D,] cro. G, smq [A, B,]
=2 qua [d~')1 e~b' d~' b'] [e~' d~'] cro c~'(1
=2 cro. g, qua b, cro. a, qua g,
/
3 bars | 1b 8 | 8 | 8 |
|
=1 treble 1b min d'(1 qua [d')1 c' d' f']
=1 treble 1b qua [A, G, A, c,] cro. B, qua A,
=2 bass   1b qua [c~')1 b' a' f#'] [gr' a' b' c~']
=2 bass   1b qua [f#, g, f, d,] cro d~, qua [g, a,]
|
il1.1 250
=1 qua [e' f' g' e'] [f' e'] cro d'(1
=1 qua [G, A,] cro B,(2 qua [B,)2 c, B, A,]
=2 cro. d~' qua c~#' [d~' e~'] cro f~'(1
=2 qua [b, a,] cro g, cro. d, smq [c#, d,]
I0.2                               tr
|
=1 cro d')1 qua [c' Bn'] [c' d' e' f']
=1 min G, cro A, Bn,
=2 qua [f~')1 bn' e~' d~'] [c~' b' a' g#']
=2 smb e(2

6 systems /19-40-19/19-55-19/19-40-19/19-40-19 5/19-45-19/19-45-19/
pagenum
innerhead J. S. Bach, Contrapunctus 14, completed by D. F. Tovey
leftfoot typesetting (c) 1998 Peter Billam

/
4 bars |1b 1.3 1 1.2 1 1 1 1 1 |1 1 1 1.2 1 1.4 1 1|1.2 1 1.2 1 1 2.3 1 1 | 1 1.5 1 1 1 1 1 1 |
|
=1 treble 1b qua [e' a' e' d'] [c' d' e' c']
=1 treble 1b cro. c, qua Bn, min A,
=2' bass   1b qua [a bn] cro c~(1 qua [c~)1 b a c~]
=2, bass   1b cro e)2 e min f(2
|
=1' qua [d a d c] [Bn smq c d qua c B]
=1, min. D cro E
=2 qua [b' c~' b' a'] cro g' rest''
=2 cro f,)2 f#, g, g#,
|
=1 qua [A' Bn' c' Bb'] min A'(1
=1 smb F
=2 cro rest'' c~'(1 qua [c~')1 smq d~' e~b' qua d~' c~']
=2 min a, d,
|
il0.7     255
=1 qua [A')1 smq B' c' qua B' A'] min G'(1
=1 smb E
=2 min b'(1 qua [b')1 c~' d~' c~']
=2 cro. g, qua f, min e,(2
/
4 bars | 1b 1 1 1 1.4 1.3 1 1 1.4|1 1 1 1.5 1 1 1 1| 1.4 1.1 1.1 1.4 1 1 1 1 | 1 1 1 1.2 1 1.5 1 1 |
|
=1 treble 1b qua [G')1 A' B' c'] [d' eb' d' B']
=1 treble 1b smb D
=2 bass   1b min b'(1 qua [b')1 a' b' smq c~' d~']
=2 bass   1b cro. e,)2 smq [f#, g,] min f,(2
|
=1 cro. c' qua d' min eb'(1
=1 smb A(2
=2 cro e~b' c~' min g~'(1
=2 qua [f,)2 g, a, b,] [c~, d~, c~, a,]
|
=1' qua [e)1 d c B] [A G A c]
=1, cro A)2 D min rest,
=2' qua [g~)1 f~# g~ b~] min e~b
=2, cro b g min c~(2
|
=1' cro. F# qua G min A(1
=2 min d~r'(1 qua [d~')1 smq c~' b'] cro c~'(1
=2 qua [c~,)2 b, a, g,] [f#, e, f, a,]
/
4 bars | 1b 1 1.4 1.3 1 1 1 1 1.8 | 4.3 3.9 | 1 1.2 1.2 1 1.3 1.2 1 1 | 7.8 |
|
il0.5     260
=1 treble 1b qua [A')1 D' E' F#'] [G' A' G' E']
=2 bass   1b qua [c~')1 smq b' a' qua b' c~'] cro. d~' smq [e~' f~']
=2 bass   1b cro. g, qua a, min b,(2
|
=1 cro. c#' qua d' min e'(1
=2 qua [g~' a~'] cro b~' c~#' g~'(1
=2 qua [b,)2 a, g, f,] [e, d, e, g,]
|
=1 qua [e')1 A' Bn' c#'] [d' f' e' d']
=1 smb rest,
=2 qua [g~')1 g~' f~' e~'] [d~' c~#' bn' d~']
=2 cro f, qua [g, a,] [b, a,] cro g,(2
|
=1 cro a' rest'' min rest'
=1 min A, D,
=2 qua [c~#' d~'] cro e~' a' rest''
=2 cro g,)2 qua [f, e,] [f, g, a, b,]
/
4 bars | 1b 8 | 1 1 1 1 1 1.6 1 1 | 8 | 1.3 1.3 1.2 1 1 1 1.2 1 |
|
=1 treble 1b min rest' a'
=1 treble 1b min F, A,
=2 bass   1b qua [a d~ a g] [f g a f]
|
il0.4      265
=1 min. d' cro e'
=1 min B,(2 qua B,)2 cro A, qua G,
=2 min rest'' cro rest'' c~#'
=2 qua [g d~ g f] [e smq f g qua f e]
|
=1 smb f
=1 min F,(2 qua [F,)2 E, F, G,]
=2 min d~' bn'
=2 qua [d, e f e,] min d,(2
|
=1 smb e
=1 qua [A, G#, A, Bb,] [c, B, A, Gn,]
=2 cro. c~' qua bb' min a'(1
=2 qua [d,)2 smq e, f, qua e, d,] min c,(2
/
4 bars | 1b 1 1 1.2 1.4 1.2 1 1 1 | 8 | 8 | 1 1 1 1 1.3 1 1.2 1 |
|
=1 treble 1b smb d
=1 treble 1b qua [F#, c, B, A,] [G, Fn, E, G,]
=2 bass   1b cro. a')1 smq [b' c~'] min b'
=2 bass   1b qua [c,)2 d, e, f#,] [g, a, g, e,]
|
=1 min a'(1 qua [a')1 g' f' e']
=1 qua [F, E, D, F,] cro E, qua [A, G,]
=2 cro. a' qua bn' cro c~' a'
=2 cro. fn, qua g, min a,
|
il0.9 270
=1 qua [d' c' d' f'] [e' d' c' B']
=1 qua [F, E,] cro D, qua [G, F,] cro E,(2
=2 cro bb' bn' min c~'(1
=2 smb rest,
|
=1 cro A' G'(1 qua [G')1 F#' G' A']
=1 cro E,)2 Eb, D, C,(2
=2 qua [c~')1 a' b' c~'] [b' a' g' f#']
=2 min A, d,
/
4 bars | 1b 8 | 1 1 1 1 1 1.3 1 1 | 8 | 1.1 1.4 1 1.2 1 1 1 1 |
|
=1 treble 1b smb D
=1 treble 1b qua [Cr,)2 A_, B_, C,] cro D, rest,,
=2 bass   1b qua [g' d' g' a'] [b' a' g' b']
=2 bass   1b min B, G,
|
=1 min. A' cro G'
=1 min rest, Eb,
=2 qua [a' d' a' b'] [c~' smq b' a' qua b' c~']
=2 min F#,(2 qua F,)2 cro G, qua A,
|
=1 smb F
=1 min D, F,
=2 qua [d~' c~' b' c~'] min d~'(1
=2 min B,(2 qua [B,)2 c, B, A,]
|
il0.3     275
=1' smb G
=1, cro. E qua F# min G(2
=2' qua [d~)1 smq c~ b qua c~ d~] min e~b(1
=2, qua [G F# G B] [A G A d]

6 systems /19-45-19/19-40-19/19-40-19/19-45-19/19-35-19/19-40-19/
pagenum
innerhead J. S. Bach, Contrapunctus 14, completed by D. F. Tovey
leftfoot typesetting (c) 1998 Peter Billam

/
4 bars | 1b 1 1 1 1.4 1 1 1 1 | 1 1.3 1 1 1 1 1 1 | 1.3 1 1 1 1 1 1 1 | 8 |
|
=1 treble 1b smb A
=1 treble 1b cro. Gr,)2 smq [F#, E,] min F,(1
=2 bass   1b qua [e~')1 d~' c~' b'] [a' g' a' c~']
=2 bass   1b qua [eb, f, e, c,] min d,(2
|
=1 smb Dr(4
=1, qua [F#)1 G A B] [c d c A]
=2' cro b rest'' rest'' d~
=2, qua [d)2 e f# g] [a b a f]
|
=1' qua [Dr)4 c d e] [f g f d]
=1, min B(2 qua [B)2 A] cro B(2
=2' min. g~ cro rest'''
=2, qua [g a b c~] [d~ e~ d~ b]
|
=1 qua [e' f' e' c'] [d' f' e' d']
=1 qua [B,)2 G,] cro A,(2 A,)2 G,(2
I0.2                        tr
=2 qua [c~, d~, c~, a,] min b,
/
4 bars | 1b 8 | 8 | 1 1 1 1 1 1.3 1 1 | 1 1 1 1 1 1.3 1 1 |
|
il0.9 .01 280
=1 treble 1b qua [c#' e'] cro A' min rest'
=1 treble 1b cro G,)2 qua [F, E,] [F, G, A, B,]
=2 bass   1b min a' d'
=2 bass   1b cro ar, rest, min rest,
|
=1 smb rest'
=1 qua [A, d, A, G,] [F, G, A, F,]
=2 min f' a'
=2 min rest, d,
|
=1 min rest' c#'
=1 qua [G, d, G, F,] qua [E, smq F, G, qua F, E,]
=2 min b'(1 qua b')1 cro a' qua g'
=2 min. G, cro A,
|
=1 min d' B'
=1 qua [D, E, F, E,] min D,(2
=2 min f'(1 qua [f')1 e' f#' g']
=2 smb B
/
3 bars | 1b 4 3.5 | 1 1.7 1 1 1 1 1 1 | 1 1 1 1.7 1 1 1 1 |
|
=1 treble 1b cro. c' qua B' min A'(1
=1 treble 1b qua [D,)2 smq Eb, F, qua E, D,] min C,(2
=2 bass   1b qua [a' g'] cro f#'(1 qua [f')1 d' e' f']
=2 bass   1b smb A
|
il0.5     285
=1 cro. A')1 smq [B' c'] cro. B' smq [c' d']
=1 qua [C,)2 smq D, Eb,] cro D,(2 qua [D,)2 smq En, F,] cro E,(2
=2 qua [g' f#' e' f'] cro. g' smq [a' b']
=2 smb G
|
=1 cro. c' smq [d' eb'] cro d' qua [g' f']
=1 qua [E,)2 smq F#, G,] cro F,(2 qua [F,)2 smq G, A,] cro G,(2
=2 cro. a' smq [b' c~'] cro. b' smq [c~' d~']
=2 min d,(2 qua [d,)2 smq eb, f,] cro e,(2
/
3 bars | 1b 1 1.3 1 1.8 1 1.7 1 1 | 1 1.3 1 1.3 1 1.3 1 1 | 1 1.2 1 1.9 1 1 1.4 1.8 |
|
=1 treble 1b cro. eb' smq [d' c#'] min d'(1
=1 treble 1b qua [G,)2 smq A, B,] cro A,(2 qua [A,)2 smq G, F#, qua G, A,]
=2 bass   1b cro c~' qua [f~' e~b'] cro. d~' qua c~'
=2 bass   1b qua [e,)2 smq f, g,] cro f, cro. b, qua a,
|
=1 qua [d')1 en'] cro f'(1 qua [f')1 smq e' d' qua c' d']
=1 cro. B, smq [A, G,] min A,(2
=2 cro b' f' min rest'
=2 qua [g, smq f, e, qua d, e,] [f, g, a, bn,]
|
=1 cro. e' smq [d' c'] qua [Bn' c'] cro d'(1
=1 qua [A,)2 smq G, F, qua E, F#,] min G,(2
=2 cro. c~ qua d~ cro e~(1 smq [e~)1 d~ c~ bn]
/
3 bars | 1b 1 1.7 1 1 1 1 1.2 1.3 | 1 1 1.2 1 1 1 1 1 | 1 1 1 1 1 1.3 1 1 |
|
il0.9     290
=1 treble 1b qua [d')1 smq c' Bn' qua c' d'] [c' B' A' G#']
=1 treble 1b cro G,)2 min F#, cro Fn,
=2 bass   1b min a'r e~'
=2 bass   1b cro a, d, min rest,
|
=1 qua [A E A Bn'] [c' B' A' c']
=1 cro E, rest,, min rest,
=2 min c~' a'
=2 min rest, A,
|
=1 qua [Bn' E' B' c'] [d' smq c' B' qua c' d']
=1 min rest, F,
=2 min g#'(1 qua g')1 cro a' qua bn'
=2 min. e, cro d,
/
3 bars | 1b 1 1 1 1 1 1 1.3 1 | 1 1.6 1 1 1 1 .8 .8 | 1 1 1 1.6 1 1 1 1.3 |
|
=1 treble 1b qua [e' d' c' d'] min e'(1
=1 treble 1b min E, G,
=2 bass   1b min c~'(1 qua [c~')1 d~' c~' bn']
=2 bass   1b smb c
|
=1 qua [e')1 smq d' c#' qua d' e'] min f'(1
=1 cro. F#, qua G#, min A,(2
=2 min a'(1 qua [a')1 bn'] cro c~'(1
=2 smb d
|
il0.8               295
=1' qua [f)1 e d c] [Bn A B d(1]
=1, cro. A)2 smq [G# F#] min G
=2' cro c~)1 qua [bn c~] cro. d~ smq [c~ b]
=2 smb e

6 systems /19-45-19/19-45-19/19-35-19/19-45-19/19-45-19/19-40-19/
pagenum
innerhead J. S. Bach, Contrapunctus 14, completed by D. F. Tovey
leftfoot typesetting (c) 1998 Peter Billam

/
3 bars | 1b 1 1 1 1 1 1.3 1 1.3 | 8 | 1 1.3 1 1 1 1 1 1 |
|
=1' treble 1b qua [d)1 c Bb A] [G F G B(1]
=1, treble 1b cro A D(2 qua [D)2 smq C# D] qua [E smq D E]
=2' bass   1b cro a qua [g a] [bb a] cro g
=2, bass   1b min. f cro e
|
=1 qua [B')1 A' Bn' c#'] [d' e' d' B']
=1 cro F, qua [D, E,] [F, G,] cro A,(2
=2 cro. f' qua g' cro a' f~'(1
=2 smb d
|
=1 qua [c#' d' e' f'] [g' a' g' e']
=1 qua [A,)2 smq B, A, qua G, F,] min E,(2
=2 cro f~')1 qua [e~' d~'] min c~#'(1
=2 smb e
/
4 bars | 1b 1 1 1 1 1 1.4 1.3 1 | 1 1.4 1 1.3 1 1 1 1.4 | 1.3 1 1 1.3 1 1 1 1 | 1 1 1.3 1 1 1 1 1 |
|
=1' treble 1b qua [a g f e] min d(1
=1, treble 1b cro E)2 qua [F G] [A smq B c qua B A]
=2' bass   1b cro c~)1 qua [d~ e~] [f~ e~ d~ c~n]
=2 bass   1b smb f
|
=1 qua [d')1 smq e' f' qua e' d'] [c#' e'] cro d'(1
=1 cro. G, qua F, cro E, qua [F, smq G, A,]
=2 min b'(1 qua [b')1 g'] cro a'
=2 min. g, cro f,
|
il1.0     301
=1 qua [d')1 cn' B' A'] [G' A'] cro B'(1
=1 smb G(2
=2 qua [b' a' g' b'] cro. e~b' qua d~'
=2 smb eb
|
=1 qua [B')1 G'] cro A' cro. d' qua c'
=1 cro G,)2 qua [F, Eb,] cro D, A,(2
=2 min c~'(1 qua [c~')1 b'] cro a'
=2 smb f treble
/
3 bars | 8 | 1.1 1.1 1.1 1.1 1.5 1.1 1.1 1.1 | 6.5 |
|
=1 treble 1b cro B' cro. eb' qua d' cro c#'
=1 treble 1b cro Ar,)2 qua [G, F,] cro Eb, Br,(2
=2 treble 1b qua [D' C'] min B_' qua [G' F']
=2 treble 1b smb G_(2
|
=1 cro. g' qua f' [en' g'] cro b'(1
=1 smq [B,)2 c, B, A,] [B, A, G, A,] [G, F, En, F,] [G, A, G, A,]
=2 qua [E' D'] cro C#'(1 qua [C#')1 D' En' F']
=2 min G_,)2 rest,,,
|
il0.9     305
=1 cro b')1 qua [a' g'] [f' e' d' c#']
=1 smb B,(2
=2 smb G(1
=2 smb rest,,
/
4 bars | 1b 8 | 8 | 1 1 1 1 1 1.3 1 1 | 8 |
|
=1 treble 1b min d' a'
=1 treble 1b qua [B,)2 E, F, G,] [F, E, D, C#,]
=2 treble 1b cro G')1 qua [A' B'] min A'(1
=2 treble 1b smb rest,,
|
=1 min f' d'
=1 qua [D, A_, D, E,] [F, E, D, F,]
=2 cro A')1 rest' min rest'
=2 min rest, bass d,
|
=1 min c#'(1 qua c')1 cro d' qua e'(1
=1 qua [E, A_, E, F,] [G, smq F, E, qua F, G,]
=2 min rest'' b'
=2 min. a, cro g,
|
=1 min f'(1 qua [f')1 g' f' e']
=1 qua [A, G, F, G,] min A,(2
=2 min a' c~'
=2 smb f
/
4 bars | 1b .5 .5 1.2 .75 .5 .5 .5 .5 .65 .65 .5 .5 .5 .5 .5 .5 \
 | .5 .5 .5 .5 .5 .5 1.2 .75 .5 .5 .5 .5 .5 .5 .5 .5 \
 | 1 1 1 1.3 1 1 1.7 1 | 2 2.6 2.7 2 |
|
il0.5   310
=1' treble 1b min d(1 qua [d)1 c# d e]
=1,        1b qua [A)2 smq G F# qua G A] min B(2
=2' bass   1b cro. bn qua c~# min d~(1
=2         1b smb g
|
=1' cro f e rest' A
=1, qua [B)2 A G F] [E D E G]
=2' cro. d~)1 smq [c~# bn] cro c~ c~n(1
=2 smb a
|
=1 cro eb' d' rest' Dr'
=1 qua [F#, G,] cro A,(2 qua [A,)2 A, G, Fn,]
=2 cro c~')1 qua [bn' a'] min bb'(1
=2 smb d(2
|
=1 cro c' Bn' min Bb'
=1 cro. Eb, qua D, C#, cro D, qua En,
=2 qua [b')1 a' g' f#'] [g' smq fn' e' qua f' g']
=2 smb d)2(2
/
4 bars | 1b 6.7 | .5 .5 1.1 0.8 .5 .5 .5 .5 .5 .5 .5 .5 .5 .5 .5 .5 \
 | .5 .5 .5 .5 .6 .6 1 1 .75 .75 1.5 2.2 .6 .6 .7 .7 | 3.3 ||
| 2.1
=1' treble 1b min A c
=1, treble 1b min F(2 qua [F)2 G F E]
=2' bass   1b qua [a g f g] min a(1
=2  bass   1b smb d)2(2
| 1.1 1.15
il0.6       315
=1' cro. Bn qua c# min d(1
=1, cro D G(2 qua [G)2 A G F]
=2' qua [a)1 smq g f# qua g a] min b
=2 smb d)2(2
| .6 .7 .8 .9
=1' cro. d)1 smq [c# Bn] min c
=1 qua [E, F, G, A,] cro Bbrl'(1 qua [B')1 smq A G]
=1, min blank        qua [Bbrl(2 dsq B)2 A G F#] cro E
=2' qua rest' [<c~ a> <b g> <a fn>] [<g e> <f# d> <g e> <b g>]
=2 smb d)2(2
|
=1 smb <d fermata>
=1 smb <F# A>
=2 smb <f# a fermata>
=2 smb d)2
