4 systems / 18 22 18 32 18 22 18 /18 22 18 32 18 22 18 /18 22 18 32 18 22 18 /18 22 18 32 18 22 18 /
title Innsbruck, ich muss dich lassen
lefthead Heinrich Isaac (1450-1517)
righthead Arranged for ATBB recorders
leftfoot Arranged and typeset 1998 Peter Billam
midi channel 1 patch 74
/
5 bars | 1 1 1 1 | 1 1 1 1 | 1 1 1 1 | 1 1 1 1 | 1 1 1 1 |
| 4/4 126
=1 treble 1b channel1 min. f qua [e d]
=2 treble 1b channel1 smb rest
=3 bass8va 1b channel1 min f cro f g
=4 bass8va 1b channel1 min f cro d e
|
=1 min c d
=2 min F cro F G
r0.6   Inns   -    bruck,  ich
=3 cro a c~ min b
=4 min f B
|
=1 cro c min f{1 cro e}1
=2 cro A c min B
r0.6   muss   dich   las    -      -
=3 min a cro rest g
=4 min f g
|
=1 cro. f qua d cro e c
=2 min A rest
r0.6    sen,
=3 cro. c~ qua b cro g a
=4 min f cro e f
|
=1 min d cro G e(1
=2 cro rest A cro. c qua B
r0.6            ich    fahr      da  -
=3 min d c
=4 min d cro. c{2  qua d'}2
/
4 bars | 1 1 1 1 | 1 1 1 1 | 1 1 1 1 | 1 1 1 1 |
|
=1 treble 1b qua [e)1{1 d] min c cro Bn}1
=2 treble 1b cro G A min F
r0.6     -   hin .28 mein .52 Stras .80 - 
=3 bass8va 1b min rest cro rest f
=4 bass8va 1b cro e{1 f min d}1
|
=1 smb c
=2 min E cro rest A
r0.6 .01 sen .75 in
=3 cro. g qua f cro e f
=4 min c cro rest F
|
=1 cro rest cro. c{1 qua Bb,}1 cro A
=2 cro. G qua F cro E F
r0.6 .01 frem    - .37 de .50 Land .75 da    -
=3 min g rest
=4 cro. c qua d' cro c F
|
=1 cro G c min B
=2 min G rest
r0.6 .01 hin
=3 cro rest e f g
=4 min c{2 cro d'}2 e
/
5 bars | 1 1 1 1 | 1 1 1 1 | 1 1 1 1 | 1 1 1 1 | 1 1 1 1 |
|
=1 treble 1b min A rest
=2 treble 1b cro rest E F G
r0.6 .28 mein  Freud  ist
=3 bass8va 1b cro a c~ min b
=4 bass8va 1b cro f c d e
|
=1 cro rest f d e
=2 cro A c min B
r0.6   mir     ge  -  nom .80 -
=3 min a cro rest g
=4 min f g
|
=1 cro. f qua d cro e c
=2 min A rest
r0.6 .01 men
=3 cro. c~ qua b cro g a
=4 cro rest f e f
|
=1 min d cro G e(1
=2 cro rest A cro. c qua B
r0.6            die    ich        nit
=3 min f e
=4 min d'{2 cro. c qua d'
|
=1 qua [e)1 d] min c{1 cro Bn,}1
=2 cro G A min F
r0.6   weiss   be - kom   -
=3 min rest cro rest f
=4 cro e'}2 f min d
/
4 bars | 1 1 1 1 | 1 1 1 1 | 1 1 1 1 1 1 | .7 .7 .7 .7 ||
|
=1 treble 1b min c cro rest F
=2 treble 1b cro E c min d
r0.6      -   men,   wo    ich
=3 bass8va 1b cro a g b{3 a
=4 bass8va 1b cro c e{1 d,}1 cro f(1
|
=1 cro A qua [G{2 A B' c'] cro d}2
=2 cro c{1 e}1 min d{1
r0.6    in                   E   -        -
=3 min c~ b
=4 cro f)1 e cro. g qua f
| 6/4 126
=1 qua [c{1 d e f] cro d B,}1 min c
=2 cro e cro. g qua f min f}1 cro e
r0.6 .01 - .21 - .41 - .61 - .81 lend
=3 min c~ f}3 g
=4 qua [e d] cro c min d c
| 4/4 126
=1 smb c
=2 smb f
r0.6    bin.
=3 smb f
=4 smb F

3 systems 12 /13-20-13 23 17 29 17 20 17 20 17 \
 /13-20-13 23 17 29 17 20 17 20 17/13-20-13 23 17 29 17 20 17 20 17/
lefthead Text: Johannes Hesse
righthead Harmonisation: J. S. Bach, BWV 97
title O Welt, ich muss dich lassen
leftfoot Transcribed for sSA-SATB recorders: Peter Billam, June 1998
/
5 bars | 2 | 4 | 4 | 4 | 1 1 1 1.2 |
| 1/4 80
midi pause 3.9
=1 treble8va 2b 4/4 qua [B' c']
=1 treble8va 2b 4/4 cro F,
=2 treble 2b 4/4 qua [d e]
=3 treble8va 2b 4/4 cro d
r0.6                O
=4 treble 2b 4/4 cro b
=5 channel1 treble 2b 4/4 cro f
=6 channel1 bass8va   2b 4/4 cro B
| 4/4 80
=1 qua [d' e'] cro f' qua [g' a'] cro b'(1
=1 qua [F, G,] cro A, B, f,
=2 cro. f qua a cro d d
=3 cro B c qua [d e] cro f
r0.6  Welt,    ich    muss   dich
=4 cro f f b qua [b a]
=5 cro d c qua [B, c] cro d
=6 cro b a g d
|
=1' cro b)1 a b-fermata qua [f e]
=1, cro g f f qua [d c]
=2 cro G c d-fermata b
=3 min e cro d-fermata qua [d e]
r0.6   las    -     -    sen,       ich
=4 cro g{1 a}1 f-fermata f
=5 cro d{1 c}1 B-fermata qua [B, c]
=6 cro e{1 f}1 B-fermata b
|
=1 qua [d' c'] cro B'(1 qua [B')1 A'] cro f'(1
=1 cro B, F, cro. F, qua F,
=2 qua [f e] cro d qua c cro F qua A
=3 cro f f c qua [d c]
r0.6   fahr    da   -   hin      mein
=4 cro b B f a
=5 qua [d e] cro f f qua [f e]
=6 qua [B' c'] [d, e] cro f d
|
=1' cro f)1 en f-fermata f(1
=1, min G cro A c
=2 cro B c c-fermata qua [a g]
=3 min B cro A-fermata F
r0.6  Stras   -    -   sen        ins
=4 min g cro f-fermata c
=5 cro d{1 c}1 c-fermata A
=6 cro g{1 c}1 f-fermata qua [f eb]
/
4 bars | 1.1 1.1 1.5 1.1 | 1.4 2 | 4 | 1 1.5 1 1 |
|
=1 treble8va 2b qua f')1 cro b' qua a' [b' smq c~' d~'] qua [c~' b']
=1 treble8va 2b cro B, e, d, g,
=2 treble 2b cro f e f qua [c g]
=3 treble8va 2b cro B c qua [d smq e f] qua [e d]
r0.6            e   -   wig       Va     -     ter     -
=4 treble 2b cro f qua [g e] [b d] [e B,]
=5 treble 2b qua [B, d] [G c'] cro F G
=6 bass8va   2b cro d c B e
|
=1' min. a-fermata cro a
=1, min. f cro d
=2 min. c~-fermata cro a
=3 min. c-fermata cro d
r0.6   land;                  mein
=4 min. f-fermata cro a
=5 min. A-fermata cro d
=6 min. f-fermata cro f#
|
=1 cro g' qua [f' e'] min d'(1
=1 cro d, c, qua [B, c, d, Bn,]
=2 cro b qua [a g] [f e] cro d
=3 cro B c qua [d e] cro f
r0.6  Geist    will       ich      auf    -
=4 cro d f qua [f g] [ab g]
=5 cro g c cro. F qua G
=6 cro g a b bn
|
=1' qua [d)1 G] cro c(1 qua [c)1 Bn-fermata] cro Bb
=1, min G cro G G
=2 qua [e d] cro c d-fermata d
=3 min e cro d-fermata qua [d e]
r0.6   ge    -      -    ben,                da  - 
=4 min g cro g-fermata cro b
=5 qua [G{2 F] smq [E F qua G}2] cro G-fermata g
=6 cro c~{1 c}1 g-fermata g
/
4 bars | 1.1 1.6 1.1 1.1 | 4 | 4 | 4 ||
|
=1 treble8va 2b cro c' qua [d' en'] cro. f' qua a'
=1 treble8va 2b cro F, qua [F, G,] cro A, d,(2
=2 treble 2b qua [c' A'] cro F(2 qua [F)2 G] [A, a]
=3 treble8va 2b cro f f c d
r0.6      -   zu       mein         Leib     und
=4 treble 2b qua [a c~] cro b qua [c~ b] cro a
=5 treble 2b qua [c e] [d smq c B,] cro. f qua f
=6 bass8va   2b qua [a f] cro b qua [a g] cro f
|
=1' qua [g f] cro g f-fermata  qua [f e]
=1, cro d)2 c c d(2
=2 qua [b a] cro g a-fermata a(1
=3 min B cro A-fermata F
r0.6   Le     -     -   ben        setz'
=4 cro d{1 g}1 c-fermata f
=5 cro g{1 c}1 f-fermata A
=6 cro f{1 en}1 f-fermata d
|
=1 qua [d' b' a' g'] cro f' qua [g' a']
=1 qua [d,)2 e,] cro f,(2 qua [f,)2 B, e, c,]
=2 qua [a)1 g] cro a cro. b qua e
=3 cro B,{1 c}1 d e
r0.6   gnae    -    -    dig        in
=4 qua [f B,] cro f(1 f)1 qua [c~ a]
=5 qua [B, e] [A, c] [F B'] [G, e]
=6 cro g{1 qua [f e}1] cro d c
|
=1' cro. b qua a cro b-fermata
=1 qua [f, g,] cro f, f,
=2 qua [f B,] [f c~] cro d~-fermata
=3 cro d c B-fermata
r0.6  Got    -    tes         Hand.
=4 qua [f e] cro e d-fermata
=5 qua [B, g] [c f] cro f-fermata
=6 qua [d, e] cro f B-fermata

3 systems 25 / 19 35 19 25 19 25 19 / 19 40 19 25 19 25 19 \
 / 19 35 19 25 19 25 19 10/
title O wie selig seid ihr doch
lefthead Harmonisation: J. S. Bach, BWV 405
righthead Melody: Johann Crüger, 1649
leftfoot Text Simon Dach; Transcribed for SATB recorders, Peter Billam, 1998
/
4 bars | 4.4 | 4 | 4 | 4 |
| 4/4 90
midi pause 3.9
=1 treble8va 1b 4/4 cro A d c qua [B' A]
r0.6 .11 O .31 wie .55 se   - .77 lig
=2 treble 1b 4/4 cro f g g f
=3 treble 1b 4/4 cro d d e d
=4 bass8va   1b 4/4 cro d' qua [c B] cro A d'
|
=1 cro B' A G qua [A B']
r0.6 .01 seid .25 ihr .50 doch, .75 ihr
=2 qua [f e] cro f qua [f e] cro f
=3 qua [d B,] cro c c c
=4 cro G qua [A B] cro c f
|
=1 min G F-fermata
r0.6 .01 From .28 - .50 men,
=2 cro f{1 e}1 min c-fermata
=3 qua [d B, G, c] min A-fermata
=4 cro B{2 c}2 min F-fermata
|
=1 qua [A B'] cro c cro. Bn, qua c#
r0.6 .01 die .25 ihr .50 durch .87 den
=2 cro f qua [g a] cro g g
=3 qua [c d] [e d] cro d e
=4 cro f qua [e f#] [g fn] cro e
/
4 bars | 1.3 1.1 1.1 1.1 | 4 | 4 | 4 |
|
=1 treble8va 1b cro d qua [cn d] cro e qua [d c]
r0.6 .04 Tod .28 zu .52 Gott .76 ge  -
=2 treble 1b qua [a bn] cro a a a
=3 treble 1b qua [d Bn,] cro e e fn
=4 bass8va   1b qua [f# g#] cro a c d'
|
=1 min Bn' A-fermata
r0.6 .01 kom   .27  - .50 men !
=2 cro a{1 g#}1 min e-fermata
=3 qua Bn,{1 cro e qua d}1 min c#-fermata
=4 cro e{2 E}2 min A-fermata
|
=1 cro rest A G E
r0.6 .25 Ihr .50 seid .75 ent   -
=2 cro rest c# d e
=3 cro rest E D A
=4 cro rest A Bn c#
|
=1 min F E-fermata
r0.6 .01 gan .28 - .50 gen
=2 cro e{1 d}1 min c#-fermata
=3 min A A-fermata
=4' cro d{2 D}2 min A-fermata
/
3 bars | 4.4 | 4 | 4 ||
|
=1 treble8va 1b cro D E F G
r0.6 .04 al .18 - .28 ler .52 Not, .76 die
=2 treble 1b cro d A d cn
=3 treble 1b cro A A qua [A B'] [A G]
=4 bass8va   1b cro f c# d e
|
=1 cro A Bn c# d
r0.6 .01 uns .25 noch .50 halt .75 ge   -
=2 cro c f e qua [d e]
=3 qua [F A] [G F] cro G qua [A B']
=4 cro f qua [e d,] cro e qua [f g]
|
=1 cro d{1 c#}1 min d-fermata
r0.6 .01 fan .28 - .50 gen.
=2 qua [f{1 smq e d] cro e}1 min f#-fermata
=3 min A A-fermata
=4 cro a{1 A}1 min d-fermata

4 systems 10 /19 25 19 20 19 20 19/19 25 19 20 19 20 19 \
 /19 25 19 20 19 20 19/19 25 19 20 19 20 19 8/
title Es ist ein Ros entsprungen
lefthead Michael Praetorius (1571 - 1621)
righthead Arranged for ATBB recorders
leftfoot Arranged and typeset 1999 by Peter J Billam.
/
5 bars | 3.6 | 8 | 8 | 8 | 1 1 1 1.3 1 1 1 1 |
| 1/4 80
midi pause 3.9
=1 treble 4/4 min g
r0.6            Es
=2 treble 4/4 min e
=3 bass8va   4/4 min g
=4 bass8va   4/4 min c
| 4/4 80
=1 cro g g a g
r0.6 .01 ist .25 ein .50 Ros .75 ent   -
=2 cro e c f e
=3 cro g c~ c~ c~
=4 cro c e f c
|
=1 min g e
r0.6 .01 sprun .29 - .50 gen
=2 min d c
=3 min b c~
=4 min g a
|
=1 min f cro e d(1
r0.6 .01 aus .50 ei  -  ner
=2 min c cro c G
=3 min a cro g g
=4 min f cro c B
|
=1 cro d)1 min c cro B'
r0.6 .25 Wur .54 - .75 zel
=2 cro. A{2 qua E}2 min G
=3 cro f{1 min e,}1 cro d
=4 min A G
/
5 bars |8|8|8|8|1 1 1 1.3 1 1 1 1|
|
=1 treble min c g
r0.6 .04 zart, .52 wie
=2 treble min G e
=3 bass8va   min e g
=4 bass8va   min c c
|
=1 cro g g a g
r0.6 .01 uns .25 die .55 Alten
=2 cro e c f e
=3 cro g c~ c~ c~
=4 cro c e f c
|
=1 min g e
r0.6 .01 sun .28 - .50 gen,
=2 min d c
=3 min b c~
=4 min g a
|
=1 min f cro e d(1
r0.6 .01 von .53 Jesse
=2 min c cro c G
=3 min a cro g g
=4 min f cro c B
|
=1 cro d)1 min c cro B'
r0.6 .25 kam .75 die
=2 cro. A{2 qua E}2 min G
=3 cro f{1 min e,}1 cro d
=4 min A G
/
4 bars |4|4|4|4|
|
=1 treble min c cro rest e
r0.6 .04 Art .76 und
=2 treble min G cro rest c
=3 bass8va   min e cro rest g
=4 bass8va   min c cro rest c
|
=1 cro d B' c A
r0.6 .01 hat .25 ein .53 Blümlein
=2 cro A G G F#
=3 cro f e e d
=4 cro d' e c d'
|
=1 min G cro rest g
r0.6 .01 bracht .75 mit     -
=2 qua [G{2 A] cro B'}2 rest B'
=3 min d' cro rest g
=4 min G cro rest g
|
=1 cro g g a g
r0.6 .01 ten .25 im .55 kalten
=2 cro d e f e
=3 cro b c~ c~ c~
=4 cro b c~ f c~
/
4 bars |4|4|4|2||
|
=1 treble min g e
r0.6 .04 Win .29 - .52 ter
=2 treble min d c#
=3 bass8va   min b a
=4 bass8va   min g a
|
=1 min f cro e d(1
r0.6 .01 wohl .50 zu .75 der
=2 min d cro cn A
=3 min a cro g f
=4 min d cro e f
|
=1 cro d)1 min c cro B'
r0.6 .25 hal .53 - .75 ben
=2 cro B,{1 c d}1 G
=3 min e d
=4 min g G
|
=1 min c
r0.6 .01 Nacht.
=2 min G
=3 min e
=4 min c

3 systems 10 /19 20 19 20 19 20 19 20 19/19 20 19 20 19 20 19 20 19 \
 /19 20 19 20 19 20 19 20 19/
title Nr. 3   O Welt, ich muss dich lassen
righthead Arranged for SATBG Recorders
lefthead Johannes Brahms
leftfoot Arranged and Typeset 1996 by Peter J Billam.
/
3 bars | 1b 4/2 1 | 16 | 3/2 12 |
| 1/8 200
midi pause 3.9
=1 treble8va 1b 4/2 qua rest
I0.3        f
i0.3           ma dolce . . .
=2 treble 1b 4/2 qua rest
I0.2       f
i0.2           ma dolce . . .
=3 treble 1b 4/2 qua f
I0.2       f
i0.2           ma dolce . . .
=4 bass8va 1b 4/2 qua rest
I0.2       f
i0.2           ma dolce . . .
=5 bass8va 1b 4/2 qua rest
I0.2       f
i0.2           ma dolce . . .
| 4/2 72
=1 min rest cro rest qua rest F min F(2 qua [F)2{2 G}2 G{2 A}2]
=2 cro rest qua rest f [f{1 e}1 e{1 d}1] [d{1 c}1] cro c(1 min c)1
=3 qua [f{1 e}1 e{1 d}1] [d{1 c}1 c{1 B,}1] [B'{2 A}2] \
 cro. A{2 qua [B'}2 B'{2 A}2]
=4 min rest cro rest qua rest B [B{2 c}2 c{2 d'}2] [d,{1 e}1 e{1 f}1]
=5 min F f min.. F qua F
| 3/2 72
=1 3/2 cro. A{2 qua c}2 cro. c{1 qua B,}1 cro. B'{2 qua A}2
=2 3/2 min c cro. a qua d [d{1 e}1 e{1 f}1]
=3 3/2 cro. F qua E [E{2 F}2 F{2 G}2] cro. G{2 qua A}2
=4 3/2 min c cro. c{2 qua d'}2 min d'
=5 3/2 qua [F{2 G}2 G{2 A}2] cro. A{2 qua G}2 cro. G{2 qua D}2
/
2 bars |4|3|
| 4/2 72
=1 treble8va 1b 4/2 smb A min rest cro rest A{'1
=2 treble 1b 4/2 qua [f{1 e}1 e{1 d}1] [d{1 c}1 c{1 Bn,}1] \
 [B,{1 c}1 c{1 A,}1] min A
=3 treble 1b 4/2 min A(2 cro. A)2 qua F \
 qua [F{2 A}2 A{2 E}2] [E{2 G}2 G{2 F#}2]
=4 bass8va 1b 4/2 qua [a{1 g}1 g{1 f}1] [f{1 e}1 e{1 d,}1] \
 [d,{1 e}1 e{1 c,}1] [c,{1 eb}1 eb{1 d,}1]
=5 bass8va 1b 4/2 cro. D{2 qua F}2 cro. F{2 qua A}2 \
 cro. A{2 qua c}2 cro. c{2 qua d'}2 
| 3/2 72
=1 3/2 cro. c qua B,}1 min G A
=2 3/2 qua rest [en{1 g f#}1] min g qua rest  [Bn,{1 d c#}1]
=3 3/2 qua F#{'1 cro c qua d}1 rest [e{1 c# d}1] qua rest cro G{2 qua A}2
=4 3/2 qua d, cro a qua d d{1 cro g}1 qua d{1 fn cro. e}1
=5 3/2 min d' B A
/
2 bars |3|3|
|
il0.4 .05 5
=1 treble8va 1b min F E rest
=2 treble 1b cro e{1 d}1 min rest rest
=3 treble 1b qua rest [A{2 c' Bn'}2] d{1 cro c}1 qua rest cro rest qua rest c#{1
=4 bass8va 1b cro. d, qua f cro. g qua bn{1 [c~ bb a}1] a
=5 bass8va 1b min d' c rest
|
=1 min rest rest cro rest F
=2 cro rest qua rest d#{1 [e dn}1] cro. c qua [e{1 f e]
=3 qua [d cn B,}1 A,] cro B'(2 qua [B')2 A G B'] [A cn']
=4 qua [b a g f#] [g fn] cro. e qua c# cro d
=5 min rest rest rest

3 systems /19 20 19 25 19 25 19 20 19/19 25 19 20 19 25 19 20 19/19 23 19 26 19 26 19 23 19/
pagenum 8
innerhead J. Brahms, O Welt, ich muss dich lassen, arranged for SATBG Recorders
leftfoot Arranged and Typeset 1996 by Peter J Billam.
/
2 bars |3|4|
|
=1 treble8va 1b cro G F min E F
=2 treble 1b qua d}1 [c#{1 d cn] B,}1 [Bn,{1 c Bb,] cro A qua [B, Ab,}1]
=3 treble 1b qua B, [A{2 B' A] G}2 [G#{2 A Gn] min F}2
=4 bass8va 1b min rest qua rest [e' A c] [d' c# d' cn]
=5 bass8va 1b min rest rest cro rest d
| 4/2 72
=1 4/2 smb G min rest cro. G{2 qua F}2
=2 4/2 qua [G{2 Bn' A B'}2] [c{1 d c d}1] \
 [e{1 eb}1 e{1 d}1] [d{1 en}1 e{1 fn}1]
=3 4/2 qua [D{2 F E F}2] cro G c qua [c'{2 A}2 A{2 Bb'}2] cro. B'{2 qua A}2
=4 4/2 qua [Bn{2 d' c d'}2] [e{1 f e f}1] \
 [g{1 f#}1 f{1 g}1] [g{1 c#,}1 c,{1 d,}1]
=5 4/2 min G C cro. c{2 qua G}2 cro. G{2 qua D}2
/
2 bars |3|3|
| 3/2 72
=1 treble8va 1b 3/2 smb F(2 qua [F)2{2 G}2 G{2 A}2]
=2 treble 1b 3/2 [f{1 e}1 e{1 d}1] [d{1 c}1 c{1 B,}1] cro. B, qua f
=3 treble 1b 3/2 min A(2 cro. A)2 qua F [D{2 En}2 E{2 F}2]
=4 bass8va 1b 3/2 [a{1 g}1 g{1 f}1] [f{1 eb}1 eb{1 d,}1] cro. B qua c
=5 bass8va 1b 3/2 cro. D{2 qua F}2 cro. F{2 qua B}2 [B{2 G}2 G{2 F}2]
|
il0.4 .07 10
=1 cro. A{2 qua c}2 cro. c{1 qua B,}1 cro. B'{2 qua A}2
=2 cro. f qua g [g{1 a}1 a{1 d}1] [d{1 e}1 e{1 f}1]
=3 cro. A qua G [G{2 F#}2 F{2 G}2] G cro. d
=4 qua [c{2 d'}2 d'{2 e'}2] [e'{2 c}2 c{2 d'}2] d cro g qua fn
=5 cro. F{2 qua C}2 [c{2 A}2 A{2 G}2] [B{2 G}2 G{2 D}2]
/
2 bars |4|3|
| 4/2 72
=1 treble8va 1b 4/2 smb A min rest cro rest A
=2 treble 1b 4/2 cro. f{1 qua e}1 [e{1 d}1 d{1 cn}1] \
 cro. c{1 qua Bn,}1 [B'{2 A}2 A{2 c'}2]
=3 treble 1b 4/2 cro. d{1 qua c#}1 [c{1 A,}1] cro A \
 cro. A{2 qua G#}2 [G{2 E}2 E{2 Gn}2]
=4 bass8va 1b 4/2 cro. a{1 qua g}1 [g{1 f}1 f{1 e}1] \
 cro. e{1 qua d,}1 [d'{2 c}2 c{2 eb'}2]
=5 bass8va 1b 4/2 qua [D{2 E}2 E{2 F}2] cro. F{2 qua A}2 \
 [A{2 Bn}2 B{2 c}2] cro. c{2 qua A}2
| 3/2 72
=1 3/2 cro. c{1 qua B,}1 min G(2 qua [G)2 G{2 B' A}2]
=2 3/2 qua rest [c{1 eb d}1] rest [c{1 A, d}1] [f{1 eb}1] [d{1 c#}1]
=3 3/2 qua [F#{2 A G F}2] [B'{2 G Eb}2 B'] [d{1 c}1] [G{2 A}2]
=4 3/2 cro. A{2 qua d'}2 cro. B qua g cro eb en
=5 3/2 min d eb cro c A

3 systems /19 20 19 20 19 20 19 20 19/19 20 19 20 19 20 19 20 19/19 30 19 20 19 30 19 20 19/
pagenum 9
innerhead J. Brahms, O Welt, ich muss dich lassen, arranged for SATBG Recorders
leftfoot Arranged and Typeset 1996 by Peter J Billam.
/
2 bars |3|4|
|
=1 treble8va 1b cro. F qua D{2 cro F E}2 min rest
=2 treble 1b qua [en{1 d}1] cro rest qua rest [Bn,{1 d c}1] cro rest qua rest <d f'>
=3 treble 1b qua rest [A,{1 c Bn,}1] min G cro rest qua rest A
=4 bass8va 1b qua A cro d qua f min c qua rest [Bn{2 c d']
=5 bass8va 1b min d' c rest
| 4/2 72
=1 4/2 smb rest rest
=2' 4/2 qua [e d] cro c cro. Bn qua [B c d] cro e cro. f qua d
=2, 4/2 qua [c Bn] cro. A qua A cro G# qua rest [d c B] [A Ab] cro Gn(2
=3 4/2 cro G# min F cro E A G# qua [A F D F(2]
=4 4/2 cro e}2 qua [f e] cro d e min smb rest
=5 4/2 min rest rest qua rest [f e d,] cro c Bn
/
2 bars |3|4|
| 3/2 72
il0.5 .06 15
=1 treble8va 1b 3/2 cro rest E{2 F G}2 min A
=2' treble 1b 3/2 qua rest' cro. blank smb blank
=2 treble 1b 3/2 qua [G,)2 Bb,] cro. A qua d cro. c qua [eb d c]
=3 treble 1b 3/2 qua F)2 cro E qua G cro F qua rest B' min A
=4 bass8va 1b 3/2 min rest qua rest A cro c qua rest f cro eb
=5 bass8va 1b 3/2 cro c c# d e f f#
| 4/2 72
=1 4/2 cro. B'{2 qua A [G F}2] cro G(2 cro. G)2 qua c{2 [B' A G F}2]
=2 4/2 qua [B, c] cro db(1 cro. d)1 qua c [B' A] cro B'(2 cro. B')2 qua c#{1
=3 4/2 cro G F(2 cro. F)2 qua E min F(2 cro. F)2 qua F(2
=4 4/2 cro d B(2 cro. B)2 qua c min db,(1 cro. d,)1 qua B{2
=5 4/2 qua [g a] cro b min rest rest rest
/
3 bars | 1b 1.2 1.2 1.2 1 1 1 1 1 1 1 1 1 1.2 1 1 1 \
  |1 1 1 1.2 1 1 1 1  1 1 1 1  1 1.2 1.2 1 | 4 ||
|
=1 treble8va 1b min G(2 qua [G)2{2 F G A] cro. G qua A}2 min G
=2 treble 1b qua [dn cn Bn, A,] cro. B,}1 qua c{1 [d e}1] \
 cro d qua rest [<Bb,{1 G,> <A, c> <B, d}1>]
=3 treble 1b qua [F)2 E F G] cro. F qua E [F G] cro F min E
=4 bass8va 1b qua [Bn c dn' en'] cro. d'}2 qua c{2 [Bn A}2] cro B min c
=5 bass8va 1b min rest rest rest c
|
=1 smb F(2 F)2(2
=2 qua [<c eb{3> <B, d> <A, c> <G, B,>] cro. <A, c> qua <B, d}3> \
 [<c e{3> <d f> <c e> <B, d(1>] <B, d)1> cro <A, c> qua <G, B,}3>
=3 smb F(2 F)2(2
=4 qua [A{2 B c d'] [eb' d' c B}2] [A{2 G A B] [c d' d#' en'}2]
=5 smb F(2 F)2(2
|
=1 smb F)2-fermata
=2 smb <c-fermata A>
=3 smb F)2-fermata
=4 smb <c-fermata F>
=5 smb F)2-fermata

4 systems 10 /19 20 19 20 19 20 19/19 20 19 20 19 20 19 \
 /19 20 19 20 19 20 19/19 20 19 20 19 20 19/
title Nr. 6   O wie selig seid ihr doch
lefthead Johannes Brahms
righthead Arranged for SATBG Recorders
leftfoot Arranged and Typeset 1996 by Peter J Billam.
midi pause 3.9
/
2 bars |1|1|
|
I0.5          Molto moderato
I0.1 .40 '
=1 treble8va 1b 12/8 min. A d
i0.5        dolce . . .
=2 treble 1b 12/8 qua [a g f] [e f e] [d e f] [g f g]
i0.5        dolce . . .
=3 treble 1b 12/8 qua [f e d] [c d c] min. B,
i0.5        dolce . . .
=4 bass8va 1b 12/8 min. rest qua [B c d'] [e d, e]
i0.2        dolce . . .
|
I0.1 .40 '
=1 cro. c A B' A
=2 qua [a g f] [eb f e] [d f g(1] cro g)1 qua f
=3 cro eb qua d [c d c] [Bb, d c(1] cro c)1 qua A
=4 cro. f f# qua [g d, en] [fn e f(1]
/
2 bars |1|1|
|
I0.1 .20 '
=1 treble8va 1b cro. G F G(2 qua [B' A G)2]
=2 treble 1b qua [d f en(1] cro e)1 qua d(1 cro. d)1(1 qua d)1 cro c(1
=3 treble 1b qua [Bn, d A,(1] cro A)1 qua F(2 cro. F)2 qua [E F Bn']
=4 bass8va 1b qua [f)1 Bn, c#,] [d' c# d'] [Bb A B] [cn d' e']
|
=1 smb. F-fermata
=2 cro. c)1-fermata qua [d c Bb,] cro. A Bn'
=3 cro. A-fermata F min. rest
=4 qua [f-fermata e f] [b a g] [f g f] [d, e d,]
/
2 bars |1|1|
|
il0.25       5
=1 treble8va 1b min. A c
=2 treble 1b qua [c d e] [f e f] [e f g] [a g a(1]
=3 treble 1b qua [A, Bn, c] [d c d] cro G qua c(1 cro c)1 qua f(1
=4 bass8va 1b cro A qua rest cro. rest qua [c, d, e] [f e f]
|
I0.1 .65 '
=1 cro. Bn, c# d cro cn qua d
=2 qua [a)1 g f] [e f e] [d bb ab] cro g qua f
=3 qua [f)1 e d] [c# a g] [f g f] [e d c]
=4 cro. g a cro bb qua bn [c~n b a]
/
2 bars |1|1|
|
I0.1 .20 '
=1 treble8va 1b cro. e c Bn,{1 qua [d c B,}1]
=2 treble 1b cro. e(1 qua [e)1 a g] cro f# qua g [fn e d]
=3 treble 1b qua [Bn, c B,] cro. A(2 qua [A)2 G B'] A cro G#
=4 bass8va 1b qua [g# a gn(1] [g)1 f e] [d#, e dn,(1] d)1 cro e
|
=1 smb. A-fermata
=2 qua [c#-fermata d c#] [e d cn] [Bn, c B,] [d c Bb,]
=3 cro E-fermata qua A [Gn F E] cro D qua G [F E D]
=4 min. A-fermata A

3 systems /19 30 19 30 19 30 19/19 30 19 30 19 30 19/19 38 19 30 19 30 19/
pagenum 11
innerhead J. Brahms, O wie selig seid ihr doch, arranged for SATB Recorders
leftfoot Arranged for SATB Recorders 1996 (c) Peter J Billam.
/
2 bars |1|1|
|
=1 treble8va 1b min. A cro. G qua [E{2 A G}2]
=2 treble 1b cro. A qua [Bn, c# d(1] [d)1 e d] [c# d e]
=3 treble 1b qua [C# D E] [F G A] [Bn, cn Bb,] cro. A(2
=4 bass8va 1b qua [A Bn c#] [d e f] cro. e qua [A Bn c#]
|
il0.4    10
=1 cro. F(1 qua [F)1{2 G F}2] min. E-fermata
=2 qua [f e d] [c d c] [Bn'-fermata A B'] [c B, c(1]
=3 qua [A)2 cn' Bn'] [A B' A] [G#-fermata F# G] [A G# A(2]
=4 min. d, cro. e-fermata A
/
2 bars |1|1|
|
I0.1 .66 '
=1 treble8va 1b cro. D E F# qua [G{2 c' B'}2]
i0.3        cresc . . .
=2 treble 1b qua [c)1 Bb, A,] [G A G] [F#, d c] qua B, cro g(1
i0.3           cresc . . .
=3 treble 1b qua [A)2 Gn F] [E c' B'] [A B' A] cro G qua c(1
i0.3           cresc . . .
=4 bass8va 1b cro. B c cro d qua eb(1 e)1 cro en
i0.3           cresc . . .
|
I0.1 .65 '
=1 cro. A Bn c# qua [d{1 g f}1]
=2 qua [g)1 f e] [d e d] [c# a g] [f bb a]
=3 qua [c)1 d c] [Bn, g f] [e f e] cro d qua d(1
=4 cro. f g cro a qua bb(1 [b)1 e f]
/
2 bars |1|1||
|
=1 treble8va 1b cro e{1 d c#}1 min. d(1-fermata
i0.7 .37 . . .
I0.7 .45 f
=2' treble 1b min. blank qua [f#-fermata g a] [g a bb]
=2, 1b cro b qua bn(1 [b)1 a g] [d e f#] [e f g]
i0.7 .37 . . .
I0.7 .45 f
=3, treble 1b qua [d)1 g f] [e f e] cro d-fermata qua c [B A Gn]
=3' 1b min. blank dr(3
i0.7 .37 . . .
I0.7 .45 f
=4 bass8va 1b cro g qua g#(1 g)1 cro a min. d,(1-fermata
i0.1 .37 . . .
I0.1 .45 f
|
=1 smb. d)1
=2' qua [c~ bb a] [g a g] min. f#
=2, qua [a g f#] [e f# e] min. d
=3' cro. d)3(1 cro d)1 qua c# min. d
=3, qua [F# G A] qua [Bb A Br] min. A
=4, min. dr)1(2 d)2
=4' qua [d e f#] [g f g] min. a

4 systems /19 20 19 20 19 20 19/19 20 19 20 19 25 19/19 20 19 20 19 20 19/19 20 19 20 19 20 19/
title Nr. 8   Es ist ein Ros' entsprungen
righthead Arranged for SATB Recorders
lefthead Johannes Brahms
leftfoot Arranged and Typeset 1996 by Peter J Billam.
midi pause 3.9
/
3 bars |0.7|3|3|
| 1/4 .66
=1 treble8va 1b 6/4 qua [c Bn,]
I0.3        p
i0.3            dolce . . .
=2 treble 1b 6/4 cro f
I0.2        p
i0.2             dolce . . .
=3 treble 1b 6/4 cro c
I0.2        p
i0.2             dolce . . .
=4 bass8va 1b 6/4 cro a
I0.2        p
i0.2             dolce . . .
| 6/4 4.0
I0.2 .28 , .76 ,
=1 qua [d c(1] cro c)1 qua [c c# e d(1] cro d)1 qua [cn d]
=2 cro e f f(1 f)1 b a
=3 cro B A A min F cro E
I0.1 .76 ,
=4 cro g f A B G A
|
I0.2 .76 ,
=1 qua [c d c d c d] [B' A(2] cro A)2 qua [cn B,]
I0.1 .76 ,
=2 cro e f g e f d
I0.1 .76 ,
=3 min B'(2 qua [B')2 G] cro c# d E(2
I0.1 .76 ,
=4 cro c d e min f cro G
/
3 bars |1 1.3 1.3 1 1 1 1.3 1 1 1 1 1|1 1 1 1 1 1 1 1 1 1 1.3 1|1 1 1 1 1.3 1 1 1 1 1 1 1|
|
I0.3 .48 , .80 ,
=1 treble8va 1b qua [G# A F# Gn(2] cro G)2 qua [E Fn(2] cro F)2 qua [D# E]
=2 treble 1b cro c# d B, min cn cro B,
=3 treble 1b cro E)2 D E C A G
=4 bass8va 1b cro A B G min A cro c
|
I0.2 .76 ,
=1 qua [G F G F(2 F)2 E] min F cro c{1
I0.1 .76 ,
=2 cro A d B G{2 A}2 f
I0.9 .86 pp
I0.1 .76 ,
=3 cro A B G G A qua [c Bn,]
I0.1 .76 ,
=4' min. F cro B'{1 c}1 a
=4, min. blank min F cro a
|
il0.3                 5
=1 cro e f}1 A,{1 c B}1 A{2
=2 cro b a qua [c c# e d(1] cro d)1 qua [cn d]
=3 qua [d c(1] cro c)1 F(2 min F)2 cro E
=4 cro g f F B G A
/
3 bars |1 1 1 1 1 1.3 1 1 1 1 1 1|1 1.3 1.3 1 1.3 1 1.3 1 1 1.3 1 1|12|
|
I0.2 .77 ,
=1 treble8va 1b cro E F G E F}2 qua [c B,]
I0.1 .77 ,
=2 treble 1b qua [c d c d c d] [B' A(2] cro A)2 d
I0.9 .87 p
I0.1 .77 ,
=3 treble 1b min B'(2 qua [B')2 G] cro c# d E(2
I0.1 .77 ,
=4 bass8va 1b cro c d e min f cro G
|
I0.2 .43 , .76 ,
=1 qua [G# A F# Gn(2] cro G)2 qua [E Fn(2] cro F)2 qua [D# E]
I0.1 .76 ,
=2 cro c# d qua [B, Bn,(1 B)1 cn(1] cro c)1 Bb
=3 cro E)2 D E C qua [G# A] cro Gn
I0.1 .76 ,
=4 cro A B G min A cro c
|
I0.2 .76 ,
=1 qua [G F G F(2 F)2 E] min F qua [c A,]
I0.1 .76 ,
=2 cro A d B G A c
I0.1 .76 ,
=3 cro A B G G A A
I0.1 .76 ,
=4 min. F <min F, cro B'{1> c}1 <f' f,>
/
3 bars |1 1 1 1 1 1 1.3 1 1 1 1 1|1 1 1 1 1 1 1 1 1 1 1.3 1|1 1 1 1 1 1 1.3 1 1 1 1 1 1|
|
I0.2 .28 '
=1 treble8va 1b qua [F# G(2] cro G)2 qua [C E G Fn(2] cro F)2 cro rest
I0.1 .77 '
=2 treble 1b cro c G A A c qua [e d]
I0.1 .77 '
=3 treble 1b cro c E E D A <F, Bn'>
I0.1 .77 '
=4 bass8va 1b cro e c A min d cro G
|
il0.4    10
=1 min. rest min rest qua [c Bn,]
I0.1 .73 ,
=2 qua [Bn, c B, c(1 c)1 d] min c cro eb(1
I0.1 .76 ,
=3 cro G min A cro F G A(2
=4 min e' cro f' d' e' f'
=4 cro c, A, F, min cr, cro f,(1
|
I0.2 .28 , .76 ,
=1 qua [d c(1] cro c)1 qua [f c] [c# d(1] cro d)1 qua [cn d]
=2 min eb)1 cro e d b a
=3 cro A)2 B min f cro f en
=4 cro f)1 g a b g qua [a A,]

4 systems /19 20 19 20 19 20 19/19 20 19 20 19 20 19/19 20 19 20 19 20 19/19 20 19 30 19 20 19/
pagenum 13
innerhead J. Brahms, Es ist ein Ros' entsprungen, arranged for SATB Recorders
leftfoot Arranged and Typeset 1996 by Peter J Billam.
/
2 bars |1|1|
|
I0.3 .76 ,
=1 treble8va 1b cro. c qua [d c d] [B' A(2] cro A)2 qua [c B,]
I0.1 .76 ,
=2 treble 1b qua [e g f a b g] cro e f c(1
I0.1 .76 ,
=3 treble 1b min B,(2 qua [B,)2 e] cro c# d G
I0.1 .76 ,
=4 bass8va 1b qua [c, e d, f e c,] cro f d e
|
=1 qua [G# A F# Gn(2 G)2 G] [E Fn(2 F)2 F D# E]
=2, qua [c)1 c A B(1 B)1 B] [db c(1 c)1 c A B]
=3' cro. Eb qua [D F En] [B A(2 A)2 A F# G]
=4 cro F# B G A min c
/
3 bars |12|1 1 1 1 1 1 1.3 1 1 1 1 1|1.3 1 1 1 1 1 1 1 1 1 1.3 1|
|
I0.2 .77 ,
=1 treble8va 1b qua [G F G F(2 F)2 E] min F cro A
I0.9 .86 pp
I0.1 .77 ,
=2 treble 1b cro c d B G A c(1
I0.1 .77 ,
=3 treble 1b cro A B' G G A qua [c' A]
I0.1 .77 ,
=4' bass8va 1b min. F cro B{1 c}1 f'
=4,         1b min. blank min F cro f,
|
il0.3     15
I0.2 .28 ,
=1 cro c E A E D rest
I0.1 .76 ,
=2 min c)1 cro c c# A Bn
I0.1 .77 ,
=3 qua [F# G(2] cro G)2 qua [C E] [G Fn(2] cro F)2 qua [G F]
=4' cro e, c A cro. d' qua rest' [e' d']
=4, min. blank cro. d qua F cro G
|
=1 cro rest rest rest min rest qua [c Bn,]
I0.9 .67 p
I0.2 .75 ,
=2 cro c cro. c qua Bn, min c cro eb(1
I0.1 .76 ,
=3 cro E A Ab min G cro An(2
I0.1 .76 ,
=4 qua [Bn' c B c(2 c)2 d'] cro f' e' f'(1
=4 cro Ar, min F, c, cro f,
/
2 bars |1|1|
|
I0.2 .28 , .77 ,
=1 treble8va 1b qua [d c(1] cro c)1 qua [f c] [c# d(1] cro d)1 qua [cn d]
=2 treble 1b min e)1 cro eb d b a
=3 treble 1b cro A)2 B min f cro f e
=4 bass8va 1b cro f)1 g a b g qua [a A,]
|
I0.2 .76 ,
=1 qua [c d c d c d] [B' A(2] cro A)2 qua [c B,]
I0.1 .76 ,
=2 qua [e g f a g b] cro e f c(1
I0.1 .76 ,
=3, min B(1 qua [B)1 e] cro c# d G
I0.1 .76 ,
=4 qua [c, e d, f e c,] cro f d e
/
3 bars |2|2|1||
|
=1 treble8va 1b qua [G# A F# Gn(2 G)2 G] [E Fn(2 F)2 F D# E]
=2 treble 1b qua [c)1 c A, B,(1 B,)1 B,] [db c Bb, c A, Bb,]
=3 treble 1b cro. Eb qua [D F En] [B' A G# A F# Gn]
=4 bass8va 1b cro F# B G A min c
|
=1 qua [G F G F(2 F)2 E] min F cro F
=2 cro c d B G A <F B'>
=3 cro A B' G qua [F E F Eb(2 E)2 D]
=4' min. F cro B' c' B'
=4, min. blank min. F
|
=1 min. F cro rest rest
=2 min. <F A> cro rest rest
=3 min. C cro rest rest
=4 min. <F, c'> cro rest rest

9 systems 14/21/21/21/21/21 20/21/21/21/21 14/
pagenum
innerhead Chorale Preludes  Op 122, Johannes Brahms
title Soprano Recorder
leftfoot Arranged and Typeset 1996 by Peter J Billam.
midi pause 3.9
/
4 bars | 3 | .8 .8 .8 1.5 .9 .9 1.2 1.2 | .8 1.2 .8 1.2 .8 1.2 | 5 |
|
I0.5   O Welt, ich muss dich lassen
=1 treble 1b 4/2 qua rest
I0.3        f
i0.3           ma dolce . . .
|
=1 min rest cro rest qua rest F min F(2 qua [F)2{2 G}2 G{2 A}2]
|
=1 3/2 cro. A{2 qua c}2 cro. c{1 qua B,}1 cro. B'{2 qua A}2
|
=1 4/2 smb A min rest cro rest A{2
/
4 bars | 1.2 1.5 1.2 1.2 1.2 1.2 | 5 | 2.5 3 | 6 |
|
=1 treble 1b 3/2 cro. c}2{1 qua B,}1 min G A
|
il0.4    5
=1 min F E rest
|
=1 min rest rest cro rest F
|
=1 cro G F min E F
/
4 bars | 1 1 1 1 1 1 1 2 | 2 2 2.8 | .9 1.3 .9 1.3 .9 1.3 | 7 |
|
=1 treble 1b 4/2 smb G min rest cro. G{2 qua F}2
|
=1 smb F(2 qua [F)2{2 G}2 G{2 A}2]
|
il0.4   10
=1 cro. A{2 qua c}2 cro. c{1 qua B,}1 cro. B'{2 qua A}2
|
=1 4/2 smb A min rest cro rest A
/
4 bars | .9 1.2 .9 .9 1.5 1.5 | .9 1.4 .9 .9 .8 .8 | 4 | 6 |
|
=1 treble 1b 3/2 cro. c{1 qua B,}1 min G(2 qua [G)2 G{2 B' A}2]
|
=1 cro. F qua D{2 cro F E}2 min rest
|
=1 4/2 smb rest rest
|
il0.4   15
=1 3/2 cro rest E{2 F G}2 min A
/
4 bars | 9.8 | 1.5 2 1.8 1.5 | 4 | 3.5 ||
|
=1 treble 1b 4/2 cro. B'{2 qua A [G F}2] cro G(2 cro. G)2 qua c{2 [B' A G F}2]
|
=1 min G(2 qua [G)2{2 F G A] cro. G qua A}2 min G
|
=1 smb F(2 F)2(2
|
=1 smb F)2-fermata

/
3 bars | 14 | 12 | 12 |
|
I0.5   O wie selig seid ihr doch, ihr Frommen
=1 treble 1b 12/8 min. A d
I0.2      Molto moderato
i0.2                                     dolce . . .
|
=1 cro. c A B' A
|
I0.1          '
=1 cro. G F G(2 qua [B' A G)2]
/
4 bars | 10 | 10 | 12 | 12 |
|
=1 treble 1b smb. F-fermata
|
il0.25       5
=1 min. A c
|
I0.1 .65 '
=1 cro. Bn, c# d cro cn qua d
|
I0.1 .17 '
=1 cro. e c Bn,{1 qua [d c B,}1]
/
3 bars | 1b 9 | 5 7 | 7 5 |
|
=1 treble 1b smb. A-fermata
|
=1 min. A cro. G qua [E{2 A G}2]
|
il0.4    10
=1 cro. F(1 qua [F)1{2 G F}2] min. E-fermata
/
4 bars | 14 | 12 | 12 | 9 ||
|
I0.1 .67 '
=1 treble 1b cro. D E F# qua [G{2 c' B'}2]
i0.3        cresc . . .
|
I0.1                           '
=1 cro. A Bn c# qua [d{1 g f}1]
|
=1 cro e{1 d c#}1 min. d(1-fermata
i0.2                 . . .
I0.2                         f
|
=1 smb. d)1

10 systems 15 /21/21/21/21/21/21/21/21/21/21 15/
pagenum
innerhead Soprano Recorder part, Choralvorspiele, Johannes Brahms
leftfoot Arranged and Typeset 1996 by Peter J Billam.
/
3 bars | 1b 6/4 2 | 12 | 12 |
|
I0.5 Es ist ein Ros' entsprungen
=1 treble 1b 6/4 qua [c Bn,]
I0.3        p
i0.3            dolce . . .
|
I0.1 .27 ' .76 '
=1 qua [d c(1] cro c)1 qua [c c# e d(1] cro d)1 qua [cn d]
|
I0.1 .76 '
=1 qua [c d c d c d] [B' A(2] cro A)2 qua [cn B,]
/
2 bars | 1b 6 | 3 2.5 |
|
I0.1 .43 ' .77 '
=1 treble 1b qua [G# A F# Gn(2] cro G)2 qua [E Fn(2] cro F)2 qua [D# E]
|
=1 qua [G F G F{2 F}2 E] min F cro c{1
I0.2 .68 pp
/
2 bars | 1b 6 | 6 |
|
il0.3 .27 5
=1 treble 1b cro e f}1 A,{1 c B}1 A{2
|
I0.1 .76 '
=1 cro E F G E F}2 qua [c B,]
I0.2 .79 p
/
2 bars | 1b 6 | 3 2.5 |
|
I0.1 .45 ' .77 '
=1 treble 1b qua [G# A F# Gn(2] cro G)2 qua [E Fn(2] cro F)2 qua [D# E]
|
I0.1 .76 '
=1 qua [G F G F(2 F)2 E] min F qua [c A,]
/
2 bars | 1b 6 | 6 |
|
I0.1 .28 '
=1 treble 1b qua [F# G(2] cro G)2 qua [C E G Fn(2] cro F)2 cro rest
|
il0.4    10
=1 min. rest min rest qua [c Bn,]
/
2 bars | 1b 6 | 6 |
|
I0.1 .28 ' .77 '
=1 treble 1b qua [d c(1] cro c)1 qua [f c] [c# d(1] cro d)1 qua [cn d]
|
I0.1 .76 '
=1 cro. c qua [d c d] [B' A(2] cro A)2 qua [c B,]
/
2 bars | 1b 6 | 6 |
|
=1 treble 1b qua [G# A F# Gn(2 G)2 G] [E Fn(2 F)2 F D# E]
|
=1 qua [G F G F(2 F)2 E] min F cro A
I0.2 .76 pp
/
3 bars | 1b 6 | .7 .7 .7 .7 .7 1.2 | .5 .5 .5 .5 .5 .6 .5 .5 .5 .5 .5 .5 |
|
il0.3     15
I0.1 .30 '
=1 treble 1b cro c E A E D rest
|
=1 cro rest rest rest min rest qua [c Bn,]
I0.2 .65 p
|
=1 qua [d c(1] cro c)1 qua [f c] [c# d(1] cro d)1 qua [cn d]
/
2 bars | 1b 6 | 6 |
|
=1 treble 1b qua [c d c d c d] [B' A(2] cro A)2 qua [c B,]
|
=1 qua [G# A F# Gn(2 G)2 G] [E Fn(2 F)2 F D# E]
/
2 bars | 1b 6 | 5 ||
|
=1 treble 1b qua [G F G F(2 F)2 E] min F cro F
|
=1 min. F cro rest rest

11 systems /22/22/22/22/22/22/22/22 15/22/22/22 10/
pagenum
innerhead Choralvorspiele, Johannes Brahms
title Alto Recorder
leftfoot Arranged and Typeset 1998 by Peter J Billam.
midi pause 3.9
/
4 bars | 1b 4/2 4 | 8 8 8 8 8 7 6 6 | 3/2 6 6 7 8 8 8 \
 | 4/2 4 4 4 4 4 4 6.5 4 4 4 4 4 3 3 3 3  |
|
I0.5   O Welt, ich muss dich lassen
=1 treble 1b 4/2 qua rest
I0.2       f
i0.2           ma dolce . . .
|
=1 cro rest qua rest f [f{1 e}1 e{1 d}1] [d{1 c}1] cro c(1 min c)1
|
=1 3/2 min c cro. a qua d [d{1 e}1 e{1 f}1]
|
=1 4/2 qua [f{1 e}1 e{1 d}1] [d{1 c}1 c{1 Bn,}1] [B,{1 c}1 c{1 A,}1] min A
/
3 bars | 2.5 2 2.5 | 1.8 1.2 1.2 | 1.5 1.8 1.5 1.5 |
|
=1 treble 1b 3/2 qua rest [en{1 g f#}1] min g qua rest  [Bn,{1 d c#}1]
|
il0.4   5
=1 cro e{1 d}1 min rest rest
|
=1 cro rest qua rest d#{1 [e dn}1] cro. c qua [e{1 f e]
/
2 bars | 3/2 5 4 5 4  5 4 5 4 4 4 5 4 | 4/2 5 4 4 4 4 4 4 4 5 4 4 4 5 4 5 4 |
|
=1 treble 1b qua d}1 [c#{1 d cn] B,}1 [Bn,{1 c Bb,] cro A qua [B, Ab,}1]
|
=1 4/2 qua [G{2 Bn' A B'}2] [c{1 d c d}1] [e{1 eb}1 e{1 d}1] [d{1 en}1 e{1 fn}1]
/
3 bars | 3/2 4 4 4 4 4 4 4 4 3 3 3 4 | 3 3 3 4 4 4 4 4 4 4 4 4 \
 | 4/2 3 3 3 4 4 4 5.5 4 3 3 3 4 4 4 4 4 |
|
=1 treble 1b 3/2 [f{1 e}1 e{1 d}1] [d{1 c}1 c{1 B,}1] cro. B, qua f
|
il0.4   10
=1 cro. f qua g [g{1 a}1 a{1 d}1] [d{1 e}1 e{1 f}1]
|
=1 4/2 cro. f{1 qua e}1 [e{1 d}1 d{1 cn}1] cro. c{1 qua Bn,}1 [B'{2 A}2 A{2 c'}2]
/
2 bars | 7 | 6 |
|
=1 treble 1b 3/2 qua rest [c{1 eb d}1] rest [c{1 A, d}1] [f{1 eb}1] [d{1 c#}1]
|
=1 qua [en{1 d}1] cro rest qua rest [Bn,{1 d c}1] cro rest qua rest <d f'>
/
2 bars | 8 | 6 |
|
=1 treble 1b 4/2 qua [e' d'] cro c' cro. Bn' qua [B' c' d'] cro e' cro. f' qua d'
=1 treble 1b 4/2 qua [c, Bn,] cro. A, qua A, cro G#, qua rest, [d c B,] [A, Ab,] cro Gn,(2
|
il0.4    15
=1 3/2 qua rest' cro. blank smb blank
=1 3/2 qua [G,)2 Bb,] cro. A qua d cro. c qua [eb d c]
/
2 bars | 2 2 2 2 | 2.5 2 2 2.3 |
|
=1 treble 1b 4/2 qua [B, c] cro db(1 cro. d)1 qua c [B' A] cro B'(2 cro. B')2 qua c#{1
|
=1 qua [dn cn Bn, A,] cro. B,}1 qua c{1 [d e}1] cro d qua rest [<Bb,{1 G,> <A, c> <B, d}1>]
/
2 bars | 8 | 4 ||
|
=1 treble 1b qua [<c eb{3> <B, d> <A, c> <G, B,>] cro. <A, c> qua <B, d}3> [<c e{3> <d f> <c e> <B, d(1>] <B, d)1> cro <A, c> qua <G, B,}3>
|
=1 smb <c-fermata A>
/
2 bars | 14 | 12 |
|
I0.9    O wie selig seid ihr doch, ihr Frommen
=1 treble 1b 12/8 qua [a g f] [e f e] [d e f] [g f g]
I0.2      Molto moderato
i0.2                                       dolce . . .
|
=1 qua [a g f] [eb f e] [d f g(1] cro g)1 qua f
/
2 bars | 14 | 12 |
|
=1 treble 1b qua [d f en(1] cro e)1 qua d(1 cro. d)1(1 qua d)1 cro c(1
|
=1 cro. c)1-fermata qua [d c Bb,] cro. A Bn'
/
2 bars | 14 | 12 |
|
il0.25          5
=1 treble 1b qua [c d e] [f e f] [e f g] [a g a(1]
|
=1 qua [a)1 g f] [e f e] [d bb ab] cro g qua f

11 systems /22/22/22 7/22 15/22/22/22/22/22/22/22/22/
pagenum
innerhead Alto Recorder part, O wie selig seid ihr doch, Johannes Brahms
leftfoot Arranged and Typeset 1998 by Peter J Billam.
/
2 bars | 14 | 12 |
|
=1 treble 1b cro. e(1 qua [e)1 a g] cro f# qua g [fn e d]
|
=1 qua [c#-fermata d c#] [e d cn] [Bn, c B,] [d c Bb,]
/
2 bars | 14 | 12 |
|
=1 treble 1b cro. A qua [Bn, c# d(1] [d)1 e d] [c# d e]
|
il0.4 .07 10
=1 qua [f e d] [c d c] [Bn'-fermata A B'] [c B, c(1]
/
2 bars | 14 | 12 |
|
=1 treble 1b qua [c)1 Bb, A,] [G A G] [F# d' c'] qua B' cro g(1
i0.3           cresc . . .
|
=1 qua [g)1 f e] [d e d] [c# a g] [f bb a]
/
2 bars | 14 | 6 5 ||
|
=1' treble 1b min. blank qua [f#-fermata g a] [g a bb]
=1, 1b cro b qua bn(1 [b)1 a g] [d e f#] [g f g]
i0.2                                         . . .
I0.2                                                 f
|
=1' qua [c~ bb a] [g a  g] min. f#
=1, qua [a  g f#] [e f# e] min. d
/
4 bars | 1b 6/4 2 | 12 | 12 | 12 |
|
I0.9    Es ist ein Ros' entsprungen
=1 treble 1b 6/4 cro f
I0.2      p
i0.2           dolce . . .
|
=1 cro e f f(1 f)1 b a
|
I0.1 .77 '
=1 cro e f g e f d
|
=1 cro c# d B, min cn cro B,
/
3 bars | 12 | .9 .9 .9 .9 1.3 1 1 1 1 1 1 1 | 12 |
|
I0.1 .79 '
=1 treble 1b cro A d B G{2 A}2 f
|
il0.7 .09 5
=1 cro b a qua [c c# e d(1] cro d)1 qua [cn d]
|
I0.1 .76 '
=1 qua [c d c d c d] [B' A(2] cro A)2 d
/
3 bars | .9 .9 .9 .9 1.3 1 1.3 1 .9 .9 .9 .9 | 11 | 1.8 1.8 1.8 1.8 1.8 2 |
|
I0.1 .77 '
=1 treble 1b cro c# d qua [B, Bn,(1 B)1 cn(1] cro c)1 Bb
|
I0.1 .76 '
=1 cro A d B G A c
|
I0.1 .76 '
=1 cro c G A A c qua [e d]
/
3 bars | 3.5 3.1 | 5 | 3.2 2.8 |
|
il0.3     10
I0.1 .76 '
=1 treble 1b qua [Bn, c B, c(1 c)1 d] min c cro eb(1
|
=1 min eb)1 cro e d b a
|
=1 qua [e g f a b g] cro e f c(1
/
3 bars | 6.6 | 5 | 5 |
|
=1 treble 1b qua [c)1 c A, B,(1 B,)1 B,] [db c(1 c)1 c A, B,]
|
I0.1 .76 '
=1 cro c d B G A c(1
|
il0.3     15
I0.1 .76 '
=1 min c)1 cro c c# A Bn
/
3 bars | 6.6 | 5 | 3.5 3 |
|
I0.1 .77 '
=1 treble 1b cro c cro. c qua Bn, min c cro eb(1
|
=1 min e)1 cro eb d b a
|
=1 qua [e g f a g b] cro e f c(1
/
3 bars | 3.3 3.6 | 5 | 4 ||
|
=1 treble 1b qua [c)1 c A, B,(1 B,)1 B,] [db c Bb, c A, Bb,]
|
=1 cro c d B G A <F B'>
|
=1 min. <F A> cro rest rest

11 systems 15 /21/21/21/21/21/21/21/21 25/21/21/21/21 10/
pagenum
innerhead Choralvorspiele, Johannes Brahms
title Tenor Recorder
leftfoot Arranged and Typeset 1998 by Peter J Billam.
midi pause 3.9
/
3 bars | 1b 4/2 1 | 16 | 3/2 12 |
|
I0.6   O Welt, ich muss dich lassen
=1 treble 1b 4/2 qua f
I0.2       f
i0.2           ma dolce . . .
|
=1 qua [f{1 e}1 e{1 d}1] [d{1 c}1 c{1 B,}1] [B'{2 A}2] \
 cro. A{2 qua [B'}2 B'{2 A}2]
|
=1 3/2 cro. F qua E [E{2 F}2 F{2 G}2] cro. G{2 qua A}2
/
2 bars | 4/2 .8 .8 .8 .8  .9 .9 .9 1  1 1 1 1  1 1 1.2 1 \
 | 3/2 1 1 1 1  1 1.1 1 1  1 1 1 1 |
|
=1 treble 1b 4/2 min A(2 cro. A)2 qua F qua [F{2 A}2 A{2 E}2] [E{2 G}2 G{2 F#}2]
|
=1 3/2 qua F# cro c qua d rest [e{1 c# d}1] qua rest cro G{2 qua A}2
/
2 bars | 1 1 1 1 1 1.3 | 1.5 1.8 1.5 1.5 |
|
il0.4   5
=1 treble 1b qua rest [A{2 c' Bn'}2] d{1 cro c}1 qua rest cro rest qua rest c#{1
|
=1 qua [d cn B,}1 A,] cro B'(2 qua [B')2 A G B'] [A cn']
/
2 bars | 1.2 1.2 1.2 1.2 1.2 1.2 | 1 1 1 1 1 1.3 1 1 |
|
=1 treble 1b qua B, [A{2 B' A] G}2 [G#{2 A Gn] min F}2
|
=1 4/2 qua [D{2 F E F}2] cro G c qua [c'{2 A}2 A{2 Bb'}2] cro. B'{2 qua A}2
/
2 bars | 7 | 6 |
|
=1 treble 1b 3/2 min A(2 cro. A)2 qua F [D{2 En}2 E{2 F}2]
|
il0.4   10
=1 cro. A qua G [G{2 F#}2 F{2 G}2] G cro. d
/
2 bars | 4/2 .9 .9 .9 1  1 1 1 1  .9 .9 .9 1  1 1 1.2 1 \
  | 3/2 1 1 1 1 1 1.2 1 1 1 1 1 1 |
|
=1 treble 1b 4/2 cro. d{1 qua c#}1 [c{1 A,}1] cro A cro. A{2 qua G#}2 [G{2 E}2 E{2 Gn}2]
|
=1 3/2 qua [F#{2 A G F}2] [B'{2 G Eb}2 B'] [d{1 c}1] [G{2 A}2]
/
3 bars | 1b 1.1 1.1 1.4 1.1 .9 .9 .9 .9 .9 .9 1 1 \
 | 4/2 3.6 3.6 3.6 4 | 3/2 4 4 3.6 |
|
=1 treble 1b qua rest [A,{1 c Bn,}1] min G cro rest qua rest A
|
=1 4/2 cro G# min F cro E A G# qua [A F D F(2]
|
il0.4   15
=1 3/2 qua F)2 cro E qua G cro F qua rest B' min A
/
4 bars | 1 1 1 1.4 1 1 1 1 | 1 1 .7 1.2 1 .9 .8 .8 | 3.5 | 3 ||
|
=1 treble 1b 4/2 cro G F(2 cro. F)2 qua E min F(2 cro. F)2 qua F(2
|
=1 qua [F)2 E F G] cro. F qua E [F G] cro F min E
|
=1 smb F(2 F)2(2
|
=1 smb F)2-fermata
/
2 bars | 7 5.5 | 12 |
|
I0.9    O wie selig seid ihr doch, ihr Frommen
=1 treble 1b 12/8 qua [f e d] [c d c] min. B,
I0.4     Molto moderato
i0.4                                   dolce . . .
|
=1 cro eb qua d [c d c] [Bb, d c(1] cro c)1 qua A
/
2 bars | 14 | 10 |
|
=1 treble 1b qua [Bn, d A,(1] cro A)1 qua F(2 cro. F)2 qua [E F Bn']
|
=1 cro. A-fermata F min. rest
/
2 bars | 14 | 12 |
|
il0.25 .03 5
=1 treble 1b qua [A, Bn, c] [d c d] cro G qua c(1 cro c)1 qua f(1
|
=1 qua [f)1 e d] [c# a g] [f g f] [e d c]

11 systems 10 /21/21/21/21 25/21/21/21/21/21/21/21/21 10/
pagenum
innerhead Tenor Recorder part, O wie selig seid ihr doch, Johannes Brahms
leftfoot Arranged and Typeset 1998 by Peter J Billam.
/
2 bars | 14 | 12 |
|
=1 treble 1b qua [Bn, c B,] cro. A(2 qua [A)2 G B'] A cro G#
|
=1 cro E-fermata qua A [Gn F E] cro D qua G [F E D]
/
2 bars | 14 | 12 |
|
=1 treble 1b qua [C# D E] [F G A] [Bn, cn Bb,] cro. A(2
|
il0.7  10
=1 qua [A)2 cn' Bn'] [A B' A] [G#-fermata F# G] [A G# A(2]
/
2 bars | 14 | 12 |
|
=1 treble 1b qua [A)2 Gn F] [E c' B'] [A B' A] cro G qua c(1
i0.3           cresc . . .
|
=1 qua [c)1 d c] [Bn, g f] [e f e] cro d qua d(1
/
2 bars | 12 | 3 4.5 2.6 2.6 ||
|
=1' treble 1b min. blank dr(3
=1, 1b qua [d)1 g f] [e f e] cro d-fermata qua c [B A Gn]
i0.2                                         . . .
I0.2                                                 f
|
=1' cro. d)3(1 cro d)1 qua c#' min. d'
=1, qua [F# G A] [Bb A Br] min. A
/
4 bars | 1b 6/4 2 | 12 | .9 .9 .9 .9 1.2 1.4  1 1 1 1 1 1 | 12 |
|
I0.9    Es ist ein Ros' entsprungen
=1 treble 1b 6/4 cro c
I0.2      p
i0.2           dolce . . .
|
=1 cro B A A min F cro E
|
I0.1 .76 '
=1 min B'(2 qua [B')2 G] cro c# d E(2
|
=1 cro E)2 D E C A G
/
3 bars | 1b .9 .9 .9 .9 .9 .9 .9 .9 .9 .9 .9 .9 .9 .9 1.3 1 \
 | 2 1.8 1.8 1.7 1.7 1.8 | .9 .9 .9 .9 1 1.4 .9 .9 .9 .9 .9 .9 |
|
I0.1 .77 '
=1 treble 1b cro A B G G A qua [c Bn,]
|
il0.4      5
=1 qua [d c(1] cro c)1 F(2 min F)2 cro E
|
I0.1 .76 '
=1 min B'(2 qua [B')2 G] cro c# d E(2
/
3 bars | 1b 2 2 2 2 2.4 2 | 12 | 12 |
|
=1 treble 1b cro E)2 D E C qua [G# A] cro Gn
|
I0.1 .76 '
=1 cro A B G G A A
|
I0.1 .76 '
=1 cro c E E D A <F, Bn'>
/
3 bars | 1.1 1 1 1.1 1.1 1.1 | 1 1 .8 .8 1 1 | .9 .9 1.4 1 1 1 |
|
il0.3     10
I0.1 .77 '
=1 treble 1b cro G min A cro F G A(2
|
=1 cro A)2 B min f cro f en
|
=1 min B,(1 qua [B,)1 e] cro c# d G
/
3 bars | .8 1 1.3 1.1 1.2 1 | .7 .7 .7 .7 .7 1 | 1.1 .9 1.1 1.3 .9 1.1 |
|
=1 treble 1b cro. Eb qua [D F En] [B' A(2 A)2 A F# G]
|
I0.1 .76 '
=1' cro A B G G A qua [c A]
|
il0.4     15
I0.1 .76 '
=1 qua [F# G(2] cro G)2 qua [C E] [G Fn(2] cro F)2 qua [G F]
/
3 bars | 6.6 | 1 1 .8 .8 1 1 | .9 .9 1.4 1 1 1 |
|
I0.1 .77 '
=1 treble 1b cro E A Ab min G cro An(2
|
=1 cro A)2 B min f cro f e
|
=1 min B,(1 qua [B,)1 e] cro c# d G
/
3 bars | 1b .9 .9 .9 1 1.3 1 1 1.3 1 1.3 1.3 1 \
 | .9 .9 .9 .9 .9 .9 1 1 1.3 1 1 1 | 9 ||
|
=1 treble 1b cro. Eb qua [D F En] [B' A G# A F# Gn]
|
=1 cro A B' G qua [F E F Eb(2 E)2 D]
|
=1 min. C cro rest rest

11 systems 15 /21/21/21/21/21/21/21/21/21 25/21/21 15/
pagenum
innerhead Johannes Brahms
title Bass Recorder
leftfoot Arranged and Typeset 1998 by Peter J Billam.
midi pause 3.9
/
3 bars | 1b 4/2 1 | .9 .9 .9 .9 .9 .9 1 1 1 1 1 1 1 1 1 1 | 10.8 |
|
I0.5    O Welt, ich muss dich lassen
=1 bass 1b 4/2 qua rest
I0.2       f
i0.2           ma dolce . . .
|
=1 min rest cro rest qua rest B [B{2 c}2 c{2 d'}2] [d,{1 e}1 e{1 f}1]
|
=1' 3/2 min c cro. c qua d min d
/
2 bars | 1b 4/2 2 2 2 2 2 2 2.4 2 | 3/2 1 .9 .9 1 1 .9 .9 1.2 1 .9 .9 .9 |
|
=1 bass 1b 4/2 qua [a{1 g}1 g{1 f}1] [f{1 e}1 e{1 d,}1] \
 [d,{1 e}1 e{1 c,}1] [c,{1 eb}1 eb{1 d,}1]
|
=1 3/2 qua d, cro a qua d d{1 cro g}1 qua d{1 fn cro. e}1
/
2 bars | 1b .9 .9 .9 1 .9 .9 1 1 1.2 1 1 1 | 1 1 1.2 1 1.2 1 .9 .9 1 1 .9 .9 |
|
il0.4   5
=1 bass 1b cro. d, qua f cro. g qua bn{1 [c~ bb a}1] a
|
=1 qua [b a g f#] [g fn] cro. e qua c# cro d
/
2 bars | 1b .9 .9 .9 .9 1 1 1 1 1.2 1 1.2 1 \
 | 4/2 1 1 1 1 1 1 1 1 1.2 1 1 1 1.2 1 1 1 |
|
=1 bass 1b min rest qua rest [e' A c] [d' c# d' cn]
|
=1 4/2 qua [Bn{2 d' c d'}2] [e{1 f e f}1] [g{1 f#}1 f{1 g}1] [g{1 c#,}1 c,{1 d,}1]
/
2 bars | 1b 3/2 1 1 1 1 1.2 1.2 1 1 .9 .9 .9 1 | 12 |
|
=1 bass 1b 3/2 [a{1 g}1 g{1 f}1] [f{1 eb}1 eb{1 d,}1] cro. B qua c
|
il0.5  10
=1 qua [c{2 d'}2 d'{2 e'}2] [e'{2 c}2 c{2 d'}2] d cro g qua fn
/
2 bars | 1b 4/2 .9 .9 .9 1 1 1 1 1 .9 .9 .9 1 1 1 1.2 1 \
 | 3/2 .9 .9 .9 1 .9 .9 .9 1.2 .9 1 .9 1 |
|
=1 bass 1b 4/2 cro. a{1 qua g}1 [g{1 f}1 f{1 e}1] cro. e{1 qua d,}1 [d'{2 c}2 c{2 eb'}2]
|
=1 3/2 cro. A{2 qua d'}2 cro. B qua g cro eb en
/
3 bars | 1b 1.1 .9 .9 1 .9 .9 .9 .9 1.3 1 1 1 \
 | 4/2 1.8 2 1.8 1.8 1.5 1.5 1.5 1.5 \
 | 3/2 .9 .9 .9 .9 1 1.1 .9 .9 1 1.3 .9 .9 |
|
=1 bass 1b qua A cro d qua f min c qua rest [Bn{2 c d']
|
=1 4/2 cro e}2 qua [f e] cro d e smb rest
|
il0.4   15
=1 3/2 min rest qua rest A cro c qua rest f cro eb
/
2 bars | 1 1 1 1.5 1 1 1 1 | 1.1 1.1 .8 1.1 1 .8 .8 .8 |
|
=1 bass 1b 4/2 cro d' B(2 cro. B)2 qua c min db,(1 cro. d,)1 qua B{2
|
=1 qua [Bn c dn' en'] cro. d'}2 qua c{2 [Bn A}2] cro B min c
/
2 bars | 8 | 4 ||
|
=1 bass 1b qua [A{2 B c d'] [eb' d' c B}2] [A{2 G A B] [c d' d#' en'}2]
|
=1 smb <c-fermata F>
/
2 bars | 5 7 | 12 |
|
I0.9  O wie selig seid ihr doch, ihr Frommen
=1 bass 1b 12/8 min. rest qua [B c d'] [e d, e]
I0.2     Molto moderato
i0.2                                        dolce . . .
|
=1 cro. f f# qua [g d, en] [fn e f(1]
/
2 bars | 14 | 12 |
|
=1 bass 1b qua [f)1 Bn, c#,] [d' c# d'] [Bb A B] [cn d' e']
|
=1 qua [f-fermata e f] [b a g] [f g f] [d, e d,]

11 systems 10 /21/21/21/21 25/21/21/21/21/21/21/21 10/
pagenum
innerhead Bass Recorder part, O wie selig seid ihr doch, Johannes Brahms
leftfoot Arranged and Typeset 1998 by Peter J Billam.
/
2 bars | 14 | 12 |
|
il0.25          5
=1 bass 1b cro A qua rest cro. rest qua [c, d, e] [f e f]
|
=1 cro. g a cro bb qua bn [c~n b a]
/
2 bars | 14 | 12 |
|
=1 bass 1b qua [g# a gn(1] [g)1 f e] [d#, e dn,(1] d)1 cro e
|
=1 min. A-fermata A
/
3 bars | 5 3.5 3 5 | 12 | 3 3 3.5 4.5 |
|
=1 bass 1b qua [A Bn c#] [d e f] cro. e qua [A Bn c#]
|
il0.3  10
=1 min. d, cro. e-fermata A
|
=1 cro. B c cro d qua eb(1 e)1 cro en
i0.1        cresc . . .
/
3 bars | 3 3 3.5 3.5 | 3.5 3.5 2.5 2.5 | 4.7 3.5 2.5 2.5 ||
|
=1 bass 1b cro. f g cro a qua bb(1 [b)1 e f]
|
=1 cro g qua g#(1 g)1 cro a min. d,(1-fermata
i0.2 .34 . . .
I0.2 .40 f
|
=1' qua [d e f#] [g f g] min. a
=1, min. dr)1(2 d)2
/
4 bars | 1b 6/4 2 | 12 | 12 | 12 |
|
I0.9  Es ist ein Ros' entsprungen
=1 bass 1b 6/4 cro a
I0.2      p
i0.2           dolce . . .
|
I0.1 .77 '
=1 cro g f A B G A
|
I0.1 .76 '
=1 cro c d e min f cro G
|
=1 cro A B G min A cro c
/
3 bars | 3 2.5 | 5 | 6 |
|
I0.1 .78 '
=1' bass 1b min. F cro B{1 c}1 a
=1, 1b min. blank min F cro a
|
il0.4      5
=1 cro g f F B G A
|
I0.1 .76 '
=1 cro c d e min f cro G
/
3 bars | 6.6 | 5 | 5 |
|
I0.1 .76 '
=1 bass 1b cro A B G min A cro c
|
I0.1 .76 '
=1' min. F cro B{1 c}1 f
=1, min. blank min F cro f
|
I0.1 .76 '
=1 cro e c A min d cro G
/
3 bars | 6.6 | 6 | 6 |
|
il0.3     10
=1' bass 1b min e cro f d e f
=1, bass 1b cro c A F min cr cro f(1
|
=1 cro f)1 g a b g qua [a A,]
|
=1 qua [c, e d, f e c,] cro f d e
/
3 bars | 6.6 | 5 | 5 |
|
=1 bass 1b cro F# B G A min c
|
I0.1 .76 '
=1' min. F cro B{1 c}1 f
=1, min. blank min F cro f
|
il0.3     15
=1' cro e, c A cro. d qua rest' [e d]
=1, min. blank cro. d qua F cro G
/
3 bars | 1b 3.5 3 | 6 | 3.5 3 |
|
I0.1 .78 '
=1' bass 1b qua [Bn c B c(2 c)2 d] cro f e f(1
=1, bass 1b cro Ar min F c cro f
|
=1 cro f)1 g a b g qua [a A,]
|
=1 qua [c, e d, f e c,] cro f d e
/
3 bars | 6.6 | 5 | 4 ||
|
=1 bass 1b cro F# B G A min c
|
=1' min. F cro B c B
=1, min. blank F
|
=1 min. <F, c'> cro rest rest

10 systems /22 10/22/22/22/22 50/22 10/22/22/22/22 50/
pagenum
innerhead Choralvorspiele, Johannes Brahms
title O Welt, ich muss dich lassen
leftfoot Arranged and Typeset 1998 by Peter J Billam.
midi pause 3.9
/
4 bars |2.3 |.8 .8 .8 .8 .6 .6 .6 1.4 |1.1 1.1 1.1 1.1 .6 1.4 .6 1.4 |.6 1.4 .6 1.4 .6 1.4 .6 1.4 |4.5 |
|
I0.7   Great Bass (C) part
=1 bass8va 1b 4/2 qua rest
I0.2       f
i0.2           ma dolce . . .
|
=1 min F f min.. F qua F
|
=1 3/2 qua [F{2 G}2 G{2 A}2] cro. A{2 qua G}2 cro. G{2 qua D}2
|
=1 4/2 cro. D{2 qua F}2 cro. F{2 qua A}2 cro. A{2 qua c}2 cro. c{2 qua d'}2 
|
=1 3/2 min d' B A
/
5 bars | 1b 4.5 | 4.5 | 1.5 1.5 2 \
 | 1 1 1 1 1 1.7 1 1.7 | 1 1.7 1 1.7 1.6 1.6 |
|
il0.3     5
=1 bass8va 1b min d' c rest
|
=1 min rest rest rest
|
=1 min rest rest cro rest d'
|
=1 4/2 min G C cro. c{2 qua G}2 cro. G{2 qua D}2
|
=1 3/2 cro. D{2 qua F}2 cro. F{2 qua B}2 [B{2 G}2 G{2 F}2]
/
2 bars | 2 2.5 2.5 | 1.2 1.2 1 1 1.6 1.2 1 1 |
|
il0.4    10
=1 bass8va 1b cro. F{2 qua C}2 [c{2 A}2 A{2 G}2] [B{2 G}2 G{2 D}2]
|
=1 4/2 qua [D{2 E}2 E{2 F}2] cro. F{2 qua A}2 [A{2 Bn}2 B{2 c}2] cro. c{2 qua A}2
/
3 bars | 7 | 6 | 8 |
|
=1 bass8va 1b 3/2 min d eb cro c A
|
=1 min d' c rest
|
=1 4/2 min rest rest qua rest [f e d,] cro c Bn
/
5 bars | 1.4 1 1 1 1.4 1 | 1.5 .7 .7 .6 .6 .6 .6 .6 | 1 1 1 1.4 | 4 | 2.3 ||
|
il0.4   15
=1 bass8va 1b 3/2 cro c c# d e f f#
|
=1 4/2 qua [g a] cro b min rest rest rest
|
=1 min rest rest rest c
|
=1 smb F(2 F)2(2
|
=1 smb F)2-fermata

/
4 bars |2.3 |.8 .8 .8 .8 .6 .6 .6 1.4 |1.1 1.1 1.1 1.1 .6 1.4 .6 1.4 |.6 1.4 .6 1.4 .6 1.4 .6 1.4 |4.5 |
|
I1.1   Part for Contrabass (F) recorder or 'Cello or Gamba
=1 bass 1b 4/2 qua rest
I0.2       f
i0.2           ma dolce . . .
|
=1 min f f~ min.. f qua f
|
=1 3/2 qua [f{1 g}1 g{1 a}1] cro. a{1 qua g}1 cro. g{1 qua d}1
|
=1 4/2 cro. d{1 qua f}1 cro. f{1 qua a}1 cro. a{1 qua c~}1 cro. c~{1 qua d~}1 
|
=1 3/2 min d~ b a
/
5 bars | 1b 5.5 | 4.5 | 1.5 1.5 2 \
 | 1 1 1 1 1 1.7 1 1.7 | 1 1.7 1 1.7 1.6 1.6 |
|
il0.3     5
=1 bass 1b min d~ c~ rest
|
=1 min rest rest rest
|
=1 min rest rest cro rest d~
|
=1 4/2 min g c cro. c~{1 qua g}1 cro. g{1 qua d}1
|
=1 3/2 cro. d{1 qua f}1 cro. f{1 qua b}1 [b{1 g}1 g{1 f}1]
/
2 bars | 3 3 3 4 4 4 4 4 4 4 4 4 \
 | 4/2 4 4 4 4 3 3 3 4 5 4 4 4 3 3 3 4 |
|
il0.4    10
=1 bass 1b cro. f{1 qua c}1 [c~{1 a}1 a{1 g}1] [b{1 g}1 g{1 d}1]
|
=1 4/2 qua [d{1 e}1 e{1 f}1] cro. f{1 qua a}1 [a{1 bn}1 b{1 c~}1] cro. c~{1 qua a}1
/
3 bars | 7 | 6 | 8 |
|
=1 bass 1b 3/2 min d~ e~b cro c~ a
|
=1 min d~ c~ rest
|
=1 4/2 min rest rest qua rest [f e d,] cro c Bn
/
5 bars | 1.4 1 1 1 1.4 1 | 1.5 .7 .7 .6 .6 .6 .6 .6 | 1 1 1 1.4 | 4 | 2.3 ||
|
il0.4   15
=1 bass 1b 3/2 cro c c# d e f f#
|
=1 4/2 qua [g a] cro b min rest rest rest
|
=1 min rest rest rest c
|
=1 smb F(2 F)2(2
|
=1 smb F)2-fermata

