%!PS-Adobe-3.0 EPSF-3.0
%%BoundingBox: 0 0 1280 720
%%%%%%%%%%%%%%%%%%%%%%%%%%%%%%%%%%%%%%%%%%%%%%%%%%%%%%%%%%%%%%%%%%%%%%%%%
%           This EPS is Copyright (c) 2020, Peter J Billam              %
% Permission is granted  to any individual or institution to use, copy, %
% modify or redistribute this software, so long as it is not resold for %
% profit, and provided this notice is retained. It is provided "as is", %
% without any express or implied warranty.        http://pjb.com.au     %
%%%%%%%%%%%%%%%%%%%%%%%%%%%%%%%%%%%%%%%%%%%%%%%%%%%%%%%%%%%%%%%%%%%%%%%%%
/xmax 1280 def  /ymax 720 def
/xmid xmax 0.5 mul def  /ymid ymax 0.5 mul def
%%EndComments
%%BeginProlog
(/home/pjb/ps/lib/muscript.ps) run
(/home/pjb/ps/lib/text.ps) run
(/home/pjb/mus/arr/scriabin/op54_video/lib/themes.ps) run
%%EndProlog

% perhaps better in 3 frames:  1) Introduction and Exposition
%      2) Development and Reprise  3) Development and Coda

xmax 0.50 mul ymax 0.90 mul  /Parisian   ymax 0.0955 mul
(Alexander Scriabin    The Poem of Ecstasy   Op.54) centreshow

gsave xmax 0.15 mul ymax 0.74 mul translate 0.75 dup scale 0 0 bar002 grestore
gsave xmax 0.47 mul ymax 0.74 mul translate 0.75 dup scale 0 0 bar013 grestore
gsave xmax 0.81 mul ymax 0.74 mul translate 0.75 dup scale 0 0 bar019 grestore
gsave xmax 0.25 mul ymax 0.56 mul translate 0.85 dup scale 0 0 bar039 grestore
gsave xmax 0.70 mul ymax 0.56 mul translate 0.85 dup scale 0 0 bar071 grestore
gsave xmax 0.20 mul ymax 0.38 mul translate 0.75 dup scale 0 0 bar095 grestore
gsave xmax 0.60 mul ymax 0.38 mul translate 0.75 dup scale 0 0 bar103 grestore
gsave xmax 0.60 mul ymax 0.20 mul translate 0.75 dup scale 0 0 bar111 grestore

%xmax 0.5 mul  ymax 0.08 mul /Times-Italic-ISO ymax 0.060 mul
%(The main themes) centreshow

%%EOF
