%!PS-Adobe-3.0 EPSF-3.0
%%BoundingBox: 0 0 1280 720
%%%%%%%%%%%%%%%%%%%%%%%%%%%%%%%%%%%%%%%%%%%%%%%%%%%%%%%%%%%%%%%%%%%%%%%%%
%           This EPS is Copyright (c) 2020, Peter J Billam              %
% Permission is granted  to any individual or institution to use, copy, %
% modify or redistribute this software, so long as it is not resold for %
% profit, and provided this notice is retained. It is provided "as is", %
% without any express or implied warranty.        http://pjb.com.au     %
%%%%%%%%%%%%%%%%%%%%%%%%%%%%%%%%%%%%%%%%%%%%%%%%%%%%%%%%%%%%%%%%%%%%%%%%%
/xmax 1280 def  /ymax 720 def
/xmid xmax 0.5 mul def  /ymid ymax 0.5 mul def
%%EndComments
%%BeginProlog
(/home/pjb/ps/lib/muscript.ps) run
(/home/pjb/ps/lib/text.ps) run
(/home/pjb/mus/arr/scriabin/op54_video/lib/themes.ps) run
%%EndProlog

xmax 0.50 mul ymax 0.90 mul  /Parisian   ymax 0.0955 mul
(Alexander Scriabin    The Poem of Ecstasy   Op.54) centreshow
5 display_sections

xmid ymid bar547

/Times-Italic-ISO ymax 0.050 mul selectfont
% /Parisian ymax 0.080 mul selectfont   % can't move to the next line :-(
% /Parisian findfont ymax 0.080 mul scalefont setfont  % here neither :-(
xmax 0.25 mul  ymax 0.2 mul
(C'est alors que dans l'univers tout entier retentit l'echo de son cri de joie Je suis !)
xmax 0.50 mul LeftJustifyText

%%EOF
