
       Cry Me a River     by Arthur Hamilton, as played by Davey Graham

                                                      bar 5
 e|---7-----7--|---7-----7--|---1x53-3450|---0-0--0--0|5-56-56-5---|
 B|--5-5---5-5-|--5-5---5-5-|--1---------|---1-x0--4--|-----------6|
 G|-5---5-5---5|-5---5-5---5|-2----------|---0-1---1--|-----------6|
 D|7-----6-----|5-----4-----|3-----------|------------|-----------5|
 A|------------|------------|------------|--3---------|------------|
 E|------------|------------|------------|0----0------|---------0--|

                                                      bar 10
 e|--------0---|------------|--------0---|---7-----7--|---7-----7--|
 B|5-53-13----3|---3-13-1--1|--1----0----|--5-5---5-5-|--5-5---5-5-|
 G|5-----------|---------2--|2-----1-----|-5---5-5---5|-5---0-5---0|
 D|4-----------|------------|--2--2------|7-----6-----|5-----4-----|
 A|------------|------------|--0---------|------------|------------|
 E|---------0--|0-----------|---0--------|------------|------------|

                                                      bar 15
 e|---1x53-3450|---3-04-0--0|5-56-56-5---|------------|------------|
 B|--1---------|---1-----4--|-----------6|5-53-13-5--3|---3-13-1--1|
 G|-2----------|------------|-----------6|5-----------|---------2--|
 D|3-----------|------------|-----------5|4-----------|------------|
 A|------------|--3---------|------------|------------|------------|
 E|------------|------------|---------0--|---------0--|0-----------|

                                                       bar 20
 e|--------0---||0x023------0|2-03-2-x---0|3-3--57-5--3|5-----------|
 B|--1----0----||0-x---0-24--|------x-10-x|------------|---1--0-x---|
 G|2-2---1-----||0-x---------|--------32-x|------------|---3--2x----|
 D|--2---------||5-x---------|--------21--|x-----------|---2--1x----|
 A|------------||7-x---------|--------32--|x-----------|---3--2x----|
 E|0----0------||0-x---------|------------|------------|--------03-0|

                                                       bar 25
 e|--023------0|2-03-2-x----|202--0230---|202--02-03--||---7-----7--|
 B|0x---0--24--|------------|------------|---------1--||--5-5---5-5-|
 G|0x----------|-----------1|-----------2|---------2--||-5---5-5---5|
 D|2-x---------|------------|----------0-|---------0--||7-----6-----|
 A|------------|----------2-|------------|------------||------------|
 E|------------|------------|------------|------------||------------|

                                                      bar 30
 e|---7-----7--|---1x53-3450|---3-04-0--0|5-56-56-5---|------------|
 B|--5-5---5-5-|--1---------|---1-----4--|-----------6|5-53-13-5--3|
 G|-5---0-5---0|-2----------|------------|-----------6|5-----------|
 D|5-----4-----|3-----------|------------|-----------5|4-----------|
 A|------------|------------|--3---------|------------|------------|
 E|------------|------------|------------|---------0--|---------0--|


 e|------------|------------|------------|----------0-|67-4--------||
 B|---3-13-1--1|--1---1---x3|---3-13-1--1|--------1---|------------||
 G|---------2--|2-2---2---x-|---------2--|------2-----|------------||
 D|------------|--2---3-3-x-|------------|----2-------|------------||
 A|------------|---0-3----x-|------------|0-3---------|------------||
 E|0-----------|------------|0-----------|------------|------------||

====================================================================

