
                     Veronica          Bert Jansch, 1st album

                                            bar 5
 e|-|--0------|--0------|--0------|--0------|--0------|--0------|--0------|
 B|-|-----3---|5----3---|02---3---|5----3---|02---3---|5----3---|02---3---|
 G|-|---------|---------|---------|---------|---------|---------|---------|
 D|-|------0--|------0--|------0--|------0--|------0--|------0--|------0--|
 A|-|2--------|3--------|2--------|3--------|2--------|3--------|2--------|
 E|0|---------|--------0|--------0|--------0|--------0|--------0|--------0|

                      bar 10
 e|--0------|---------|---------|---------|---------|-----0---|-----0---|
 B|5--------|-----0---|-----0---|-----0---|-----0---|--5------|--3------|
 G|---------|024------|--4------|024------|--4------|--4------|--2------|
 D|------0--|------0--|------0--|------0--|------0--|------0--|------0--|
 A|3--------|2--------|3--------|2--------|3--------|2--------|3--------|
 E|--------0|--------0|--------0|--------0|--------0|--------0|--------0|

  bar 15                                            bar 20
 e|-----0---|-----0---|-----0---|-----0---|-----0---|---------|-----0---|
 B|--5------|--3------|--5------|--3------|--2------|-----0---|--2------|
 G|--4------|--2------|--4------|--0202---|--01-----|--4------|--01-----|
 D|------0--|------0--|------0--|------0--|------0--|--2---0--|------0--|
 A|2--------|3--------|2--------|3--------|2--------|3--------|2--------|
 E|--------0|--------0|--------0|--------0|--------0|--------0|--------0|

                                bar 25
 e|---------|-----0---|---------|---------|---------|---------|---------|
 B|-----0---|--2------|-----0---|-----0---|-----0---|-----0---|-----0---|
 G|--4------|--01-----|--4------|024------|--4------|024------|--4------|
 D|--2---0--|------0--|--2---0--|------0--|------0--|------0--|------0--|
 A|3--------|2--------|3--------|2--------|3--------|2--------|3--------|
 E|--------0|--------0|--------0|--------0|--------0|--------0|--------0|

            bar 30                                            bar 35
 e|-20-0----|---------|---------|-----0---|---------|---------|---------|
 B|---3-----|---------|-30-0----|---------|-----0---|-----0---|-----0---|
 G|---------|-20-0----|---4-----|-40-0----|024------|--4------|024------|
 D|------0--|---4--0--|------0--|---5--0--|------0--|------0--|------0--|
 A|2--------|3--------|2--------|3--------|2--------|3--------|2--------|
 E|--------0|--------0|--------0|--------0|--------0|--------0|--------0|

                                          bar 40
 e|---------|-----0---|-----0---|-----0---|-----0---|-----0---|---------|
 B|-----0---|--5------|--3------|--5------|--3------|--2------|-----0---|
 G|--4------|--4------|--2------|--4------|--2------|--01-----|--4------|
 D|------0--|------0--|------0--|------0--|------0--|------0--|--2---0--|
 A|3--------|2--------|3--------|2--------|3--------|2--------|3--------|
 E|--------0|--------0|--------0|--------0|--------0|--------0|--------0|

                      bar 45
 e|-----0---|---------|-20-0----|---------|---------|-----0---|---------|
 B|--2------|-----0---|---3-----|---------|-30-0----|---------|-----0---|
 G|--0101---|--4------|---------|-20-0----|---4-----|-40-0----|024------|
 D|------0--|--2---0--|------0--|---4--0--|------0--|---5--0--|------0--|
 A|2--------|3--------|2--------|3--------|2--------|3--------|2--------|
 E|--------0|--------0|--------0|--------0|--------0|--------0|--------0|

  bar 50                                            bar 55
 e|---------|--0------|--0------|--0------|--0------|--0------|--0------|
 B|-----0---|-----3---|5----3---|-----3---|5----3---|2----3---|5----0---|
 G|--4------|---------|---------|---------|---------|---------|---------|
 D|------0--|------0--|------0--|------0--|------0--|------0--|------0--|
 A|3--------|2--------|3--------|2--------|3--------|2--------|3--------|
 E|--------0|---------|--------0|--------0|--------0|--------0|--------0|

 e|--------------||
 B|-----0--------||
 G|024-----------||
 D|-------0------||
 A|2-------------||
 E|--------------||

========================================================================
